220.0	230.0	0.8	0.886697
60.0	135.0	0.48	0.411348
300.0	201.0	0.88	0.874269
180.0	89.0	0.6	0.446145
291.0	210.0	0.8	0.879862
180.0	104.0	0.48	0.497718
267.0	212.0	0.7	0.77485
295.0	217.0	0.6	0.577254
180.0	219.0	0.78	0.756209
360.0	290.0	0.92	0.944484
223.0	165.0	0.7	0.683508
138.0	267.0	0.8	0.851279
360.0	244.0	0.78	1.045146
180.0	221.0	0.85	0.829531
205.0	300.0	0.8	0.873027
449.0	265.0	0.8	0.840094
240.0	173.0	0.84	0.809025
120.0	124.0	0.69	0.641255
395.0	114.0	0.6	0.551778
262.0	176.0	0.9	0.905338
420.0	149.0	0.79	0.78852
300.0	194.0	0.66	0.583468
240.0	191.0	0.67	0.658032
240.0	190.0	0.64	0.627585
240.0	161.0	0.5	0.49399
209.0	210.0	0.9	0.925222
255.0	286.0	1.1	1.106662
480.0	295.0	1.15	1.156993
360.0	225.0	0.58	0.572283
290.0	266.0	0.7	0.805918
296.0	252.0	1.3	1.281267
259.0	223.0	1.1	1.109148
300.0	245.0	0.7	0.660518
120.0	57.0	0.34	0.270918
540.0	285.0	0.97	0.999786
120.0	83.0	0.45	0.448009
261.0	332.0	0.9	0.91528
600.0	170.0	0.66	0.701528
180.0	182.0	0.51	0.474728
180.0	218.0	0.51	0.692208
180.0	157.0	0.66	0.640012
240.0	263.0	1.02	1.02402
315.0	268.0	1.0	1.021534
268.0	233.0	0.8	0.827666
196.0	172.0	0.9	0.887318
202.0	214.0	0.6	0.607701
156.0	190.0	0.8	0.826424
360.0	183.0	0.68	0.601487
244.0	199.0	0.6	0.653682
300.0	179.0	0.69	0.621371
203.0	240.0	0.9	0.912173
268.0	247.0	0.9	0.925843
109.0	129.0	0.5	0.535622
240.0	182.0	0.82	0.80654
480.0	177.0	0.59	0.627585
208.0	208.0	0.7	0.715198
278.0	233.0	0.8	0.836366
180.0	185.0	0.94	0.920872
360.0	227.0	1.16	1.143944
378.0	341.0	1.1	1.130274
240.0	224.0	0.67	0.676673
180.0	314.0	0.65	0.984873
419.0	223.0	0.7	0.753102
300.0	272.0	0.92	0.932678
120.0	138.0	0.71	0.712713
295.0	133.0	0.7	0.678537
420.0	385.0	1.41	1.387522
309.0	140.0	0.8	0.766772
373.0	374.0	1.4	1.45028
196.0	240.0	0.8	0.740053
357.0	206.0	0.7	0.772986
300.0	208.0	0.63	0.643119
198.0	186.0	0.6	0.600866
260.0	198.0	0.7	0.633799
120.0	159.0	0.6	0.603973
113.0	154.0	0.7	0.684751
115.0	170.0	0.5	0.536865
174.0	169.0	0.5	0.535001
462.0	184.0	0.7	0.782306
305.0	241.0	0.9	0.913416
249.0	241.0	0.9	0.914037
297.0	213.0	0.6	0.643741
377.0	201.0	0.8	0.83388
420.0	209.0	0.91	0.910309
240.0	154.0	0.7	0.674188
204.0	215.0	0.7	0.677916
512.0	252.0	0.8	1.252684
180.0	78.0	0.48	0.418183
360.0	244.0	0.99	0.966232
428.0	256.0	0.8	0.835744
453.0	177.0	0.7	0.735703
212.0	181.0	0.4	0.386493
191.0	250.0	0.7	0.733218
229.0	188.0	0.9	0.853764
420.0	246.0	0.8	0.772986
420.0	146.0	0.59	0.576632
480.0	143.0	0.62	0.619507
137.0	238.0	0.8	0.807783
180.0	188.0	0.96	0.938892
167.0	122.0	0.5	0.541836
372.0	274.0	1.0	1.063787
203.0	268.0	1.0	1.02402
165.0	191.0	0.6	0.658653
196.0	252.0	1.0	1.006621
180.0	154.0	0.48	0.466028
279.0	130.0	0.5	0.535622
156.0	185.0	0.8	0.815239
191.0	141.0	0.6	0.691586
420.0	265.0	1.03	1.040797
180.0	167.0	0.59	0.57104
120.0	52.0	0.5	0.293909
139.0	111.0	0.6	0.597138
276.0	179.0	0.7	0.715198
330.0	286.0	0.8	0.882347
360.0	167.0	0.47	0.453601
367.0	237.0	1.1	1.103555
358.0	255.0	0.6	0.692829
120.0	233.0	0.69	0.672324
120.0	95.0	0.51	0.507039
180.0	150.0	0.76	0.766772
512.0	305.0	1.1	1.060681
240.0	186.0	0.59	0.600866
283.0	275.0	0.8	0.858735
60.0	106.0	0.49	0.509524
360.0	261.0	1.09	1.063166
350.0	250.0	0.8	0.84755
660.0	176.0	0.76	0.766151
180.0	156.0	0.76	0.771743
173.0	176.0	0.7	0.74316
240.0	227.0	0.6	0.681644
274.0	135.0	0.7	0.552399
291.0	155.0	0.8	0.876133
159.0	260.0	1.0	1.007864
235.0	420.0	1.0	1.674595
180.0	268.0	1.04	1.04701
205.0	237.0	0.6	0.654925
159.0	153.0	0.6	0.614536
304.0	176.0	0.7	0.699043
240.0	174.0	0.7	0.683508
283.0	182.0	0.7	0.727004
240.0	144.0	0.49	0.496476
181.0	184.0	0.6	0.583468
383.0	342.0	1.1	1.140216
180.0	207.0	0.81	0.800326
191.0	162.0	0.5	0.499582
166.0	220.0	0.5	0.708985
321.0	222.0	0.8	0.717062
240.0	114.0	0.59	0.58471
172.0	214.0	0.7	0.795976
420.0	293.0	1.23	1.240878
377.0	270.0	1.2	1.115983
157.0	165.0	0.7	0.66176
628.0	194.0	0.7	0.768015
203.0	184.0	0.7	0.771743
954.0	216.0	1.0	0.928329
205.0	179.0	0.7	0.728247
244.0	248.0	0.7	0.717062
109.0	180.0	0.5	0.506418
120.0	162.0	0.56	0.501447
292.0	253.0	0.7	0.713955
360.0	131.0	0.64	0.632556
660.0	318.0	1.0	1.434125
178.0	183.0	0.5	0.534379
113.0	171.0	0.5	0.535622
454.0	443.0	1.2	1.230315
234.0	196.0	0.8	0.821453
420.0	169.0	0.51	0.506418
603.0	351.0	1.2	1.175013
420.0	259.0	1.16	1.176256
300.0	181.0	0.77	0.562962
257.0	182.0	0.7	0.714577
286.0	157.0	0.6	0.592788
182.0	219.0	0.7	0.676052
420.0	219.0	0.78	0.763665
240.0	203.0	0.72	0.705878
227.0	145.0	0.6	0.588439
420.0	148.0	0.59	0.617643
420.0	268.0	0.86	0.882347
240.0	257.0	1.07	1.06938
120.0	89.0	0.5	0.491505
416.0	240.0	0.6	0.814618
300.0	214.0	0.95	0.94262
202.0	207.0	0.8	0.825181
420.0	206.0	1.24	1.003514
405.0	189.0	0.7	0.633799
364.0	153.0	0.7	0.654925
235.0	209.0	0.6	0.605216
212.0	169.0	0.5	0.524437
180.0	171.0	0.57	0.542457
151.0	165.0	0.5	0.505796
240.0	167.0	0.75	0.751859
120.0	128.0	0.49	0.467271
240.0	218.0	0.63	0.596516
196.0	263.0	1.0	1.063166
360.0	233.0	0.94	0.9333
180.0	178.0	0.56	0.572283
360.0	237.0	0.81	0.812754
540.0	813.0	1.33	5.323287
360.0	344.0	0.94	0.931435
545.0	272.0	1.1	1.117847
420.0	266.0	0.83	0.853764
160.0	102.0	0.5	0.492126
300.0	217.0	0.96	0.958776
360.0	222.0	0.71	0.685994
231.0	230.0	0.8	0.81586
280.0	115.0	0.5	0.542457
841.0	210.0	0.9	0.951319
180.0	236.0	1.16	0.976796
420.0	208.0	0.66	0.647469
240.0	104.0	0.56	0.543078
180.0	217.0	0.65	0.671081
120.0	181.0	0.8	0.80654
145.0	108.0	0.5	0.532515
367.0	117.0	0.6	0.653682
146.0	140.0	0.6	0.62075
240.0	239.0	0.7	0.695314
201.0	189.0	0.5	0.487776
180.0	181.0	0.72	0.720169
218.0	228.0	0.8	0.840715
342.0	233.0	0.9	0.973689
999.0	245.0	0.9	0.988602
280.0	250.0	0.9	0.891046
235.0	137.0	0.7	0.74751
300.0	181.0	0.6	0.617022
257.0	218.0	0.6	0.59838
219.0	140.0	0.5	0.504553
120.0	86.0	0.5	0.391464
180.0	190.0	0.49	0.714577
180.0	132.0	0.51	0.459193
300.0	180.0	0.74	0.751238
240.0	235.0	0.83	0.816482
300.0	218.0	0.78	0.773607
152.0	145.0	0.4	0.401406
256.0	154.0	0.7	0.695936
308.0	177.0	0.7	0.726383
277.0	155.0	0.7	0.702771
235.0	191.0	0.7	0.631935
120.0	251.0	0.73	0.702771
284.0	239.0	0.7	0.749995
180.0	160.0	0.55	0.53935
180.0	294.0	0.89	0.923979
180.0	180.0	0.49	0.474106
193.0	154.0	0.6	0.623235
509.0	329.0	0.9	0.953805
281.0	179.0	0.6	0.683508
540.0	265.0	0.87	0.842579
182.0	174.0	0.6	0.605837
240.0	165.0	0.66	0.529408
300.0	244.0	0.67	0.855628
216.0	143.0	0.8	0.794734
540.0	420.0	1.5	1.568962
420.0	244.0	0.72	0.643119
240.0	119.0	0.46	0.469135
240.0	170.0	0.62	0.588439
190.0	152.0	0.6	0.60273
118.0	146.0	0.5	0.539972
300.0	165.0	0.67	0.637527
129.0	650.0	0.6	4.677061
120.0	150.0	0.74	0.60708
152.0	155.0	0.6	0.632556
251.0	229.0	0.9	1.066894
259.0	242.0	0.6	0.853143
441.0	245.0	0.9	0.733218
663.0	273.0	0.8	0.871784
480.0	225.0	0.79	0.79287
171.0	201.0	0.6	0.58471
300.0	195.0	0.69	0.654925
164.0	207.0	0.5	0.546807
240.0	169.0	0.72	0.717062
240.0	139.0	0.68	0.709606
182.0	189.0	0.7	0.631313
357.0	281.0	1.0	1.104177
240.0	96.0	0.57	0.535001
180.0	162.0	0.49	0.494611
242.0	167.0	0.8	0.825181
241.0	167.0	0.5	0.515117
107.0	106.0	0.5	0.511388
180.0	146.0	0.58	0.58906
111.0	153.0	0.5	0.496476
512.0	251.0	0.7	0.764287
204.0	251.0	0.9	0.869298
219.0	248.0	0.8	0.899124
385.0	395.0	1.4	1.47265
254.0	223.0	0.8	0.819589
249.0	128.0	0.6	0.641255
648.0	255.0	1.0	1.012835
189.0	168.0	0.6	0.661139
390.0	198.0	0.9	0.882347
213.0	164.0	0.6	0.644983
183.0	204.0	0.7	0.717062
185.0	177.0	0.7	0.740053
240.0	150.0	0.66	0.651818
330.0	245.0	0.9	0.9246
238.0	181.0	0.8	0.818967
194.0	232.0	0.5	0.508282
188.0	192.0	0.7	0.67543
300.0	160.0	0.68	0.622614
186.0	157.0	0.7	0.733839
325.0	242.0	0.8	0.814618
180.0	230.0	1.0	1.008485
360.0	311.0	1.01	0.981766
296.0	112.0	0.4	0.35791
123.0	233.0	0.5	0.793491
650.0	191.0	0.6	0.650576
240.0	157.0	0.53	0.603351
