%!PS-Adobe-2.0 
%%Creator: MATLAB, The MathWorks, Inc. Version 8.1.0.604 (R2013a). Operating System: Microsoft Windows 8.
%%Title: .\cluster0.eps
%%CreationDate: 10/03/2014  01:08:42
%%DocumentNeededFonts: Helvetica
%%DocumentProcessColors: Cyan Magenta Yellow Black
%%Extensions: CMYK
%%Pages: (atend)
%%BoundingBox: (atend)
%%EndComments

%%BeginProlog
% MathWorks dictionary
/MathWorks 160 dict begin
% definition operators
/bdef {bind def} bind def
/ldef {load def} bind def
/xdef {exch def} bdef
/xstore {exch store} bdef
% operator abbreviations
/c  /clip ldef
/cc /concat ldef
/cp /closepath ldef
/gr /grestore ldef
/gs /gsave ldef
/mt /moveto ldef
/np /newpath ldef
/cm /currentmatrix ldef
/sm /setmatrix ldef
/rm /rmoveto ldef
/rl /rlineto ldef
/s {show newpath} bdef
/sc {setcmykcolor} bdef
/sr /setrgbcolor ldef
/sg /setgray ldef
/w /setlinewidth ldef
/j /setlinejoin ldef
/cap /setlinecap ldef
/rc {rectclip} bdef
/rf {rectfill} bdef
% page state control
/pgsv () def
/bpage {/pgsv save def} bdef
/epage {pgsv restore} bdef
/bplot /gsave ldef
/eplot {stroke grestore} bdef
% orientation switch
/portraitMode 0 def /landscapeMode 1 def /rotateMode 2 def
% coordinate system mappings
/dpi2point 0 def
% font control
/FontSize 0 def
/FMS {/FontSize xstore findfont [FontSize 0 0 FontSize neg 0 0]
  makefont setfont} bdef
/ISOLatin1Encoding where {pop /WindowsLatin1Encoding 256 array bdef
ISOLatin1Encoding WindowsLatin1Encoding copy pop
/.notdef/.notdef/quotesinglbase/florin/quotedblbase/ellipsis/dagger
/daggerdbl/circumflex/perthousand/Scaron/guilsinglleft/OE/.notdef/.notdef
/.notdef/.notdef/quoteleft/quoteright/quotedblleft/quotedblright/bullet
/endash/emdash/tilde/trademark/scaron/guilsinglright/oe/.notdef/.notdef
/Ydieresis WindowsLatin1Encoding 128 32 getinterval astore pop}
{/WindowsLatin1Encoding StandardEncoding bdef} ifelse
/reencode {exch dup where {pop load} {pop StandardEncoding} ifelse
  exch dup 3 1 roll findfont dup length dict begin
  { 1 index /FID ne {def}{pop pop} ifelse } forall
  /Encoding exch def currentdict end definefont pop} bdef
/isroman {findfont /CharStrings get /Agrave known} bdef
/FMSR {3 1 roll 1 index dup isroman {reencode} {pop pop} ifelse
  exch FMS} bdef
/csm {1 dpi2point div -1 dpi2point div scale neg translate
 dup landscapeMode eq {pop -90 rotate}
  {rotateMode eq {90 rotate} if} ifelse} bdef
% line types: solid, dotted, dashed, dotdash
/SO { [] 0 setdash } bdef
/DO { [.5 dpi2point mul 4 dpi2point mul] 0 setdash } bdef
/DA { [6 dpi2point mul] 0 setdash } bdef
/DD { [.5 dpi2point mul 4 dpi2point mul 6 dpi2point mul 4
  dpi2point mul] 0 setdash } bdef
% macros for lines and objects
/L {lineto stroke} bdef
/MP {3 1 roll moveto 1 sub {rlineto} repeat} bdef
/AP {{rlineto} repeat} bdef
/PDlw -1 def
/W {/PDlw currentlinewidth def setlinewidth} def
/PP {closepath eofill} bdef
/DP {closepath stroke} bdef
/MR {4 -2 roll moveto dup  0 exch rlineto exch 0 rlineto
  neg 0 exch rlineto closepath} bdef
/FR {MR stroke} bdef
/PR {MR fill} bdef
/L1i {{currentfile picstr readhexstring pop} image} bdef
/tMatrix matrix def
/MakeOval {newpath tMatrix currentmatrix pop translate scale
0 0 1 0 360 arc tMatrix setmatrix} bdef
/FO {MakeOval stroke} bdef
/PO {MakeOval fill} bdef
/PD {currentlinewidth 2 div 0 360 arc fill
   PDlw -1 eq not {PDlw w /PDlw -1 def} if} def
/FA {newpath tMatrix currentmatrix pop translate scale
  0 0 1 5 -2 roll arc tMatrix setmatrix stroke} bdef
/PA {newpath tMatrix currentmatrix pop	translate 0 0 moveto scale
  0 0 1 5 -2 roll arc closepath tMatrix setmatrix fill} bdef
/FAn {newpath tMatrix currentmatrix pop translate scale
  0 0 1 5 -2 roll arcn tMatrix setmatrix stroke} bdef
/PAn {newpath tMatrix currentmatrix pop translate 0 0 moveto scale
  0 0 1 5 -2 roll arcn closepath tMatrix setmatrix fill} bdef
/vradius 0 def /hradius 0 def /lry 0 def
/lrx 0 def /uly 0 def /ulx 0 def /rad 0 def
/MRR {/vradius xdef /hradius xdef /lry xdef /lrx xdef /uly xdef
  /ulx xdef newpath tMatrix currentmatrix pop ulx hradius add uly
  vradius add translate hradius vradius scale 0 0 1 180 270 arc 
  tMatrix setmatrix lrx hradius sub uly vradius add translate
  hradius vradius scale 0 0 1 270 360 arc tMatrix setmatrix
  lrx hradius sub lry vradius sub translate hradius vradius scale
  0 0 1 0 90 arc tMatrix setmatrix ulx hradius add lry vradius sub
  translate hradius vradius scale 0 0 1 90 180 arc tMatrix setmatrix
  closepath} bdef
/FRR {MRR stroke } bdef
/PRR {MRR fill } bdef
/MlrRR {/lry xdef /lrx xdef /uly xdef /ulx xdef /rad lry uly sub 2 div def
  newpath tMatrix currentmatrix pop ulx rad add uly rad add translate
  rad rad scale 0 0 1 90 270 arc tMatrix setmatrix lrx rad sub lry rad
  sub translate rad rad scale 0 0 1 270 90 arc tMatrix setmatrix
  closepath} bdef
/FlrRR {MlrRR stroke } bdef
/PlrRR {MlrRR fill } bdef
/MtbRR {/lry xdef /lrx xdef /uly xdef /ulx xdef /rad lrx ulx sub 2 div def
  newpath tMatrix currentmatrix pop ulx rad add uly rad add translate
  rad rad scale 0 0 1 180 360 arc tMatrix setmatrix lrx rad sub lry rad
  sub translate rad rad scale 0 0 1 0 180 arc tMatrix setmatrix
  closepath} bdef
/FtbRR {MtbRR stroke } bdef
/PtbRR {MtbRR fill } bdef
/stri 6 array def /dtri 6 array def
/smat 6 array def /dmat 6 array def
/tmat1 6 array def /tmat2 6 array def /dif 3 array def
/asub {/ind2 exch def /ind1 exch def dup dup
  ind1 get exch ind2 get sub exch } bdef
/tri_to_matrix {
  2 0 asub 3 1 asub 4 0 asub 5 1 asub
  dup 0 get exch 1 get 7 -1 roll astore } bdef
/compute_transform {
  dmat dtri tri_to_matrix tmat1 invertmatrix 
  smat stri tri_to_matrix tmat2 concatmatrix } bdef
/ds {stri astore pop} bdef
/dt {dtri astore pop} bdef
/db {2 copy /cols xdef /rows xdef mul dup 3 mul string
  currentfile exch readhexstring pop
  dup 0 3 index getinterval /rbmap xdef
  dup 2 index dup getinterval /gbmap xdef
  1 index dup 2 mul exch getinterval /bbmap xdef pop pop}bdef
/it {gs np dtri aload pop moveto lineto lineto cp c
  cols rows 8 compute_transform 
  rbmap gbmap bbmap true 3 colorimage gr}bdef
/il {newpath moveto lineto stroke}bdef
currentdict end def
%%EndProlog

%%BeginSetup
MathWorks begin

0 cap

end
%%EndSetup

%%Page: 1 1
%%BeginPageSetup
%%PageBoundingBox:    75   215   550   602
MathWorks begin
bpage
%%EndPageSetup

%%BeginObject: obj1
bplot

/dpi2point 12 def
portraitMode 0204 7344 csm

  698   110  5706  4650 MR c np
85 dict begin %Colortable dictionary
/c0 { 0.000000 0.000000 0.000000 sr} bdef
/c1 { 1.000000 1.000000 1.000000 sr} bdef
/c2 { 0.900000 0.000000 0.000000 sr} bdef
/c3 { 0.000000 0.820000 0.000000 sr} bdef
/c4 { 0.000000 0.000000 0.800000 sr} bdef
/c5 { 0.910000 0.820000 0.320000 sr} bdef
/c6 { 1.000000 0.260000 0.820000 sr} bdef
/c7 { 0.000000 0.820000 0.820000 sr} bdef
c0
1 j
1 sg
   0    0 6913 5185 PR
6 w
0 4225 5356 0 0 -4225 899 4614 4 MP
PP
-5356 0 0 4225 5356 0 0 -4225 899 4614 5 MP stroke
4 w
DO
SO
6 w
0 sg
 899  389 mt 6255  389 L
 899 4614 mt 6255 4614 L
6255 4614 mt 6255  389 L
 899 4614 mt  899  389 L
 899 4614 mt 6255 4614 L
 899 4614 mt  899  389 L
 899 4614 mt  899 4560 L
 899  389 mt  899  442 L
%%IncludeResource: font Helvetica
/Helvetica /WindowsLatin1Encoding 120 FMSR

 866 4759 mt 
(0) s
1494 4614 mt 1494 4560 L
1494  389 mt 1494  442 L
1428 4759 mt 
(20) s
2089 4614 mt 2089 4560 L
2089  389 mt 2089  442 L
2023 4759 mt 
(40) s
2684 4614 mt 2684 4560 L
2684  389 mt 2684  442 L
2618 4759 mt 
(60) s
3279 4614 mt 3279 4560 L
3279  389 mt 3279  442 L
3213 4759 mt 
(80) s
3874 4614 mt 3874 4560 L
3874  389 mt 3874  442 L
3774 4759 mt 
(100) s
4469 4614 mt 4469 4560 L
4469  389 mt 4469  442 L
4369 4759 mt 
(120) s
5064 4614 mt 5064 4560 L
5064  389 mt 5064  442 L
4964 4759 mt 
(140) s
5659 4614 mt 5659 4560 L
5659  389 mt 5659  442 L
5559 4759 mt 
(160) s
6255 4614 mt 6255 4560 L
6255  389 mt 6255  442 L
6155 4759 mt 
(180) s
 899 4614 mt  952 4614 L
6255 4614 mt 6201 4614 L
 798 4658 mt 
(0) s
 899 4191 mt  952 4191 L
6255 4191 mt 6201 4191 L
 698 4235 mt 
(0.1) s
 899 3769 mt  952 3769 L
6255 3769 mt 6201 3769 L
 698 3813 mt 
(0.2) s
 899 3346 mt  952 3346 L
6255 3346 mt 6201 3346 L
 698 3390 mt 
(0.3) s
 899 2924 mt  952 2924 L
6255 2924 mt 6201 2924 L
 698 2968 mt 
(0.4) s
 899 2501 mt  952 2501 L
6255 2501 mt 6201 2501 L
 698 2545 mt 
(0.5) s
 899 2078 mt  952 2078 L
6255 2078 mt 6201 2078 L
 698 2122 mt 
(0.6) s
 899 1656 mt  952 1656 L
6255 1656 mt 6201 1656 L
 698 1700 mt 
(0.7) s
 899 1234 mt  952 1234 L
6255 1234 mt 6201 1234 L
 698 1278 mt 
(0.8) s
 899  811 mt  952  811 L
6255  811 mt 6201  811 L
 698  855 mt 
(0.9) s
 899  389 mt  952  389 L
6255  389 mt 6201  389 L
 798  433 mt 
(1) s
 899  389 mt 6255  389 L
 899 4614 mt 6255 4614 L
6255 4614 mt 6255  389 L
 899 4614 mt  899  389 L
gs 899 389 5357 4226 MR c np
/c8 { 0.000000 0.000000 1.000000 sr} bdef
c8
29 -136 30 -208 30 -62 30 208 29 337 30 -423 30 -103 30 0 
29 -150 30 26 30 -55 30 -294 29 -65 30 -487 30 -339 30 -313 
29 -306 30 -117 30 157 30 473 29 588 30 349 30 643 30 88 
29 519 30 -139 30 125 30 322 29 -110 30 -645 30 -483 30 497 
29 -69 30 -76 30 -137 30 -207 30 -146 29 98 30 375 30 -260 
30 -983 29 -893 30 -201 30 107 30 168 29 329 30 605 30 801 
30 733 29 466 30 -174 30 232 30 -15 29 -664 30 -667 30 414 
30 148 29 -426 30 -117 30 -153 30 55 29 50 30 330 30 -110 
30 -1111 29 -839 30 -200 30 9 30 134 29 215 30 471 30 545 
30 958 29 626 30 151 30 162 30 210 29 -920 30 -540 30 263 
30 43 30 -184 29 3 30 -103 30 -194 30 158 29 263 30 -79 
30 -1171 30 -829 29 -206 30 46 30 67 30 155 29 308 30 648 
30 963 30 576 29 126 2952 1579 100 MP stroke
30 450 30 -182 30 -588 29 -573 30 267 30 -4 30 -383 29 67 
30 -146 30 201 30 -14 29 394 30 -337 30 -1092 30 -703 29 -277 
30 22 30 81 30 167 29 402 30 504 30 820 30 76 29 655 
30 456 30 46 30 -576 30 -727 29 473 30 -59 30 -373 30 -65 
29 -153 30 -76 30 127 30 580 29 -439 30 -844 30 -906 30 -205 
29 38 30 55 30 158 30 198 29 394 30 359 30 471 30 14 
29 339 30 258 30 -109 30 -130 29 32 30 -275 30 86 30 -3 
29 -267 30 -390 30 -523 30 -151 29 -174 30 -72 30 -110 30 328 
29 717 30 657 30 492 30 5 928 2116 69 MP stroke
/c9 { 0.000000 0.500000 0.000000 sr} bdef
c9
29 -17 30 -283 30 -22 30 49 29 138 30 -561 30 66 30 79 
29 -244 30 -108 30 189 30 -194 29 -47 30 -283 30 -699 30 -174 
29 -283 30 24 30 276 30 448 29 622 30 347 30 332 30 475 
29 170 30 165 30 -15 30 209 29 -174 30 -874 30 -339 30 246 
29 -278 30 -155 30 -266 30 -364 30 -69 29 -113 30 -55 30 178 
30 -618 29 -160 30 -47 30 89 30 206 29 283 30 500 30 952 
30 665 29 430 30 -174 30 14 30 -160 29 -590 30 -458 30 -47 
30 -214 29 -440 30 2 30 -246 30 -120 29 -8 30 8 30 98 
30 -573 29 -246 30 -3 30 37 30 116 29 241 30 379 30 613 
30 895 29 591 30 -81 30 34 30 -34 29 -803 30 -585 30 310 
30 -414 30 -219 29 -110 30 -214 30 -5 30 -86 29 24 30 104 
30 -616 30 -142 29 -59 30 29 30 91 30 202 29 266 30 580 
30 719 30 834 29 12 2952 1762 100 MP stroke
30 315 30 -236 30 -455 29 -888 30 140 30 -190 30 -425 29 88 
30 -142 30 -101 30 -234 29 140 30 148 30 -608 30 -207 29 -118 
30 91 30 52 30 145 29 396 30 468 30 723 30 313 29 349 
30 160 30 20 30 -687 30 -536 29 148 30 -318 30 -209 30 -118 
29 -64 30 -62 30 -197 30 79 29 104 30 -571 30 -190 30 -64 
29 -12 30 84 30 214 30 101 29 428 30 160 30 374 30 265 
29 40 30 214 30 -59 30 -74 29 -189 30 -101 30 -32 30 157 
29 -455 30 39 30 -423 30 -396 29 -140 30 -62 30 -15 30 429 
29 824 30 568 30 234 30 98 928 2232 69 MP stroke
/c10 { 1.000000 0.000000 0.000000 sr} bdef
c10
29 95 30 -210 30 133 30 355 29 503 30 9 30 -112 30 234 
29 161 30 -78 30 127 30 -73 29 -369 30 -316 30 -912 30 -599 
29 -327 30 -127 30 87 30 192 29 143 30 76 30 240 30 505 
29 390 30 39 30 235 30 550 29 226 30 -271 30 -224 30 885 
29 119 30 -4 30 -100 30 -67 30 -285 29 -124 30 194 30 -276 
30 -1870 29 -537 30 -109 30 -10 30 119 29 104 30 250 30 626 
30 625 29 183 30 270 30 643 30 574 29 -450 30 -395 30 646 
30 -169 29 -262 30 296 30 -271 30 -87 29 -153 30 352 30 -580 
30 -1707 29 -477 30 -164 30 -5 30 54 29 79 30 254 30 446 
30 667 29 402 30 241 30 878 30 486 29 -376 30 -593 30 787 
30 -142 30 -392 29 299 30 -217 30 -314 30 -108 29 399 30 -460 
30 -1737 30 -504 29 -162 30 19 30 27 30 52 29 219 30 368 
30 850 30 293 29 306 2952 2417 100 MP stroke
30 767 30 543 30 -291 29 -776 30 867 30 -116 30 -405 29 245 
30 -285 30 -34 30 -163 29 301 30 -355 30 -1770 30 -491 29 -148 
30 -14 30 36 30 65 29 177 30 386 30 549 30 40 29 521 
30 777 30 529 30 -184 30 -538 29 497 30 -131 30 -347 30 149 
29 -113 30 -201 30 -205 30 347 29 -339 30 -1380 30 -494 30 -163 
29 4 30 21 30 69 30 79 29 337 30 158 30 205 30 265 
29 385 30 496 30 116 30 -124 29 183 30 -57 30 85 30 59 
29 -135 30 -409 30 -648 30 -498 29 -261 30 -164 30 -123 30 123 
29 281 30 104 30 156 30 240 928 3617 69 MP stroke
/c11 { 0.000000 0.750000 0.750000 sr} bdef
c11
29 -463 30 -25 30 -34 30 93 29 -25 30 193 30 -261 30 152 
29 -286 30 -68 30 371 30 -270 29 -151 30 -219 30 631 30 -825 
29 -732 30 -8 30 345 30 471 29 455 30 17 30 429 30 -51 
29 379 30 17 30 59 30 -76 29 135 30 -194 30 -429 30 219 
29 -118 30 -51 30 0 30 -404 30 -101 29 278 30 875 30 -892 
30 -993 29 -337 30 -109 30 278 30 -9 29 531 30 345 30 269 
30 446 29 253 30 -160 30 -59 30 176 29 -58 30 -455 30 -50 
30 210 29 -286 30 -168 30 25 30 -68 29 278 30 598 30 -631 
30 -1061 29 -454 30 58 30 127 30 84 29 345 30 497 30 311 
30 311 29 160 30 211 30 -286 30 277 29 -219 30 -370 30 177 
30 -227 30 -59 29 168 30 -337 30 127 30 -202 29 1060 30 -858 
30 -1036 30 -303 29 -8 30 109 30 186 30 218 29 228 30 656 
30 126 30 278 29 42 2952 2619 100 MP stroke
30 219 30 -25 30 -9 29 -673 30 160 30 101 30 -505 29 -8 
30 -144 30 135 30 211 29 555 30 -438 30 -1035 30 -421 29 26 
30 185 30 -17 30 286 29 219 30 724 30 -59 30 160 29 168 
30 210 30 -109 30 76 30 -345 29 320 30 -236 30 -404 30 -51 
29 -16 30 -9 30 101 30 564 29 -143 30 -1187 30 -353 30 -101 
29 118 30 50 30 135 30 261 29 614 30 -84 30 370 30 -67 
29 -93 30 362 30 -76 30 -58 29 260 30 -420 30 -34 30 -135 
29 26 30 33 30 -412 30 -413 29 -16 30 -118 30 -152 30 522 
29 530 30 270 30 227 30 -312 928 3099 69 MP stroke
/c12 { 0.750000 0.000000 0.750000 sr} bdef
c12
29 -361 30 -257 30 -82 30 -73 29 371 30 -314 30 0 30 380 
29 -196 30 -92 30 -25 30 -35 29 -123 30 -345 30 -339 30 -412 
29 -75 30 75 30 494 30 722 29 259 30 171 30 177 30 10 
29 -25 30 25 30 -320 30 -155 29 -47 30 -298 30 -205 30 307 
29 310 30 -143 30 41 30 38 30 396 29 940 30 633 30 -367 
30 -1668 29 -1260 30 -57 30 143 30 259 29 434 30 456 30 636 
30 319 29 54 30 -481 30 -174 30 -332 29 -215 30 -390 30 450 
30 259 29 79 30 -22 30 76 30 285 29 1130 30 842 30 -804 
30 -1693 29 -1273 30 -107 30 117 30 95 29 212 30 452 30 627 
30 538 29 101 30 -323 30 -218 30 -348 29 -203 30 -199 30 383 
30 399 30 -7 29 -133 30 95 30 323 30 1102 29 617 30 -741 
30 -1481 30 -1256 29 -162 30 67 30 44 30 313 29 282 30 563 
30 595 30 149 29 -174 2952 2588 100 MP stroke
30 -253 30 -193 30 -285 29 -260 30 415 30 127 30 164 29 -57 
30 -3 30 525 30 475 29 889 30 -623 30 -1402 30 -1174 29 -212 
30 -19 30 218 30 120 29 282 30 608 30 345 30 85 29 -28 
30 -48 30 -149 30 -262 30 -174 29 167 30 238 30 -98 30 47 
29 82 30 396 30 813 30 589 29 -323 30 -1348 30 -1348 30 -244 
29 -3 30 66 30 174 30 279 29 266 30 269 30 313 30 35 
29 -29 30 -44 30 -82 30 88 29 -19 30 -12 30 47 30 -167 
29 -42 30 -161 30 -335 30 -440 29 -136 30 15 30 64 30 541 
29 801 30 585 30 60 30 -107 928 2480 69 MP stroke
/c13 { 0.750000 0.750000 0.000000 sr} bdef
c13
29 -439 30 -352 30 204 30 -302 29 -260 30 -459 30 -377 30 179 
29 269 30 140 30 35 30 -408 29 -384 30 -581 30 -596 30 -385 
29 -171 30 12 30 344 30 517 29 544 30 591 30 567 30 269 
29 -242 30 269 30 327 30 -392 29 -416 30 -713 30 -256 30 533 
29 61 30 18 30 98 30 -212 30 356 29 673 30 -723 30 -769 
30 -531 29 -779 30 -96 30 92 30 297 29 325 30 423 30 601 
30 393 29 250 30 408 30 38 30 -442 29 -852 30 -337 30 510 
30 79 29 -70 30 145 30 -68 30 350 29 741 30 -506 30 -879 
30 -558 29 -867 30 -121 30 35 30 130 29 223 30 347 30 467 
30 594 29 267 30 299 30 26 30 -21 29 -744 30 -348 30 458 
30 123 30 -18 29 110 30 -131 30 285 30 769 29 -373 30 -1000 
30 -652 30 -694 29 -164 30 35 30 56 30 132 29 324 30 411 
30 496 30 243 29 315 2952 2450 100 MP stroke
30 340 30 -215 30 -546 29 -319 30 327 30 132 30 -15 29 102 
30 -120 30 431 30 544 29 -328 30 -850 30 -552 30 -794 29 -175 
30 17 30 113 30 173 29 200 30 508 30 264 30 130 29 343 
30 344 30 21 30 -529 30 -281 29 335 30 50 30 -175 30 188 
29 -203 30 298 30 663 30 -231 29 -790 30 -554 30 -725 30 -146 
29 8 30 71 30 188 30 227 29 229 30 152 30 279 30 200 
29 254 30 65 30 44 30 -52 29 -32 30 21 30 394 30 48 
29 -429 30 -409 30 -550 30 -420 29 -211 30 -44 30 2 30 450 
29 432 30 608 30 658 30 938 928 1354 69 MP stroke
0.25 sg
29 -342 30 51 30 379 30 -228 29 -408 30 -622 30 258 30 -409 
29 -503 30 143 30 -59 30 -298 29 -165 30 -254 30 -478 30 -276 
29 -169 30 37 30 401 30 838 29 486 30 522 30 526 30 209 
29 177 30 287 30 183 30 -386 29 -526 30 -1036 30 -475 30 188 
29 -37 30 118 30 47 30 -128 30 -305 29 415 30 268 30 -433 
30 -776 29 -618 30 -29 30 110 30 243 29 558 30 471 30 754 
30 585 29 419 30 103 30 -232 30 -210 29 -1033 30 -566 30 66 
30 52 29 -4 30 246 30 -272 30 -62 29 253 30 291 30 -493 
30 -691 29 -577 30 -34 30 -14 30 195 29 147 30 481 30 633 
30 776 29 698 30 -172 30 -96 30 114 29 -901 30 -772 30 309 
30 -30 30 -136 29 254 30 -184 30 -158 30 375 29 265 30 -383 
30 -672 30 -703 29 -88 30 55 30 44 30 221 29 349 30 563 
30 853 30 415 29 96 2952 1863 100 MP stroke
30 44 30 224 30 -1121 29 -607 30 221 30 -85 30 -81 29 283 
30 -268 30 191 30 316 29 78 30 -302 30 -732 30 -661 29 -107 
30 4 30 103 30 154 29 390 30 651 30 562 30 206 29 636 
30 -132 30 -85 30 -709 30 -475 29 74 30 -206 30 110 30 -48 
29 -103 30 -3 30 493 30 11 29 -254 30 -548 30 -747 30 -106 
29 59 30 11 30 128 30 177 29 346 30 507 30 316 30 346 
29 125 30 158 30 -316 30 132 29 -371 30 -147 30 250 30 51 
29 -242 30 -677 30 -162 30 -408 29 -96 30 -3 30 -37 30 651 
29 1070 30 669 30 706 30 -73 928 1322 69 MP stroke
c8
29 92 30 -203 30 -40 30 -12 29 -403 30 79 30 -244 30 -52 
29 -259 30 -210 30 -166 30 -248 29 -120 30 -286 30 -255 30 -394 
29 -253 30 -47 30 410 30 753 29 776 30 469 30 -95 30 667 
29 365 30 43 30 -236 30 -25 29 -474 30 -342 30 -666 30 503 
29 25 30 38 30 41 30 -512 30 300 29 694 30 490 30 -972 
30 -1238 29 -911 30 -203 30 48 30 275 29 376 30 699 30 819 
30 595 29 435 30 -230 30 29 30 -155 29 -636 30 -460 30 332 
30 356 29 -151 30 40 30 -363 30 379 29 428 30 627 30 -1044 
30 -1393 29 -821 30 -239 30 -6 30 101 29 331 30 467 30 674 
30 695 29 802 30 -245 30 33 30 -49 29 -564 30 -401 30 374 
30 162 30 -218 29 126 30 -250 30 185 30 514 29 561 30 -1089 
30 -1154 30 -778 29 -304 30 13 30 56 30 244 29 338 30 566 
30 990 30 617 29 -268 2952 1906 100 MP stroke
30 392 30 -27 30 -385 29 -683 30 275 30 232 30 -13 29 -149 
30 -104 30 253 30 563 29 410 30 -868 30 -1316 30 -861 29 -300 
30 36 30 122 30 153 29 320 30 661 30 935 30 106 29 117 
30 330 30 -113 30 -304 30 -553 29 354 30 -52 30 -106 30 5 
29 -154 30 170 30 671 30 361 29 -627 30 -1249 30 -800 30 -399 
29 -2 30 90 30 113 30 299 29 372 30 465 30 356 30 201 
29 333 30 -117 30 -9 30 124 29 -90 30 -289 30 -47 30 -77 
29 -266 30 -471 30 -239 30 -372 29 -83 30 -84 30 45 30 560 
29 1037 30 920 30 446 30 -41 928 1329 69 MP stroke
c9
29 -47 30 -190 30 174 30 10 29 12 30 -218 30 -140 30 -39 
29 -94 30 -16 30 100 30 -231 29 -142 30 -268 30 -328 30 -352 
29 -206 30 -88 30 185 30 408 29 362 30 281 30 312 30 479 
29 184 30 -13 30 63 30 -146 29 -233 30 -314 30 -203 30 445 
29 108 30 97 30 -27 30 -25 30 236 29 820 30 963 30 -1083 
30 -1727 29 -1035 30 -166 30 50 30 154 29 195 30 472 30 519 
30 571 29 249 30 -14 30 80 30 184 29 -812 30 -218 30 254 
30 203 29 21 30 251 30 -96 30 263 29 720 30 850 30 -902 
30 -1896 29 -889 30 -245 30 18 30 80 29 123 30 376 30 494 
30 689 29 261 30 24 30 40 30 122 29 -554 30 -132 30 326 
30 74 30 -175 29 307 30 -234 30 332 30 918 29 866 30 -982 
30 -1850 30 -934 29 -200 30 -9 30 64 30 138 29 241 30 448 
30 639 30 467 29 -16 2952 2524 100 MP stroke
30 151 30 164 30 -447 29 -267 30 162 30 165 30 -151 29 241 
30 -217 30 434 30 800 29 844 30 -852 30 -1841 30 -958 29 -225 
30 14 30 39 30 95 29 245 30 518 30 470 30 72 29 261 
30 203 30 287 30 -555 30 -193 29 172 30 114 30 -170 30 128 
29 -44 30 256 30 1007 30 813 29 -846 30 -1692 30 -960 30 -249 
29 9 30 26 30 93 30 149 29 369 30 216 30 286 30 202 
29 91 30 176 30 -196 30 -16 29 13 30 -80 30 46 30 88 
29 -344 30 -110 30 -454 30 -209 29 -171 30 -81 30 -12 30 327 
29 508 30 203 30 423 30 193 928 2791 69 MP stroke
c10
29 -196 30 -215 30 179 30 211 29 -223 30 -310 30 -271 30 213 
29 -146 30 124 30 -167 30 -137 29 -133 30 -300 30 -413 30 -389 
29 -238 30 -83 30 240 30 483 29 385 30 230 30 304 30 256 
29 73 30 61 30 300 30 31 29 -265 30 -559 30 -324 30 372 
29 158 30 -11 30 101 30 -99 30 171 29 600 30 -598 30 -853 
30 -636 29 -399 30 -15 30 118 30 164 29 226 30 409 30 445 
30 336 29 66 30 302 30 728 30 21 29 -992 30 -603 30 364 
30 91 29 -134 30 29 30 150 30 193 29 692 30 -580 30 -840 
30 -733 29 -428 30 -114 30 63 30 120 29 138 30 332 30 400 
30 489 29 139 30 283 30 293 30 0 29 -589 30 -460 30 373 
30 97 30 -109 29 1 30 72 30 149 30 804 29 -465 30 -952 
30 -584 30 -461 29 -119 30 46 30 42 30 181 29 209 30 383 
30 505 30 183 29 287 2952 2640 100 MP stroke
30 322 30 -90 30 -393 29 -486 30 358 30 134 30 -1 29 39 
30 24 30 272 30 722 29 -423 30 -1145 30 -615 30 -468 29 -129 
30 43 30 54 30 93 29 233 30 391 30 353 30 59 29 417 
30 415 30 66 30 -565 30 -290 29 225 30 -34 30 -31 30 47 
29 -23 30 327 30 899 30 -423 29 -1106 30 -556 30 -402 30 -168 
29 -8 30 39 30 117 30 201 29 237 30 224 30 96 30 190 
29 360 30 77 30 31 30 -44 29 8 30 39 30 260 30 -114 
29 -132 30 -143 30 -324 30 -292 29 -536 30 -154 30 -46 30 297 
29 476 30 475 30 352 30 323 928 2486 69 MP stroke
c11
29 111 30 -110 30 31 30 775 29 -483 30 7 30 -203 30 210 
29 39 30 317 30 -335 30 -85 29 -98 30 -450 30 -399 30 -335 
29 -224 30 -174 30 153 30 216 29 243 30 156 30 299 30 333 
29 168 30 -15 30 133 30 627 29 -651 30 -235 30 -2 30 653 
29 230 30 -18 30 -107 30 -44 30 201 29 770 30 395 30 -702 
30 -1339 29 -1230 30 -227 30 -6 30 138 29 128 30 341 30 387 
30 279 29 311 30 6 30 269 30 190 29 -328 30 -200 30 413 
30 310 29 -226 30 107 30 2 30 299 29 809 30 349 30 -515 
30 -1476 29 -1341 30 -269 30 -55 30 62 29 120 30 244 30 338 
30 418 29 304 30 14 30 271 30 210 29 -226 30 -203 30 448 
30 197 30 -3 29 0 30 15 30 68 30 860 29 493 30 -508 
30 -1461 30 -1374 29 -251 30 -40 30 33 30 115 29 214 30 354 
30 341 30 352 29 26 2952 3060 100 MP stroke
30 258 30 327 30 -283 29 -177 30 412 30 192 30 -26 29 32 
30 -85 30 163 30 831 29 410 30 -433 30 -1445 30 -1290 29 -311 
30 -33 30 65 30 100 29 179 30 336 30 309 30 161 29 160 
30 452 30 244 30 -255 30 -282 29 369 30 149 30 -166 30 -30 
29 -8 30 215 30 741 30 471 29 -302 30 -1252 30 -1279 30 -320 
29 -56 30 36 30 60 30 169 29 184 30 285 30 98 30 130 
29 177 30 228 30 126 30 -47 29 65 30 411 30 -240 30 17 
29 -155 30 -279 30 -444 30 -288 29 -243 30 -125 30 -85 30 185 
29 237 30 303 30 146 30 283 928 3283 69 MP stroke
c12
29 -29 30 -93 30 133 30 1011 29 -79 30 -306 30 -520 30 244 
29 115 30 -233 30 357 30 -408 29 -203 30 -719 30 -450 30 -447 
29 -219 30 -13 30 179 30 206 29 201 30 295 30 309 30 405 
29 288 30 445 30 55 30 917 29 279 30 -1120 30 -799 30 526 
29 65 30 -339 30 -221 30 -71 30 -135 29 -171 30 7 30 -485 
30 -564 29 -230 30 -86 30 53 30 148 29 208 30 290 30 761 
30 534 29 467 30 99 30 518 30 538 29 -1085 30 -750 30 146 
30 -77 29 -381 30 137 30 -157 30 16 29 -124 30 203 30 -535 
30 -629 29 -325 30 -64 30 -5 30 67 29 212 30 279 30 396 
30 828 29 467 30 257 30 646 30 460 29 -1153 30 -781 30 323 
30 -139 30 -239 29 -60 30 -69 30 -157 30 115 29 78 30 -574 
30 -622 30 -272 29 -66 30 53 30 -27 30 175 29 235 30 456 
30 805 30 450 29 137 2952 2212 100 MP stroke
30 690 30 390 30 -865 29 -684 30 119 30 -117 30 -354 29 88 
30 -102 30 -33 30 -55 29 2 30 -343 30 -646 30 -317 29 -64 
30 -18 30 87 30 71 29 239 30 531 30 385 30 465 29 318 
30 695 30 264 30 -516 30 -821 29 175 30 -208 30 -248 30 -40 
29 -73 30 -53 30 -22 30 -164 29 -151 30 -599 30 -250 30 -98 
29 36 30 17 30 93 30 162 29 274 30 354 30 131 30 235 
29 422 30 392 30 -82 30 -274 29 487 30 179 30 -496 30 73 
29 -150 30 -332 30 -505 30 -511 29 -237 30 -155 30 -44 30 186 
29 314 30 288 30 252 30 332 928 3093 69 MP stroke
c13
29 -738 30 -381 30 -32 30 1119 29 -610 30 -229 30 -850 30 221 
29 -199 30 599 30 -618 30 -163 29 -362 30 -106 30 -560 30 -234 
29 -296 30 -67 30 562 30 677 29 501 30 115 30 727 30 453 
29 -38 30 195 30 -184 30 804 29 -948 30 -389 30 -935 30 168 
29 -109 30 -43 30 -69 30 -264 30 96 29 474 30 -591 30 -493 
30 -5 29 -704 30 -77 30 285 30 149 29 445 30 488 30 810 
30 516 29 -338 30 304 30 330 30 -333 29 -429 30 -802 30 134 
30 -83 29 -192 30 213 30 -138 30 114 29 360 30 -485 30 -397 
30 -349 29 -594 30 -53 30 48 30 146 29 355 30 586 30 586 
30 490 29 250 30 32 30 283 30 -392 29 -431 30 -605 30 232 
30 -107 30 400 29 18 30 -13 30 -221 30 173 29 -234 30 -629 
30 -440 30 -543 29 -53 30 189 30 90 30 195 29 349 30 716 
30 589 30 258 29 -63 2952 2069 100 MP stroke
30 378 30 -19 30 -399 29 -754 30 293 30 -62 30 38 29 -72 
30 80 30 415 30 656 29 362 30 -2065 30 -436 30 -595 29 -159 
30 66 30 128 30 181 29 458 30 714 30 536 30 -176 29 530 
30 80 30 -64 30 -493 30 -434 29 152 30 -173 30 216 30 23 
29 86 30 176 30 908 30 506 29 -2174 30 -602 30 -503 30 -133 
29 80 30 146 30 83 30 466 29 378 30 357 30 -21 30 253 
29 237 30 325 30 -232 30 -240 29 43 30 312 30 16 30 -149 
29 31 30 -399 30 -147 30 736 29 -1322 30 -588 30 -99 30 565 
29 631 30 472 30 682 30 450 928 1334 69 MP stroke
0.25 sg
29 22 30 -453 30 46 30 469 29 136 30 -268 30 -98 30 -46 
29 -172 30 145 30 138 30 -344 29 21 30 -538 30 -751 30 -626 
29 -130 30 -38 30 249 30 312 29 243 30 459 30 406 30 469 
29 393 30 166 30 197 30 609 29 270 30 -726 30 -750 30 525 
29 -244 30 -285 30 -283 30 -414 30 -193 29 -299 30 513 30 -147 
30 -1250 29 -247 30 6 30 124 30 146 29 283 30 471 30 777 
30 1007 29 239 30 42 30 291 30 253 29 -432 30 -971 30 337 
30 -502 29 -373 30 -21 30 -151 30 -203 29 -186 30 502 30 -412 
30 -1047 29 -165 30 -74 30 101 30 98 29 250 30 401 30 637 
30 959 29 542 30 174 30 402 30 125 29 -730 30 -689 30 396 
30 -369 30 -597 29 65 30 -305 30 -168 30 -190 29 686 30 -414 
30 -1043 30 -291 29 2 30 17 30 117 30 174 29 346 30 542 
30 1089 30 412 29 237 2952 1528 100 MP stroke
30 552 30 7 30 -515 29 -769 30 312 30 -402 30 -490 29 9 
30 -285 30 -105 30 -35 29 420 30 -354 30 -1084 30 -197 29 -56 
30 46 30 98 30 210 29 316 30 573 30 746 30 249 29 515 
30 574 30 242 30 -563 30 -668 29 107 30 -312 30 -565 30 -17 
29 -207 30 -80 30 -236 30 322 29 -289 30 -779 30 -205 30 -98 
29 83 30 26 30 138 30 293 29 406 30 320 30 227 30 341 
29 180 30 389 30 94 30 -222 29 141 30 -220 30 -92 30 402 
29 -237 30 -222 30 -739 30 -649 29 -379 30 -130 30 -14 30 295 
29 391 30 382 30 571 30 230 928 2536 69 MP stroke
c8
29 237 30 -143 30 -174 30 770 29 609 30 -323 30 -193 30 634 
29 -43 30 -212 30 317 30 6 29 94 30 -591 30 -1211 30 -522 
29 -373 30 -248 30 99 30 168 29 192 30 131 30 373 30 180 
29 267 30 248 30 -372 30 963 29 534 30 -454 30 -273 30 653 
29 -75 30 -199 30 81 30 460 30 -168 29 -168 30 -112 30 44 
30 -1926 29 -603 30 -137 30 131 30 105 29 106 30 317 30 373 
30 1044 29 248 30 -335 30 310 30 472 29 -254 30 -354 30 608 
30 69 29 -709 30 491 30 274 30 -224 29 131 30 142 30 -304 
30 -1659 29 -907 30 -112 30 68 30 81 29 44 30 372 30 529 
30 826 29 379 30 -398 30 758 30 243 29 18 30 -745 30 453 
30 243 30 -547 29 12 30 584 30 -161 30 -417 29 -99 30 913 
30 -2218 30 -801 29 -149 30 62 30 25 30 130 29 106 30 528 
30 609 30 658 29 -385 2952 2818 100 MP stroke
30 951 30 404 30 -199 29 -622 30 100 30 279 30 56 29 -230 
30 268 30 -193 30 -12 29 -149 30 323 30 -1864 30 -721 29 -87 
30 19 30 74 30 81 29 37 30 584 30 528 30 218 29 43 
30 839 30 460 30 -485 30 -211 29 56 30 -6 30 -205 30 149 
29 186 30 -236 30 -124 30 143 29 410 30 -1734 30 -764 30 -68 
29 -31 30 62 30 87 30 93 29 261 30 230 30 441 30 130 
29 187 30 621 30 -43 30 -137 29 404 30 230 30 130 30 180 
29 112 30 -696 30 -633 30 -945 29 -149 30 -242 30 -224 30 224 
29 199 30 124 30 180 30 193 928 3532 69 MP stroke
gr

c8
0 sg
3336  294 mt 
(Cluster 0) s

end %%Color Dict

eplot
%%EndObject

epage
end

showpage

%%Trailer
%%BoundingBox:    75   215   550   602
%%Pages: 001
%%EOF
