%!PS-Adobe-2.0 
%%Creator: MATLAB, The MathWorks, Inc. Version 8.1.0.604 (R2013a). Operating System: Microsoft Windows 8.
%%Title: .\cluster1.eps
%%CreationDate: 10/03/2014  01:08:43
%%DocumentNeededFonts: Helvetica
%%DocumentProcessColors: Cyan Magenta Yellow Black
%%Extensions: CMYK
%%Pages: (atend)
%%BoundingBox: (atend)
%%EndComments

%%BeginProlog
% MathWorks dictionary
/MathWorks 160 dict begin
% definition operators
/bdef {bind def} bind def
/ldef {load def} bind def
/xdef {exch def} bdef
/xstore {exch store} bdef
% operator abbreviations
/c  /clip ldef
/cc /concat ldef
/cp /closepath ldef
/gr /grestore ldef
/gs /gsave ldef
/mt /moveto ldef
/np /newpath ldef
/cm /currentmatrix ldef
/sm /setmatrix ldef
/rm /rmoveto ldef
/rl /rlineto ldef
/s {show newpath} bdef
/sc {setcmykcolor} bdef
/sr /setrgbcolor ldef
/sg /setgray ldef
/w /setlinewidth ldef
/j /setlinejoin ldef
/cap /setlinecap ldef
/rc {rectclip} bdef
/rf {rectfill} bdef
% page state control
/pgsv () def
/bpage {/pgsv save def} bdef
/epage {pgsv restore} bdef
/bplot /gsave ldef
/eplot {stroke grestore} bdef
% orientation switch
/portraitMode 0 def /landscapeMode 1 def /rotateMode 2 def
% coordinate system mappings
/dpi2point 0 def
% font control
/FontSize 0 def
/FMS {/FontSize xstore findfont [FontSize 0 0 FontSize neg 0 0]
  makefont setfont} bdef
/ISOLatin1Encoding where {pop /WindowsLatin1Encoding 256 array bdef
ISOLatin1Encoding WindowsLatin1Encoding copy pop
/.notdef/.notdef/quotesinglbase/florin/quotedblbase/ellipsis/dagger
/daggerdbl/circumflex/perthousand/Scaron/guilsinglleft/OE/.notdef/.notdef
/.notdef/.notdef/quoteleft/quoteright/quotedblleft/quotedblright/bullet
/endash/emdash/tilde/trademark/scaron/guilsinglright/oe/.notdef/.notdef
/Ydieresis WindowsLatin1Encoding 128 32 getinterval astore pop}
{/WindowsLatin1Encoding StandardEncoding bdef} ifelse
/reencode {exch dup where {pop load} {pop StandardEncoding} ifelse
  exch dup 3 1 roll findfont dup length dict begin
  { 1 index /FID ne {def}{pop pop} ifelse } forall
  /Encoding exch def currentdict end definefont pop} bdef
/isroman {findfont /CharStrings get /Agrave known} bdef
/FMSR {3 1 roll 1 index dup isroman {reencode} {pop pop} ifelse
  exch FMS} bdef
/csm {1 dpi2point div -1 dpi2point div scale neg translate
 dup landscapeMode eq {pop -90 rotate}
  {rotateMode eq {90 rotate} if} ifelse} bdef
% line types: solid, dotted, dashed, dotdash
/SO { [] 0 setdash } bdef
/DO { [.5 dpi2point mul 4 dpi2point mul] 0 setdash } bdef
/DA { [6 dpi2point mul] 0 setdash } bdef
/DD { [.5 dpi2point mul 4 dpi2point mul 6 dpi2point mul 4
  dpi2point mul] 0 setdash } bdef
% macros for lines and objects
/L {lineto stroke} bdef
/MP {3 1 roll moveto 1 sub {rlineto} repeat} bdef
/AP {{rlineto} repeat} bdef
/PDlw -1 def
/W {/PDlw currentlinewidth def setlinewidth} def
/PP {closepath eofill} bdef
/DP {closepath stroke} bdef
/MR {4 -2 roll moveto dup  0 exch rlineto exch 0 rlineto
  neg 0 exch rlineto closepath} bdef
/FR {MR stroke} bdef
/PR {MR fill} bdef
/L1i {{currentfile picstr readhexstring pop} image} bdef
/tMatrix matrix def
/MakeOval {newpath tMatrix currentmatrix pop translate scale
0 0 1 0 360 arc tMatrix setmatrix} bdef
/FO {MakeOval stroke} bdef
/PO {MakeOval fill} bdef
/PD {currentlinewidth 2 div 0 360 arc fill
   PDlw -1 eq not {PDlw w /PDlw -1 def} if} def
/FA {newpath tMatrix currentmatrix pop translate scale
  0 0 1 5 -2 roll arc tMatrix setmatrix stroke} bdef
/PA {newpath tMatrix currentmatrix pop	translate 0 0 moveto scale
  0 0 1 5 -2 roll arc closepath tMatrix setmatrix fill} bdef
/FAn {newpath tMatrix currentmatrix pop translate scale
  0 0 1 5 -2 roll arcn tMatrix setmatrix stroke} bdef
/PAn {newpath tMatrix currentmatrix pop translate 0 0 moveto scale
  0 0 1 5 -2 roll arcn closepath tMatrix setmatrix fill} bdef
/vradius 0 def /hradius 0 def /lry 0 def
/lrx 0 def /uly 0 def /ulx 0 def /rad 0 def
/MRR {/vradius xdef /hradius xdef /lry xdef /lrx xdef /uly xdef
  /ulx xdef newpath tMatrix currentmatrix pop ulx hradius add uly
  vradius add translate hradius vradius scale 0 0 1 180 270 arc 
  tMatrix setmatrix lrx hradius sub uly vradius add translate
  hradius vradius scale 0 0 1 270 360 arc tMatrix setmatrix
  lrx hradius sub lry vradius sub translate hradius vradius scale
  0 0 1 0 90 arc tMatrix setmatrix ulx hradius add lry vradius sub
  translate hradius vradius scale 0 0 1 90 180 arc tMatrix setmatrix
  closepath} bdef
/FRR {MRR stroke } bdef
/PRR {MRR fill } bdef
/MlrRR {/lry xdef /lrx xdef /uly xdef /ulx xdef /rad lry uly sub 2 div def
  newpath tMatrix currentmatrix pop ulx rad add uly rad add translate
  rad rad scale 0 0 1 90 270 arc tMatrix setmatrix lrx rad sub lry rad
  sub translate rad rad scale 0 0 1 270 90 arc tMatrix setmatrix
  closepath} bdef
/FlrRR {MlrRR stroke } bdef
/PlrRR {MlrRR fill } bdef
/MtbRR {/lry xdef /lrx xdef /uly xdef /ulx xdef /rad lrx ulx sub 2 div def
  newpath tMatrix currentmatrix pop ulx rad add uly rad add translate
  rad rad scale 0 0 1 180 360 arc tMatrix setmatrix lrx rad sub lry rad
  sub translate rad rad scale 0 0 1 0 180 arc tMatrix setmatrix
  closepath} bdef
/FtbRR {MtbRR stroke } bdef
/PtbRR {MtbRR fill } bdef
/stri 6 array def /dtri 6 array def
/smat 6 array def /dmat 6 array def
/tmat1 6 array def /tmat2 6 array def /dif 3 array def
/asub {/ind2 exch def /ind1 exch def dup dup
  ind1 get exch ind2 get sub exch } bdef
/tri_to_matrix {
  2 0 asub 3 1 asub 4 0 asub 5 1 asub
  dup 0 get exch 1 get 7 -1 roll astore } bdef
/compute_transform {
  dmat dtri tri_to_matrix tmat1 invertmatrix 
  smat stri tri_to_matrix tmat2 concatmatrix } bdef
/ds {stri astore pop} bdef
/dt {dtri astore pop} bdef
/db {2 copy /cols xdef /rows xdef mul dup 3 mul string
  currentfile exch readhexstring pop
  dup 0 3 index getinterval /rbmap xdef
  dup 2 index dup getinterval /gbmap xdef
  1 index dup 2 mul exch getinterval /bbmap xdef pop pop}bdef
/it {gs np dtri aload pop moveto lineto lineto cp c
  cols rows 8 compute_transform 
  rbmap gbmap bbmap true 3 colorimage gr}bdef
/il {newpath moveto lineto stroke}bdef
currentdict end def
%%EndProlog

%%BeginSetup
MathWorks begin

0 cap

end
%%EndSetup

%%Page: 1 1
%%BeginPageSetup
%%PageBoundingBox:    75   215   550   602
MathWorks begin
bpage
%%EndPageSetup

%%BeginObject: obj1
bplot

/dpi2point 12 def
portraitMode 0204 7344 csm

  698   110  5706  4650 MR c np
85 dict begin %Colortable dictionary
/c0 { 0.000000 0.000000 0.000000 sr} bdef
/c1 { 1.000000 1.000000 1.000000 sr} bdef
/c2 { 0.900000 0.000000 0.000000 sr} bdef
/c3 { 0.000000 0.820000 0.000000 sr} bdef
/c4 { 0.000000 0.000000 0.800000 sr} bdef
/c5 { 0.910000 0.820000 0.320000 sr} bdef
/c6 { 1.000000 0.260000 0.820000 sr} bdef
/c7 { 0.000000 0.820000 0.820000 sr} bdef
c0
1 j
1 sg
   0    0 6913 5185 PR
6 w
0 4225 5356 0 0 -4225 899 4614 4 MP
PP
-5356 0 0 4225 5356 0 0 -4225 899 4614 5 MP stroke
4 w
DO
SO
6 w
0 sg
 899  389 mt 6255  389 L
 899 4614 mt 6255 4614 L
6255 4614 mt 6255  389 L
 899 4614 mt  899  389 L
 899 4614 mt 6255 4614 L
 899 4614 mt  899  389 L
 899 4614 mt  899 4560 L
 899  389 mt  899  442 L
%%IncludeResource: font Helvetica
/Helvetica /WindowsLatin1Encoding 120 FMSR

 866 4759 mt 
(0) s
1494 4614 mt 1494 4560 L
1494  389 mt 1494  442 L
1428 4759 mt 
(20) s
2089 4614 mt 2089 4560 L
2089  389 mt 2089  442 L
2023 4759 mt 
(40) s
2684 4614 mt 2684 4560 L
2684  389 mt 2684  442 L
2618 4759 mt 
(60) s
3279 4614 mt 3279 4560 L
3279  389 mt 3279  442 L
3213 4759 mt 
(80) s
3874 4614 mt 3874 4560 L
3874  389 mt 3874  442 L
3774 4759 mt 
(100) s
4469 4614 mt 4469 4560 L
4469  389 mt 4469  442 L
4369 4759 mt 
(120) s
5064 4614 mt 5064 4560 L
5064  389 mt 5064  442 L
4964 4759 mt 
(140) s
5659 4614 mt 5659 4560 L
5659  389 mt 5659  442 L
5559 4759 mt 
(160) s
6255 4614 mt 6255 4560 L
6255  389 mt 6255  442 L
6155 4759 mt 
(180) s
 899 4614 mt  952 4614 L
6255 4614 mt 6201 4614 L
 798 4658 mt 
(0) s
 899 4191 mt  952 4191 L
6255 4191 mt 6201 4191 L
 698 4235 mt 
(0.1) s
 899 3769 mt  952 3769 L
6255 3769 mt 6201 3769 L
 698 3813 mt 
(0.2) s
 899 3346 mt  952 3346 L
6255 3346 mt 6201 3346 L
 698 3390 mt 
(0.3) s
 899 2924 mt  952 2924 L
6255 2924 mt 6201 2924 L
 698 2968 mt 
(0.4) s
 899 2501 mt  952 2501 L
6255 2501 mt 6201 2501 L
 698 2545 mt 
(0.5) s
 899 2078 mt  952 2078 L
6255 2078 mt 6201 2078 L
 698 2122 mt 
(0.6) s
 899 1656 mt  952 1656 L
6255 1656 mt 6201 1656 L
 698 1700 mt 
(0.7) s
 899 1234 mt  952 1234 L
6255 1234 mt 6201 1234 L
 698 1278 mt 
(0.8) s
 899  811 mt  952  811 L
6255  811 mt 6201  811 L
 698  855 mt 
(0.9) s
 899  389 mt  952  389 L
6255  389 mt 6201  389 L
 798  433 mt 
(1) s
 899  389 mt 6255  389 L
 899 4614 mt 6255 4614 L
6255 4614 mt 6255  389 L
 899 4614 mt  899  389 L
gs 899 389 5357 4226 MR c np
/c8 { 0.000000 0.000000 1.000000 sr} bdef
c8
29 -448 30 -369 30 -254 30 0 29 137 30 39 30 -137 30 -155 
29 -117 30 117 30 -98 30 0 29 -58 30 78 30 -117 30 -136 
29 -20 30 584 30 701 30 390 29 -273 30 195 30 253 30 -370 
29 -39 30 -20 30 -681 30 273 29 97 30 -487 30 -311 30 -20 
29 234 30 -253 30 0 30 -137 30 -77 29 -20 30 117 30 -97 
30 -20 29 117 30 156 30 175 30 -39 29 584 30 292 30 117 
30 0 29 -253 30 -175 30 -39 30 -390 29 117 30 -448 30 98 
30 39 29 -195 30 0 30 -156 30 78 29 -20 30 -97 30 39 
30 -156 29 78 30 253 30 -19 30 311 29 409 30 -19 30 272 
30 39 29 0 30 -311 30 -195 30 -195 29 59 30 -195 30 97 
30 -253 30 -19 29 0 30 -253 30 117 30 19 29 -97 30 -20 
30 0 30 59 29 155 30 273 30 487 30 253 29 -195 30 156 
30 -117 30 -39 29 506 2952 2881 100 MP stroke
30 -701 30 -292 30 -97 29 -78 30 20 30 -234 30 97 29 -194 
30 -20 30 -39 30 0 29 156 30 -156 30 -39 30 20 29 389 
30 -117 30 253 30 292 29 390 30 -78 30 -253 30 214 29 234 
30 -390 30 -448 30 156 30 -253 29 -156 30 -58 30 -58 30 194 
29 -39 30 -136 30 -39 30 0 29 -39 30 -136 30 156 30 77 
29 137 30 136 30 292 30 526 29 -78 30 136 30 -389 30 0 
29 -292 30 97 30 -136 30 -59 29 -214 30 292 30 -117 30 59 
29 -370 30 156 30 58 30 -234 29 -19 30 175 30 175 30 916 
29 545 30 -20 30 312 30 -682 928 2881 69 MP stroke
/c9 { 0.000000 0.500000 0.000000 sr} bdef
c9
29 -650 30 -289 30 36 30 614 29 -181 30 181 30 -650 30 -433 
29 469 30 -144 30 144 30 -217 29 -144 30 289 30 -217 30 253 
29 -325 30 -36 30 650 30 975 29 -109 30 687 30 -687 30 362 
29 -903 30 216 30 -144 30 -217 29 289 30 -469 30 -72 30 -253 
29 505 30 -72 30 -505 30 -37 30 0 29 -36 30 253 30 397 
30 -541 29 -506 30 289 30 36 30 542 29 469 30 -469 30 325 
30 -253 29 397 30 -614 30 578 30 -758 29 505 30 -361 30 -216 
30 -73 29 -216 30 433 30 253 30 -434 29 217 30 289 30 108 
30 -722 29 -216 30 108 30 144 30 145 29 252 30 470 30 -433 
30 -109 29 217 30 36 30 0 30 -36 29 -325 30 -108 30 -73 
30 181 30 0 29 -253 30 325 30 -253 30 181 29 -108 30 325 
30 -325 30 -434 29 109 30 72 30 505 30 506 29 -108 30 -398 
30 650 30 -830 29 578 2952 3277 100 MP stroke
30 -145 30 -72 30 -36 29 -722 30 288 30 253 30 -216 29 0 
30 0 30 36 30 -217 29 253 30 216 30 -252 30 -470 29 109 
30 72 30 397 30 72 29 542 30 -145 30 -36 30 36 29 109 
30 -506 30 -144 30 72 30 -72 29 -145 30 217 30 -217 30 0 
29 0 30 -144 30 361 30 -325 29 397 30 -325 30 -361 30 325 
29 -180 30 288 30 217 30 289 29 469 30 -325 30 -36 30 -397 
29 36 30 -72 30 217 30 36 29 -397 30 216 30 -325 30 36 
29 0 30 145 30 -217 30 289 29 -505 30 288 30 -72 30 795 
29 325 30 36 30 433 30 -217 928 2700 69 MP stroke
/c10 { 1.000000 0.000000 0.000000 sr} bdef
c10
29 -1179 30 295 30 -393 30 -295 29 49 30 -147 30 0 30 49 
29 -246 30 0 30 148 30 -148 29 49 30 295 30 -246 30 -294 
29 196 30 98 30 99 30 589 29 295 30 688 30 -442 30 343 
29 -294 30 -148 30 49 30 -786 29 0 30 -343 30 -50 30 197 
29 98 30 -295 30 -147 30 147 30 -196 29 196 30 -196 30 49 
30 197 29 -50 30 -49 30 0 30 -49 29 737 30 49 30 934 
30 -295 29 147 30 -98 30 -491 30 -590 29 -245 30 0 30 -148 
30 246 29 -148 30 -196 30 147 30 -147 29 -49 30 147 30 49 
30 -245 29 0 30 98 30 -148 30 590 29 0 30 197 30 245 
30 639 29 147 30 -638 30 49 30 -737 29 147 30 -442 30 49 
30 49 30 0 29 49 30 -98 30 -196 30 196 29 49 30 -147 
30 -98 30 0 29 294 30 -49 30 99 30 245 29 442 30 -147 
30 49 30 344 29 -98 2952 3385 100 MP stroke
30 -49 30 -786 30 49 29 -148 30 197 30 -246 30 -49 29 -98 
30 49 30 -49 30 -49 29 98 30 49 30 -98 30 -49 29 0 
30 147 30 0 30 246 29 344 30 98 30 147 30 295 29 -344 
30 -196 30 -541 30 246 30 0 29 -98 30 49 30 -246 30 147 
29 0 30 -49 30 0 30 -196 29 344 30 -393 30 147 30 49 
29 -98 30 295 30 -49 30 294 29 295 30 0 30 -49 30 -147 
29 294 30 -540 30 0 30 0 29 -246 30 197 30 -197 30 197 
29 -197 30 -98 30 0 30 -98 29 49 30 98 30 393 30 246 
29 98 30 442 30 -295 30 197 928 3287 69 MP stroke
/c11 { 0.000000 0.750000 0.750000 sr} bdef
c11
29 -224 30 -480 30 16 30 -80 29 -192 30 -48 30 -96 30 64 
29 -48 30 112 30 -288 30 208 29 -160 30 -16 30 0 30 -256 
29 32 30 80 30 1184 30 16 29 176 30 272 30 256 30 -208 
29 80 30 -368 30 48 30 -384 29 -272 30 -144 30 -256 30 16 
29 -160 30 0 30 -352 30 192 30 -80 29 -32 30 144 30 128 
30 -320 29 -80 30 400 30 80 30 176 29 480 30 368 30 -80 
30 -16 29 -16 30 -256 30 -192 30 48 29 -352 30 -208 30 -128 
30 64 29 -336 30 256 30 80 30 -144 29 -256 30 176 30 384 
30 -464 29 -224 30 368 30 32 30 96 29 64 30 640 30 544 
30 -240 29 -48 30 -32 30 -272 30 -176 29 -208 30 -400 30 96 
30 48 30 -64 29 -64 30 -48 30 -80 30 -112 29 208 30 96 
30 -272 30 0 29 160 30 -80 30 224 30 448 29 288 30 48 
30 128 30 336 29 -272 2952 3013 100 MP stroke
30 -352 30 -240 30 -160 29 -176 30 -160 30 128 30 -160 29 224 
30 -208 30 -128 30 -64 29 144 30 64 30 -128 30 -208 29 64 
30 160 30 304 30 304 29 208 30 96 30 16 30 144 29 -400 
30 272 30 -256 30 -160 30 -240 29 96 30 -80 30 -256 30 0 
29 144 30 -336 30 128 30 0 29 288 30 -336 30 -96 30 208 
29 -48 30 272 30 -16 30 352 29 336 30 -192 30 32 30 -144 
29 -80 30 -112 30 16 30 -160 29 160 30 -64 30 -160 30 144 
29 -48 30 560 30 192 30 -528 29 -384 30 -208 30 240 30 1184 
29 -64 30 208 30 224 30 -288 928 2741 69 MP stroke
/c12 { 0.750000 0.000000 0.750000 sr} bdef
c12
29 -272 30 -23 30 -226 30 60 29 144 30 -189 30 -166 30 249 
29 -53 30 -45 30 30 30 -264 29 38 30 -45 30 -295 30 144 
29 -113 30 -272 30 272 30 528 29 301 30 -37 30 324 30 226 
29 -83 30 -67 30 45 30 256 29 -264 30 -271 30 -385 30 121 
29 377 30 -166 30 -196 30 53 30 -144 29 159 30 890 30 0 
30 -875 29 -1162 30 113 30 60 30 0 29 340 30 166 30 611 
30 226 29 -158 30 105 30 -324 30 211 29 -271 30 -279 30 203 
30 68 29 53 30 -60 30 -159 30 83 29 128 30 687 30 204 
30 -1057 29 -897 30 -68 30 -8 30 106 29 143 30 279 30 378 
30 535 29 23 30 -8 30 129 30 -114 29 -339 30 -302 30 347 
30 219 30 -196 29 68 30 -453 30 174 30 226 29 619 30 181 
30 -808 30 -1297 29 -38 30 166 30 -38 30 264 29 174 30 490 
30 287 30 -30 29 22 2952 3037 100 MP stroke
30 310 30 -136 30 -174 29 -483 30 280 30 -31 30 295 29 -129 
30 -203 30 226 30 143 29 257 30 256 30 -769 30 -1064 29 -181 
30 75 30 166 30 174 29 339 30 166 30 393 30 -196 29 332 
30 -8 30 158 30 -256 30 -249 29 272 30 -159 30 -98 30 91 
29 -181 30 233 30 46 30 430 29 -15 30 -649 30 -868 30 -75 
29 -8 30 38 30 279 30 279 29 340 30 83 30 15 30 -68 
29 204 30 181 30 -347 30 -197 29 91 30 68 30 38 30 -61 
29 -83 30 53 30 -324 30 -91 29 -83 30 -113 30 -75 30 656 
29 377 30 -45 30 158 30 30 928 2924 69 MP stroke
/c13 { 0.750000 0.750000 0.000000 sr} bdef
c13
29 -650 30 -475 30 -253 30 19 29 -370 30 -611 30 -345 30 33 
29 85 30 117 30 -228 30 -312 29 -228 30 -136 30 -130 30 -33 
29 -71 30 117 30 416 30 591 29 540 30 299 30 592 30 19 
29 331 30 -104 30 371 30 -175 29 -579 30 -773 30 -748 30 -58 
29 -72 30 -52 30 -364 30 39 30 -117 29 -46 30 254 30 65 
30 -552 29 -92 30 286 30 300 30 -105 29 456 30 396 30 227 
30 319 29 221 30 195 30 -267 30 -526 29 -260 30 -598 30 91 
30 -33 29 -208 30 -90 30 -72 30 -65 29 13 30 227 30 66 
30 -481 29 -78 30 175 30 -13 30 221 29 358 30 129 30 371 
30 455 29 247 30 20 30 -52 30 -280 29 -605 30 -305 30 7 
30 -79 30 -136 29 -104 30 -39 30 -46 30 -110 29 240 30 105 
30 -508 30 -90 29 104 30 123 30 195 30 78 29 331 30 326 
30 84 30 481 29 -13 2952 2800 100 MP stroke
30 124 30 -39 30 -748 29 -332 30 137 30 -189 30 -123 29 -104 
30 78 30 -156 30 -65 29 176 30 194 30 -598 30 -12 29 45 
30 124 30 142 30 98 29 312 30 520 30 137 30 77 29 -19 
30 247 30 -247 30 -442 30 -202 29 -117 30 -136 30 -72 30 -45 
29 -13 30 -85 30 0 30 98 29 150 30 -468 30 -196 30 72 
29 97 30 46 30 247 30 253 29 319 30 -58 30 311 30 -52 
29 163 30 104 30 -397 30 -32 29 -45 30 -169 30 -131 30 79 
29 -79 30 -331 30 -59 30 -149 29 26 30 -33 30 221 30 566 
29 650 30 202 30 428 30 631 928 1669 69 MP stroke
0.25 sg
29 -1011 30 -568 30 122 30 -468 29 -702 30 -457 30 -71 30 46 
29 108 30 93 30 154 30 -208 29 -269 30 -171 30 -267 30 -85 
29 -25 30 62 30 256 30 380 29 545 30 846 30 1008 30 60 
29 -747 30 -54 30 327 30 -599 29 -710 30 -716 30 -292 30 57 
29 122 30 -105 30 -60 30 -79 30 73 29 -90 30 -54 30 -120 
30 -110 29 -46 30 131 30 68 30 193 29 361 30 383 30 128 
30 147 29 -85 30 375 30 -31 30 -463 29 -690 30 -193 30 116 
30 6 29 -68 30 68 30 -102 30 -9 29 85 30 -76 30 -173 
30 -97 29 -62 30 36 30 111 30 136 29 37 30 372 30 205 
30 150 29 102 30 114 30 57 30 -310 29 -536 30 -131 30 -11 
30 96 30 -51 29 34 30 -57 30 71 30 -31 29 -59 30 -162 
30 -168 30 -28 29 85 30 -20 30 105 30 176 29 196 30 310 
30 5 30 273 29 51 2952 3367 100 MP stroke
30 -40 30 -145 30 -411 29 -213 30 -40 30 71 30 6 29 -97 
30 63 30 5 30 68 29 -178 30 -128 30 -71 30 -43 29 0 
30 83 30 39 30 108 29 205 30 335 30 173 30 -85 29 145 
30 -23 30 -88 30 -435 30 -204 29 156 30 -25 30 -91 30 102 
29 -74 30 -51 30 40 30 -17 29 -103 30 -159 30 -68 30 34 
29 43 30 77 30 65 30 119 29 111 30 111 30 108 30 136 
29 170 30 -14 30 -227 30 -117 29 20 30 120 30 102 30 65 
29 -128 30 -261 30 -258 30 -111 29 -82 30 -49 30 77 30 420 
29 367 30 511 30 775 30 917 928 1456 69 MP stroke
c8
29 -469 30 266 30 420 30 -221 29 -583 30 -860 30 -425 30 12 
29 91 30 98 30 -130 30 -322 29 -372 30 -298 30 -225 30 -363 
29 -124 30 87 30 246 30 406 29 609 30 574 30 466 30 216 
29 90 30 534 30 383 30 -493 29 -642 30 -877 30 -513 30 126 
29 46 30 -26 30 -59 30 -134 30 -38 29 101 30 -22 30 -659 
30 -294 29 -100 30 37 30 109 30 213 29 323 30 423 30 620 
30 224 29 333 30 460 30 414 30 -591 29 -1090 30 -508 30 93 
30 143 29 -206 30 33 30 -82 30 29 29 173 30 -83 30 -572 
30 -376 29 -107 30 -15 30 38 30 116 29 149 30 389 30 443 
30 479 29 316 30 394 30 246 30 -184 29 -885 30 -599 30 95 
30 139 30 -31 29 41 30 -257 30 10 30 177 29 -56 30 -569 
30 -323 30 -134 29 -30 30 57 30 117 30 138 29 262 30 385 
30 475 30 267 29 505 2952 2330 100 MP stroke
30 241 30 -230 30 -749 29 -557 30 127 30 143 30 -180 29 46 
30 -102 30 5 30 92 29 -87 30 -457 30 -343 30 -146 29 -19 
30 29 30 81 30 176 29 248 30 315 30 457 30 -41 29 577 
30 294 30 -107 30 -709 30 -379 29 30 30 95 30 -236 30 134 
29 -157 30 24 30 97 30 -12 29 -425 30 -331 30 -124 30 -37 
29 38 30 72 30 96 30 158 29 304 30 199 30 137 30 265 
29 292 30 89 30 -243 30 -33 29 -88 30 11 30 95 30 143 
29 -406 30 -333 30 -348 30 -183 29 -181 30 -61 30 59 30 249 
29 564 30 638 30 622 30 785 928 1607 69 MP stroke
c9
29 -676 30 -223 30 285 30 -112 29 -755 30 -869 30 -145 30 -326 
29 -116 30 144 30 8 30 -404 29 -239 30 -242 30 -153 30 -147 
29 -54 30 89 30 438 30 664 29 654 30 413 30 629 30 370 
29 -323 30 444 30 610 30 -393 29 -1364 30 -1040 30 -505 30 10 
29 -126 30 -2 30 22 30 -113 30 -191 29 -67 30 21 30 -73 
30 -119 29 -78 30 161 30 133 30 249 29 288 30 455 30 476 
30 308 29 -10 30 443 30 -81 30 -571 29 -942 30 -305 30 -57 
30 44 29 -94 30 6 30 -76 30 -75 29 -66 30 64 30 -121 
30 -173 29 -46 30 54 30 99 30 177 29 151 30 338 30 408 
30 324 29 131 30 382 30 107 30 -441 29 -847 30 -370 30 125 
30 -55 30 -106 29 -6 30 -93 30 -46 30 -91 29 17 30 -87 
30 -115 30 -24 29 30 30 33 30 82 30 213 29 272 30 380 
30 395 30 189 29 217 2952 2679 100 MP stroke
30 76 30 -380 30 -664 29 -318 30 -76 30 12 30 -76 29 40 
30 -73 30 -82 30 -48 29 32 30 -99 30 -127 30 -80 29 48 
30 59 30 112 30 119 29 350 30 400 30 260 30 -56 29 309 
30 161 30 -324 30 -639 30 -236 29 -40 30 0 30 -82 30 38 
29 -105 30 -54 30 -63 30 31 29 -79 30 -131 30 -70 30 40 
29 63 30 38 30 145 30 199 29 247 30 169 30 135 30 191 
29 268 30 12 30 -290 30 -131 29 -179 30 97 30 117 30 -65 
29 -336 30 -183 30 -288 30 -120 29 -75 30 -6 30 125 30 400 
29 857 30 540 30 585 30 765 928 1214 69 MP stroke
c10
29 89 30 -177 30 -133 30 147 29 -384 30 -44 30 -369 30 147 
29 -502 30 -74 30 59 30 -177 29 -295 30 -119 30 -236 30 -29 
29 -74 30 162 30 532 30 694 29 606 30 44 30 384 30 -29 
29 665 30 0 30 -59 30 -133 29 -517 30 -45 30 -1211 30 -133 
29 15 30 -281 30 -44 30 -251 30 -74 29 -118 30 206 30 0 
30 -251 29 -29 30 133 30 73 30 30 29 561 30 606 30 443 
30 532 29 399 30 -443 30 -473 30 -59 29 -414 30 -827 30 89 
30 192 29 -562 30 45 30 29 30 -177 29 -30 30 -147 30 295 
30 -295 29 -119 30 45 30 0 30 177 29 236 30 488 30 591 
30 1093 29 295 30 -620 30 59 30 -517 29 -517 30 -650 30 -74 
30 148 30 -266 29 15 30 -266 30 -15 30 -29 29 251 30 -133 
30 -207 30 -44 29 -74 30 133 30 44 30 251 29 532 30 354 
30 1020 30 310 29 -414 2952 2265 100 MP stroke
30 296 30 -650 30 -502 29 -503 30 0 30 -192 30 -148 29 -29 
30 -89 30 -59 30 -177 29 118 30 30 30 -222 30 -103 29 29 
30 59 30 45 30 325 29 280 30 576 30 414 30 177 29 577 
30 -458 30 -119 30 -339 30 -680 29 -15 30 -295 30 -59 30 -133 
29 -74 30 -89 30 -59 30 118 29 133 30 -325 30 -44 30 -103 
29 88 30 59 30 148 30 207 29 281 30 738 30 384 30 -44 
29 133 30 -443 30 -89 30 -207 29 -88 30 -59 30 -237 30 -59 
29 0 30 -266 30 -354 30 0 29 -74 30 88 30 -59 30 783 
29 650 30 783 30 207 30 -487 928 2471 69 MP stroke
c11
29 -240 30 -198 30 8 30 166 29 -25 30 -8 30 206 30 157 
29 -264 30 99 30 -265 30 182 29 232 30 -323 30 -165 30 -306 
29 -190 30 -25 30 414 30 148 29 141 30 25 30 231 30 17 
29 206 30 -49 30 -58 30 289 29 -33 30 99 30 -628 30 -58 
29 -165 30 -91 30 -157 30 8 30 33 29 42 30 363 30 728 
30 -918 29 -703 30 75 30 99 30 74 29 248 30 372 30 42 
30 8 29 289 30 -231 30 83 30 -42 29 -16 30 -331 30 -198 
30 16 29 33 30 -116 30 -74 30 141 29 -17 30 356 30 487 
30 -694 29 -637 30 58 30 66 30 42 29 182 30 256 30 157 
30 74 29 389 30 -108 30 -99 30 -116 29 67 30 -306 30 -83 
30 108 30 -158 29 58 30 -273 30 34 30 49 29 571 30 521 
30 -836 30 -562 29 -41 30 -75 30 207 30 108 29 231 30 215 
30 199 30 82 29 99 2952 3258 100 MP stroke
30 -215 30 50 30 -83 29 -363 30 165 30 -116 30 -41 29 99 
30 -256 30 16 30 42 29 504 30 240 30 -455 30 -653 29 -116 
30 108 30 140 30 50 29 223 30 265 30 132 30 99 29 -25 
30 25 30 -99 30 116 30 -290 29 91 30 -91 30 -165 30 -108 
29 -16 30 -157 30 322 30 248 29 596 30 -811 30 -529 30 -33 
29 -25 30 133 30 115 30 174 29 165 30 149 30 -74 30 -99 
29 41 30 140 30 -231 30 157 29 83 30 231 30 -198 30 49 
29 75 30 -215 30 8 30 -256 29 -298 30 -198 30 157 30 521 
29 438 30 -141 30 157 30 199 928 3092 69 MP stroke
c12
29 -293 30 -655 30 -259 30 242 29 -207 30 189 30 -155 30 -69 
29 242 30 -276 30 190 30 34 29 -224 30 172 30 -172 30 172 
29 155 30 -241 30 673 30 569 29 86 30 414 30 -380 30 311 
29 -500 30 51 30 -448 30 -379 29 -138 30 -138 30 -155 30 241 
29 379 30 -379 30 241 30 -172 30 103 29 18 30 914 30 -225 
30 -500 29 -810 30 0 30 396 30 207 29 397 30 328 30 552 
30 -483 29 51 30 -534 30 -52 30 -517 29 -104 30 -189 30 362 
30 155 29 -276 30 138 30 -52 30 121 29 517 30 35 30 0 
30 -259 29 -724 30 -121 30 17 30 207 29 362 30 294 30 327 
30 -34 29 69 30 -449 30 276 30 -689 29 34 30 -155 30 224 
30 103 30 18 29 0 30 -138 30 86 30 397 29 155 30 121 
30 -173 30 -1000 29 -138 30 293 30 276 30 276 29 17 30 121 
30 293 30 -293 29 17 2952 3303 100 MP stroke
30 -155 30 34 30 -396 29 120 30 -396 30 276 30 0 29 189 
30 -17 30 17 30 276 29 225 30 258 30 -465 30 -742 29 -17 
30 0 30 52 30 275 29 397 30 242 30 -138 30 224 29 -190 
30 -155 30 -173 30 -517 30 52 29 379 30 190 30 -138 30 -397 
29 52 30 414 30 241 30 35 29 -276 30 138 30 -793 30 -52 
29 34 30 35 30 414 30 138 29 586 30 -414 30 -86 30 17 
29 -310 30 327 30 -155 30 -69 29 -172 30 -362 30 120 30 276 
29 -276 30 18 30 -121 30 517 29 -155 30 207 30 -328 30 1069 
29 207 30 466 30 -483 30 104 928 2630 69 MP stroke
c13
29 -381 30 -366 30 -42 30 296 29 -423 30 155 30 -394 30 -211 
29 225 30 56 30 -84 30 -155 29 155 30 -409 30 43 30 -423 
29 -239 30 -85 30 718 30 381 29 380 30 239 30 465 30 225 
29 282 30 -521 30 282 30 -127 29 14 30 -380 30 -1000 30 141 
29 -14 30 -169 30 -141 30 -254 30 -56 29 28 30 28 30 71 
30 -212 29 -450 30 253 30 155 30 155 29 282 30 676 30 521 
30 282 29 126 30 -98 30 -169 30 -620 29 113 30 -690 30 -29 
30 -183 29 -56 30 -84 30 84 30 -380 29 42 30 423 30 -99 
30 -479 29 -183 30 0 30 141 30 225 29 324 30 521 30 493 
30 113 29 155 30 -85 30 -84 30 14 29 -578 30 -140 30 -212 
30 -253 30 28 29 -70 30 -198 30 43 30 56 29 169 30 -85 
30 -225 30 -380 29 56 30 282 30 84 30 -56 29 451 30 563 
30 296 30 127 29 267 2952 2304 100 MP stroke
30 14 30 -465 30 -436 29 -352 30 -71 30 -70 30 -169 29 141 
30 -254 30 57 30 -155 29 253 30 -42 30 -211 30 -352 29 70 
30 99 30 225 30 197 29 310 30 352 30 268 30 183 29 253 
30 -366 30 14 30 -169 30 -267 29 -240 30 -183 30 -141 30 0 
29 99 30 -352 30 -28 30 323 29 -42 30 -141 30 -493 30 113 
29 -28 30 253 30 381 30 -43 29 353 30 211 30 -14 30 197 
29 -268 30 352 30 -155 30 -28 29 57 30 -352 30 183 30 84 
29 -42 30 239 30 -676 30 -183 29 -183 30 -211 30 14 30 1056 
29 211 30 198 30 422 30 -56 928 2360 69 MP stroke
0.25 sg
29 -630 30 -677 30 -233 30 0 29 -24 30 -23 30 -70 30 -93 
29 -47 30 -93 30 46 30 -93 29 0 30 -93 30 -70 30 116 
29 -70 30 117 30 280 30 280 29 420 30 397 30 -140 30 397 
29 23 30 -560 30 -327 30 -210 29 -140 30 -280 30 0 30 93 
29 47 30 -233 30 116 30 -233 30 187 29 -234 30 164 30 -94 
30 -70 29 -70 30 24 30 303 30 280 29 187 30 677 30 373 
30 -140 29 -163 30 -70 30 -70 30 -864 29 -23 30 -234 30 24 
30 -24 29 -70 30 24 30 -24 30 0 29 -210 30 280 30 -70 
30 -210 29 24 30 116 30 117 30 140 29 374 30 396 30 117 
30 677 29 23 30 -537 30 -466 30 -351 29 -210 30 -140 30 257 
30 -257 30 -70 29 -23 30 -23 30 46 30 -70 29 0 30 -23 
30 -140 30 -23 29 116 30 -46 30 256 30 491 29 -164 30 537 
30 397 30 47 29 -164 2952 3073 100 MP stroke
30 -280 30 -724 30 164 29 -374 30 140 30 0 30 -93 29 -93 
30 140 30 -94 30 -163 29 47 30 70 30 -234 30 140 29 47 
30 70 30 117 30 210 29 116 30 397 30 397 30 -187 29 -93 
30 -187 30 -397 30 -70 30 24 29 -24 30 -163 30 -93 30 23 
29 -23 30 -234 30 47 30 117 29 -187 30 93 30 47 30 -70 
29 47 30 233 30 117 30 70 29 210 30 93 30 -117 30 141 
29 -24 30 -233 30 -164 30 -46 29 0 30 93 30 -187 30 94 
29 -117 30 -47 30 -93 30 -70 29 0 30 93 30 94 30 466 
29 444 30 630 30 -467 30 257 928 2933 69 MP stroke
c8
29 -745 30 -470 30 -92 30 -89 29 -122 30 -218 30 -180 30 220 
29 -73 30 -94 30 -52 30 -16 29 -112 30 -23 30 -74 30 53 
29 -48 30 199 30 1037 30 525 29 603 30 609 30 79 30 -518 
29 -441 30 -389 30 -281 30 -252 29 -367 30 -347 30 -214 30 278 
29 176 30 -198 30 -170 30 -157 30 -114 29 -10 30 112 30 0 
30 41 29 -135 30 195 30 7 30 388 29 562 30 723 30 293 
30 167 29 -439 30 -370 30 -566 30 -362 29 -240 30 -66 30 253 
30 18 29 -182 30 -139 30 -156 30 -86 29 -30 30 117 30 32 
30 -156 29 -48 30 -17 30 -9 30 317 29 434 30 621 30 403 
30 133 29 -97 30 -413 30 -501 30 -272 29 -299 30 -17 30 251 
30 -37 30 -180 29 -142 30 -116 30 -24 30 -23 29 103 30 32 
30 -79 30 -112 29 8 30 -41 30 168 30 419 29 551 30 370 
30 323 30 -89 29 -405 2952 2599 100 MP stroke
30 -458 30 -218 30 -231 29 -71 30 156 30 51 30 -219 29 -175 
30 -118 30 -16 30 11 29 127 30 33 30 -74 30 -150 29 -2 
30 -52 30 215 30 326 29 477 30 433 30 61 30 -139 29 -137 
30 -257 30 -172 30 -278 30 -108 29 104 30 94 30 -256 30 -78 
29 -68 30 -21 30 64 30 73 29 88 30 -21 30 -88 30 -186 
29 -189 30 165 30 329 30 371 29 286 30 -171 30 -96 30 -30 
29 14 30 118 30 -71 30 -31 29 18 30 -55 30 -151 30 -204 
29 -89 30 -73 30 -93 30 63 29 -46 30 53 30 292 30 1048 
29 555 30 551 30 43 30 -151 928 1423 69 MP stroke
gr

c8
0 sg
3336  294 mt 
(Cluster 1) s

end %%Color Dict

eplot
%%EndObject

epage
end

showpage

%%Trailer
%%BoundingBox:    75   215   550   602
%%Pages: 001
%%EOF
