244	142	240	226	145	37	36	35	-79	-88	-122	-205	-277	-168	-65	-69	-22	74	55	136	170	120	168	87	
41	50	92	105	107	70	40	25	4	10	-2	0	5	-8	1	14	21	6	31	11	27	49	46	36	
30	33	33	61	37	19	-7	-21	5	2	-1	3	9	-8	3	8	5	1	-1	10	-3	8	26	15	
34	52	43	37	28	15	20	3	6	9	7	7	4	6	6	9	13	14	10	8	6	12	9	14	
192	143	234	370	158	81	-27	-60	-37	-170	-226	-253	-191	-204	-162	-91	30	35	76	121	128	185	180	116	
98	91	106	131	118	79	39	52	12	23	13	13	19	29	41	22	35	28	39	46	53	84	61	61	
-292	-429	-293	-17	38	6	23	-24	-53	-17	8	36	5	-121	-58	-22	-110	-168	-125	-17	-11	90	177	40	
127	119	168	238	171	109	45	41	21	-9	-43	-14	-21	-2	-28	24	4	37	42	53	61	55	113	46	
-29	-64	64	119	78	41	-4	31	-20	-38	-6	-67	-23	-50	-25	1	-26	-38	14	3	5	36	52	54	
59	-33	-114	-86	-79	-1	8	31	2	-31	-15	-12	14	32	29	70	57	76	94	80	98	105	104	109	
-101	-213	-153	-328	-385	-233	-159	-122	-67	-45	-28	28	103	33	25	6	-21	-49	18	31	-41	-51	-4	-63	
270	120	165	291	148	92	38	-22	-11	62	72	-36	-121	-111	-58	-90	-64	-85	-41	15	71	161	208	151	
-218	-377	-316	-478	-385	-244	-111	-71	-54	0	82	62	48	105	-31	-168	-185	-171	-130	-147	-129	-115	-43	-145	
-404	4	-42	-208	-287	-298	-241	-223	-101	-99	-27	-49	86	14	-89	-93	-107	-31	-28	36	-49	-123	-246	-333	
-182	-27	12	-264	-449	-444	-385	-273	-177	-150	-122	-80	-95	-128	-87	-80	-37	-92	-19	44	-7	-118	-170	-136	
-130	-117	-134	-254	-255	-83	-87	-59	-92	-85	-131	-181	-139	-158	-117	-107	-38	-78	-3	-4	53	61	60	-1	
176	8	-151	-182	-244	-29	24	5	-75	4	-165	-139	-171	-190	-79	86	92	100	-7	96	107	244	204	56	
80	79	21	47	41	5	-3	-11	-16	-53	-98	-85	-52	-62	-32	6	-4	16	30	18	58	60	66	32	
13	-511	-709	-497	-125	-44	-13	-66	-66	-113	-217	-230	-305	-279	-131	-68	14	14	-126	-203	6	102	264	190	
122	92	98	107	101	44	27	37	1	4	16	34	24	37	31	42	20	6	14	39	44	42	56	61	
-789	-247	-146	-252	-349	-279	-169	-126	-31	-5	47	83	0	-2	52	64	-77	8	-137	-18	36	120	-25	-57	
119	82	73	136	99	70	75	46	28	9	18	18	26	16	27	5	22	12	44	30	53	28	58	56	
58	70	49	76	62	61	22	15	3	-9	12	19	9	22	26	18	24	31	16	60	69	49	42	26	
-726	-57	-176	-753	-590	-436	-144	-13	255	331	662	770	677	593	582	237	313	248	158	-399	-826	-1189	-1637	-690	
-179	-75	-270	-191	-15	-29	-20	-39	-74	-61	14	-13	-67	127	100	-8	38	179	18	-127	-57	-240	-122	-224	
-276	-86	-282	-584	-607	-425	-333	-176	-126	-132	-157	-182	-149	-40	-155	-63	-71	-21	22	-9	-4	76	6	8	
37	-346	-398	-56	-12	10	-53	-101	-19	-97	-107	-194	-205	-185	-178	-149	-20	-166	-27	128	136	170	170	114	
90	102	110	100	76	41	34	25	17	3	6	8	17	21	27	30	25	21	27	34	33	33	33	33	
-49	20	32	62	73	33	20	12	5	88	136	184	88	105	-11	-9	-94	-18	-38	-22	55	72	76	68	
1585	1375	1644	2044	2302	1732	1305	1049	739	657	374	475	682	576	356	375	163	11	-26	-53	-142	-126	68	276	
