digraph G {
0 -> N3
N3 [shape=box, label=MN01 ];
0 -> N27
N27 [shape=box, label=MN35 ];
1 -> N1
N1 [shape=box, label=MN04 ];
1 -> N5
N5 [shape=box, label=MN03 ];
2 -> N9
N9 [shape=box, label=MN28 ];
2 -> N14
N14 [shape=box, label=MN22 ];
3 -> N18
N18 [shape=box, label=MN19 ];
3 -> N23
N23 [shape=box, label=MN17 ];
4 -> N12
N12 [shape=box, label=MN24 ];
4 -> N20
N20 [shape=box, label=MN13 ];
5 -> N2
N2 [shape=box, label=MN06 ];
5 -> N21
N21 [shape=box, label=MN36 ];
6 -> N6
N6 [shape=box, label=MN40 ];
6 -> N28
N28 [shape=box, label=MN99 ];
7 -> N24
N24 [shape=box, label=MN14 ];
7 -> N26
N26 [shape=box, label=MN12 ];
8 -> N17
N17 [shape=box, label=MN50 ];
8 -> N22
N22 [shape=box, label=MN11 ];
9 -> N0
N0 [shape=box, label=MN31 ];
9 -> N16
N16 [shape=box, label=MN20 ];
10 -> N15
N15 [shape=box, label=MN21 ];
10 -> N25
N25 [shape=box, label=MN15 ];
11 -> 0;
11 -> 1;
12 -> N4
N4 [shape=box, label=MN32 ];
12 -> N13
N13 [shape=box, label=MN23 ];
13 -> N10
N10 [shape=box, label=MN27 ];
13 -> 2;
14 -> N19
N19 [shape=box, label=MN34 ];
14 -> 5;
15 -> N11
N11 [shape=box, label=MN25 ];
15 -> 3;
16 -> N7
N7 [shape=box, label=MN33 ];
16 -> N8
N8 [shape=box, label=MN09 ];
17 -> 8;
17 -> 12;
18 -> 9;
18 -> 10;
19 -> 11;
19 -> 14;
20 -> 4;
20 -> 16;
21 -> 13;
21 -> 17;
22 -> 7;
22 -> 18;
23 -> 15;
23 -> 20;
24 -> 6;
24 -> 23;
25 -> 22;
25 -> 24;
26 -> 19;
26 -> 21;
27 -> 25;
27 -> 26;
}
