MN17
[0.0024846900345206076, 0.0008393830356334397, 0.007232922597632401, 0.007109926862138071, 0.19513835800125126, 0.000745645054012028, 0.0007889919199774442, 0.001538095377508087, 0.0018645206001654917, 0.004533186917186329, 0.0011497830156451136, 0.0017031778462075456, 0.0019706486940538038, 0.0027811802372902706, 0.001304277050043592, 0.02650019252741311, 0.0012268041341486264, 0.1678504620636942, 0.0004517547187981079, 0.0017297145112242175, 0.0025871147778511842, 0.03505111246304083, 0.052437055800829344, 0.0009005528487915365, 0.0029789682121259867, 0.0031130058186283364, 0.0018796315075978577, 0.0013314533944298104, 0.0006381415421311682, 0.004669157895344724, 0.009019269587048094, 0.0012300781874076613, 0.0007529522952769578, 0.00042321977235679507, 0.057162833959535975, 0.0012621606703270328, 0.0012300316936043703, 0.0007185079735256123, 0.0007667037493286252, 0.0006158025662768233, 0.0027596656728941507, 0.0010449648448586806, 0.006138220276588459, 0.0018525239674219813, 0.1153852564502458, 0.0011706820803001382, 0.0018012959664760386, 0.0021801820780521218, 0.0008034376174897715, 0.0013759301928716562, 0.0008633203722375095, 0.0023705286403978825, 0.0008435542744617122, 0.000764907354060612, 0.000856677865107048, 0.0004014964954373516, 0.0224229133310606, 0.001505370143566935, 0.0016123547153322412, 0.022749811349714946, 0.013885846389643103, 0.011132864950334734, 0.0008321806688117585, 0.003478813968839502, 0.0004741936154200645, 0.04062213720162465, 0.0015879911333018261, 0.005754740120801075, 0.0012380965858209917, 0.0004821744211224274, 0.0030633645915409302, 0.002383215930396099, 0.0010731290394857622, 0.0006876367198873116, 0.0017858843859917006, 0.0030462575785867065, 0.02116515384288309, 0.018805309684101202, 0.0014732782158794699, 0.002580884440869693, 0.000648374429643373, 0.0015006915623893644, 0.007682986408770988, 0.0034576301828691132, 0.0007424731666222566, 0.002040169768708672, 0.0029124599877873307, 0.0076219757595984506, 0.00047052160489834176, 0.0014433204711822602, 0.0009596206062555337, 0.0017194728582055248, 0.0013108616274634197, 0.0015473798475263113, 0.0011034447497591114, 0.011061277827700123, 0.013045473603779839, 0.006134600271247719, 0.002059152348288095, 0.00037039582938431956]
MN04
[0.0015185579121143118, 0.004521140167742911, 0.013750965052133354, 0.015946982237528672, 0.011009781566991658, 0.005597135737851187, 0.006584096997257249, 0.002378138042783586, 0.007617054432792757, 0.010971835897365107, 0.00351089448537623, 0.004736444322614152, 0.004641833971245689, 0.010477148933304214, 0.005867808176937747, 0.0023120612627652937, 0.014198802517244745, 0.019360467837659906, 0.0027018123710067766, 0.008907545320300279, 0.003058553109006585, 0.025486648064705412, 0.01422247070355298, 0.003365222852029134, 0.005339904885076846, 0.0029596997017719015, 0.005738679906300627, 0.0055823557997904845, 0.004329794667318321, 0.003873803118569536, 0.008171871639716537, 0.008076512234915232, 0.007914968171908192, 0.0016666657796076448, 0.007631091805615636, 0.0057413208891126406, 0.005344512870161351, 0.0018859071108723088, 0.004095242497813705, 0.001127579761342763, 0.013364110021573655, 0.0038147043547567326, 0.028031313760940438, 0.012527766236521746, 0.01870983142419955, 0.003986548931343175, 0.0020764204812232538, 0.006723610925362701, 0.004708881530562981, 0.010173740566467688, 0.003493405987781894, 0.001157941045556827, 0.005002694754233185, 0.002120498388852832, 0.004625993553846421, 0.005300393372093877, 0.11568927859403963, 0.0037414431162858795, 0.008826126593403174, 0.11694728546977601, 0.030636440045140923, 0.018004233767880455, 0.002875618204875089, 0.015453310852336075, 0.0038259729685609107, 0.0022817426705619478, 0.005391703801969503, 0.023085645687277865, 0.003979149709430549, 0.0048845413282932, 0.01170579774366974, 0.01576065731356798, 0.0046742165561570155, 0.006433271487474659, 0.0020471019472473387, 0.006847305588886855, 0.004418771559257729, 0.030644279175627724, 0.004636623398101376, 0.006688887862048148, 0.006360344085502257, 0.014142489549474876, 0.003465819636984763, 0.02042802545742847, 0.00585286410249386, 0.005110578905458279, 0.0063031687713450925, 0.004322422248822955, 0.0049926963601932915, 0.004112122704795796, 0.009405079489588086, 0.004880810677549041, 0.008794127789472745, 0.008257071664225615, 0.006277341108589983, 0.0019038744776375268, 0.0008195014017642991, 0.013527710008679226, 0.011364386443437176, 0.002158991527166712]
MN06
[0.001433284572720405, 0.003756988901895723, 0.010505351488434572, 0.007404282020597999, 0.006474287349834423, 0.005286385044990539, 0.005091107578957738, 0.0025069349045263242, 0.006209036718984097, 0.006301426312082392, 0.0052666059329224794, 0.01174544667295667, 0.002920040986434796, 0.007886041222901208, 0.004064980818007464, 0.0018836721556725344, 0.008099435482332875, 0.011391970846548997, 0.0018490594941013684, 0.004310930282706406, 0.0063411542635721015, 0.009879730089564175, 0.011290953472360006, 0.001851675656149921, 0.008770996610594696, 0.0018040986213672542, 0.004927374329871084, 0.0065253760397639355, 0.004377364763078364, 0.012373085867184884, 0.007132825182944043, 0.0035887886374814165, 0.004757222897111901, 0.0012328477540830731, 0.007658692376964634, 0.04040779092588978, 0.004272275024945454, 0.0038417821595333455, 0.004178322804308845, 0.001281424340280165, 0.004892193574780404, 0.0021459026227579874, 0.012508716424492786, 0.00684480181042294, 0.016477153152479773, 0.002950017639888848, 0.0028063001866236756, 0.004089742841846384, 0.0034000057726872044, 0.007698661187389876, 0.0037409756867377427, 0.0022301538896861697, 0.010972833135410497, 0.0032594713118037385, 0.0030296571861635753, 0.004491165913923862, 0.0721939476659878, 0.0031264592726040806, 0.0026809881678476074, 0.0728131273811967, 0.03479694702167854, 0.03251891290212058, 0.0021198435332336, 0.011644439963422371, 0.005483303605418782, 0.0023080958146768638, 0.004469010208752297, 0.02151668727607123, 0.0022546786238863705, 0.0032654921576271826, 0.005966676930219026, 0.01347006574787427, 0.0026144445018501474, 0.005599870549359362, 0.0029607825870570452, 0.07376262511123213, 0.0029356168265460745, 0.01293976313057978, 0.00356498691079375, 0.004421207604027832, 0.0037473348029460874, 0.009729691206991575, 0.03553700671366547, 0.042455245392262524, 0.04210409589829152, 0.0066130110976678124, 0.03974083967745902, 0.005209323402296884, 0.0027078462271561566, 0.003194208385199568, 0.007851998511019583, 0.0022113591720386012, 0.00462240856471517, 0.007078243738606705, 0.002904580424387704, 0.006901762678746399, 0.007681902060581181, 0.008249895305937711, 0.007854125630653463, 0.001758344673559738]
MN01
[0.0016345855687397138, 0.002611502944755295, 0.008742124717400246, 0.007948948550693688, 0.006234115647434913, 0.002526610752742728, 0.0026263811531833667, 0.0019687465452711385, 0.00777589756465159, 0.004563769407877096, 0.0018670327640146808, 0.003388604889925491, 0.0020282472718841237, 0.01398912687261426, 0.0028683201281748533, 0.001383189658114501, 0.014340625293341774, 0.011827885065926894, 0.005299178457135182, 0.002375451535657855, 0.011572167543603473, 0.01708653143184751, 0.004638232893559232, 0.002247545639574426, 0.0019532654652514333, 0.003158097170562125, 0.003067461762052416, 0.002724031498845865, 0.00460530259124246, 0.0064087766330740556, 0.005105111978301223, 0.0045941754996800584, 0.004599219681896199, 0.0010952955752874967, 0.0236470108555019, 0.003963550409625426, 0.002238237274430077, 0.0024879743257601003, 0.0018455898442436083, 0.0009055843373357052, 0.006225289002418557, 0.002641131319092558, 0.007994982097505291, 0.005482306946688758, 0.010905468717826125, 0.0023897658953622937, 0.0016063056955996295, 0.004747131774368265, 0.014021109937545814, 0.007519770437239489, 0.0018628860581660696, 0.0008507121675313376, 0.0017620933568954838, 0.0029752553648545316, 0.001808071072509077, 0.004594347268947681, 0.1426703588398952, 0.002186767203795177, 0.002350463266989428, 0.14415388974477808, 0.013143446055161555, 0.015103570883850297, 0.0011556155270616645, 0.020062352268487106, 0.004122014168175808, 0.0015417951809916567, 0.002382276113297528, 0.01167446749998402, 0.0017840059579132532, 0.00895770142200841, 0.011202392811097289, 0.011513142264718794, 0.00243176421268908, 0.0013076956573525346, 0.0014616737056757487, 0.09214110481850245, 0.00205268713860067, 0.0018170991850803696, 0.003333527455884359, 0.006481462306534473, 0.006480876842238258, 0.015512718184590718, 0.011749631842806913, 0.015171147272722273, 0.0020791882468712045, 0.0032887827477175117, 0.056235030741409175, 0.039732865565177036, 0.0028773371466494176, 0.0027600814738796184, 0.00885246112962263, 0.0012358244063743792, 0.004247863345685162, 0.007568589762787564, 0.0015118049608493654, 0.0033080606818340764, 0.008387235703551585, 0.004890660299278812, 0.0063232178553415345, 0.0014252137883227457]
MN32
[0.002201296541925918, 0.004012776283933286, 0.024984190471310636, 0.02062996544319951, 0.03750111875769086, 0.004897003691155273, 0.005533468139154976, 0.002897928550571, 0.006325341598167472, 0.012916562871680443, 0.004988347584541379, 0.0045709014926225795, 0.004580670654097272, 0.0034767016273586633, 0.0037348132479731997, 0.005150369965961639, 0.0024927468462882657, 0.07216282842331954, 0.0015774569616546002, 0.006390565062453757, 0.0050028351747991575, 0.018044141379058777, 0.014316534005316989, 0.0036403364017986344, 0.002259360162177688, 0.004857482564652734, 0.00517661587216586, 0.004148667725498706, 0.001869607214584104, 0.00295522087274184, 0.010825995500537849, 0.007065468011715715, 0.0046757806044150415, 0.001932132665683869, 0.040768942987198104, 0.005873607006377699, 0.005402702515967652, 0.0013233509982462407, 0.0025822300487474744, 0.00545793185886968, 0.011588418949974567, 0.004379178798365193, 0.03048792505188037, 0.007764289898520515, 0.048315145360835234, 0.00706363128554185, 0.00308400296897021, 0.009090141698293823, 0.004478380005833728, 0.007478050862144924, 0.004391194675499187, 0.0027352870014517314, 0.005263606231855359, 0.002847086533738849, 0.005631045222133025, 0.0015758748232684926, 0.05733498463995007, 0.0029084185157261643, 0.004454431143301985, 0.05794900557592987, 0.026831325791998078, 0.024658714904396795, 0.008031228358013665, 0.008069980314350718, 0.0011314468729600553, 0.009839330028800719, 0.005072725820917996, 0.018155121493367354, 0.0019290192387970036, 0.003123941754156086, 0.007851593539256067, 0.012656512914008931, 0.005028232008386396, 0.015613575741153839, 0.004817504939895283, 0.0026105564394034875, 0.010434198268812972, 0.007885786983967774, 0.00776191792376146, 0.007203041581358913, 0.0030390900074724583, 0.0031057287458738482, 0.002523975593211531, 0.04283823264520627, 0.003398962478977896, 0.006514829196276415, 0.0027259180696395653, 0.0061150872246444245, 0.004443736226174904, 0.0054416103437900645, 0.0038266306464383682, 0.006497466681704167, 0.008928725100291402, 0.006405302231258246, 0.0058443257735145415, 0.011059905325098677, 0.0020549473775053817, 0.019504946303738713, 0.006964161641994896, 0.0020365664405958485]
MN03
[0.000948574839558541, 0.0054552510623398645, 0.011034056266830756, 0.013243365048332864, 0.00619397004091508, 0.006392697142932099, 0.00447880528427325, 0.002028614895780063, 0.008755793728513466, 0.010063922371676085, 0.0029949629116722554, 0.002470655769108782, 0.00342723516614826, 0.014243126536156161, 0.008393999843543196, 0.0024090601552743066, 0.01576286946376213, 0.010433046049309806, 0.0024929657625324246, 0.003773739933466981, 0.0031362826379517242, 0.007070106367093564, 0.0038608090229362312, 0.003058981377636985, 0.0032998188891800334, 0.0018573682340955894, 0.00468573129972668, 0.006564009781694916, 0.005488810838858084, 0.004349077533430146, 0.005658656404542609, 0.006800448824977622, 0.007288752045127693, 0.0021226125920520093, 0.00569857082211171, 0.031943807165150585, 0.00415769910085855, 0.11464714403375616, 0.004114099187662031, 0.001154834181733591, 0.009305583631912657, 0.0042346447386233995, 0.025595885172707337, 0.0071975085706020145, 0.013655942686633714, 0.003889548560107678, 0.0015214038423905596, 0.005795260183942683, 0.004406981489711822, 0.016587897172162833, 0.0026624037861755407, 0.0022073835278146508, 0.007212382626542247, 0.0028117745608153004, 0.004019486334759893, 0.00923820067127606, 0.06386508945991899, 0.0024892655016486107, 0.005015616228046857, 0.0643646144439182, 0.011990834470047888, 0.006520684900958104, 0.003017742285938714, 0.009500008548215507, 0.008643962040463589, 0.0017168679838983221, 0.004491745215018298, 0.01784547195413985, 0.004536077439591418, 0.003501812730299487, 0.0064994338935508945, 0.03212567007826557, 0.005654533547360458, 0.012052010550521403, 0.0019194856118829966, 0.008347908514911889, 0.0022878055490655655, 0.020490298041077885, 0.005717392976955464, 0.003926699950584012, 0.005283458429923446, 0.018373527837220953, 0.0021723278852804535, 0.08509104823509303, 0.006418019227517051, 0.004740520944765034, 0.005065915107326282, 0.003544035329203502, 0.0036509321381920667, 0.0026424717188632597, 0.019032608659824167, 0.003824179192335783, 0.008450929077582922, 0.009322134357521427, 0.0041625900381431135, 0.0023989735420420475, 0.005508137670791109, 0.011577436733899563, 0.007298711414350043, 0.0026243903749634647]
MN40
[0.0015382520715340063, 0.0011598283188302555, 0.0038942161181755404, 0.006152297559527237, 0.04317573999046988, 0.0013927720631110678, 0.0013360638347681031, 0.001301821197970643, 0.0009244530955187824, 0.004882975358153465, 0.0010243900913959804, 0.004105628202479867, 0.0014056035733361028, 0.001390649385094081, 0.0012462824444928525, 0.3750474673409778, 0.0009556288823357056, 0.09247940935119131, 0.0006540742312090001, 0.001498979669162584, 0.000909769291528222, 0.059435039289907995, 0.014023369793888027, 0.001098789258043332, 0.0007398634123072481, 0.003963509905747924, 0.0014884004030688196, 0.0018313721856050846, 0.00044383036014815374, 0.00451592884137684, 0.0016480033278631358, 0.0012891973656223724, 0.0011973222388783576, 0.0013801043538256177, 0.03239897793490409, 0.001277330339424688, 0.00152183520867657, 0.003051468551672899, 0.0008962985667125114, 0.0012271799275058695, 0.0024177958096769283, 0.0027097928483201658, 0.005448774204926725, 0.0020413505549065195, 0.05415826563809206, 0.0017558951143516034, 0.0013171015607700899, 0.0018768107497149468, 0.001156312164510707, 0.0020561421310374573, 0.0015531468438014838, 0.0009353912982856949, 0.00145124333025693, 0.0006373422638151813, 0.0013606702857661115, 0.00044231504385763674, 0.015633866098623363, 0.0007559575015204583, 0.0010990445240040205, 0.015881152291287372, 0.009468676143476629, 0.0066069857990981445, 0.0011182020794808457, 0.0024450077881272175, 0.00028370538007302067, 0.005587095994441273, 0.002069632097436134, 0.0049911682940767905, 0.0007469072127950779, 0.0007598196665954494, 0.0017785953963626914, 0.003625667846137619, 0.0016908332591078564, 0.004042652119371259, 0.0012461570179129104, 0.0014343876080129146, 0.00843188660142387, 0.1090122143927562, 0.0016644188684767727, 0.002127836112460579, 0.0007590490147865643, 0.0010499769564474874, 0.001852175549126685, 0.0018744131495234417, 0.0008744674173139366, 0.003153881772950634, 0.0010568871968844279, 0.0023065559183701387, 0.0010403013756906218, 0.0014245879024006019, 0.0009173844156076115, 0.0015403361428396368, 0.00222955616979382, 0.002443406647980004, 0.0018703544458027383, 0.003103319232753609, 0.00058641130898784, 0.005617935137487557, 0.0018109563782201471, 0.0007637005954410025]
MN15
[0.001637809535184704, 0.001799007673774111, 0.014037373824995336, 0.013528485897163446, 0.054823780653269365, 0.0018680614916343004, 0.0020782722617061927, 0.002780412976513494, 0.004130205106207881, 0.0066106691368584755, 0.002505027907548721, 0.0034161360421998787, 0.0036360167074955116, 0.004883035912275458, 0.0023379233761506137, 0.009556882378485919, 0.0016021613388023828, 0.1471143620815798, 0.0005616894369406901, 0.0029998658730506175, 0.0037356449246741903, 0.03065681667008895, 0.0737403031940719, 0.002336153737935334, 0.002386721912243742, 0.0029642363140474064, 0.0033470969529246905, 0.00452492729820101, 0.0013687575909099687, 0.0038264455652395712, 0.005640768884788324, 0.00419389027408839, 0.0013954821755984138, 0.0010288663643519935, 0.034776546963151155, 0.0027972505794670514, 0.0027934770647066592, 0.0007981127786982011, 0.0010705609618268642, 0.003952573616221629, 0.007910979480919992, 0.0020468050322396372, 0.01132229772449425, 0.003492628949803133, 0.06258863644565818, 0.003569694323740288, 0.0017049712090899968, 0.006403962873414648, 0.0019802482536861402, 0.003218480715035068, 0.0016791998885744128, 0.002705077472209466, 0.0015723591357260838, 0.0012874455686601061, 0.0019546553267929256, 0.0008709227711639319, 0.053601187902837265, 0.0017447170145465246, 0.001997186625344043, 0.05418733160758358, 0.026062745776177697, 0.047272285680359974, 0.0013305223494266562, 0.007277417930340197, 0.0006273057760503975, 0.0016826715846550255, 0.0028612907985509617, 0.012099944036725617, 0.0023700948611774467, 0.0011056999124109126, 0.00823030947778209, 0.005774009088167753, 0.002611083583062172, 0.002522244309228407, 0.007847092465406503, 0.0033003703669786566, 0.010927142389900751, 0.029085931540876728, 0.0032604574054841333, 0.009501083208521867, 0.0011692165923383017, 0.0018149366080130694, 0.011894474745105878, 0.018907484204730988, 0.0013655475940889956, 0.009317791699577114, 0.0036184955762938453, 0.0038525102406239907, 0.0013964380961421945, 0.008799105221969682, 0.0018024311981974842, 0.003339533215712036, 0.004098828279557471, 0.0029668288965729313, 0.002558538979501627, 0.007367211393847771, 0.01720767301407214, 0.011316320342263823, 0.005414500558918002, 0.0009618292445964997]
MN09
[0.0013935744208374184, 0.004217111769079412, 0.011030842295872093, 0.011548891581624176, 0.01650467665822475, 0.004476803760830861, 0.005338212970086481, 0.002949370681040778, 0.003718551709107502, 0.011675912784366358, 0.003925625646422824, 0.006702197047249834, 0.0034842556641885847, 0.004664631885303985, 0.004403352802863311, 0.0040535569327614825, 0.004261544844128694, 0.03227498361053934, 0.003907292748437955, 0.011750599001785956, 0.002663181954244758, 0.01548090206045824, 0.013524473553889929, 0.0029707925751886704, 0.015865708377660163, 0.0034292235172811297, 0.006384055692464792, 0.0037710775250489486, 0.0016871698700860712, 0.015443842402982256, 0.004803962937945146, 0.004509777297687762, 0.006147895465661184, 0.0015320288034100476, 0.011725174815745917, 0.003939508591487787, 0.0035337386948265668, 0.0008584081746511581, 0.0026300522364896607, 0.0037673906343954075, 0.006090259319078776, 0.003574877524094881, 0.017487181374466417, 0.006875581726436541, 0.020364295961981433, 0.0035297623145885376, 0.0030690709733355625, 0.00468431392965027, 0.0037519298260869885, 0.007621928351383753, 0.008830387986836894, 0.0023859697127984764, 0.0039554551195832895, 0.0039681778955851085, 0.0035412604869936378, 0.004248613614334863, 0.06702390048339682, 0.0030059658280108654, 0.004146574372511763, 0.06805829772464436, 0.01977663326427834, 0.015306021693015264, 0.0036119845964608373, 0.013707860791420808, 0.0020087018933045908, 0.0021686664977143113, 0.012314965963862747, 0.01141145279014774, 0.0016670198637025358, 0.003738976350446763, 0.00826280314568183, 0.013604559441555157, 0.004883791069236308, 0.003923570037691037, 0.004023982481462263, 0.006987542278472063, 0.20177537881879015, 0.009735832750259785, 0.003424550884523558, 0.007559151596656623, 0.006194376072152331, 0.004878909523718082, 0.00891211038812321, 0.021922723091173858, 0.0028893735305693083, 0.004672486116313343, 0.004795837990134253, 0.004279644940248144, 0.005437959495152791, 0.0038369768144464523, 0.005084716524534452, 0.0037798844424877776, 0.006714637139621109, 0.009778585204171571, 0.004245270077736793, 0.003721680487361319, 0.005666362824117535, 0.013315368823355803, 0.005012635602694137, 0.0018028561810485382]
MN28
[0.002308046914697743, 0.005740551888575855, 0.018337785073487756, 0.012373272402686004, 0.006934082798592532, 0.007505492714607971, 0.009432686109297114, 0.002821895238283095, 0.018117093829417688, 0.008705934793133157, 0.0038593778118031366, 0.004440604808456837, 0.0024959256458425994, 0.011994959810969685, 0.005750913456380095, 0.0032632322293372085, 0.012913952496221789, 0.012741961033259688, 0.004595825248462538, 0.004042978866838427, 0.003183665742670486, 0.007449893595973201, 0.022766443969653317, 0.002750520756160789, 0.0070610068421597645, 0.0038683561471207556, 0.015248163163537677, 0.01436417766570177, 0.004955852077526489, 0.005145461661592838, 0.011969811699217837, 0.01051922423729244, 0.004794338622093198, 0.0032504121369294507, 0.005008835382781806, 0.007685872598211669, 0.003989202687664102, 0.001982397555973406, 0.0028513017787879804, 0.006634360136454818, 0.008327503481761972, 0.003602035202127622, 0.017546426750432546, 0.007771217111016371, 0.01746534178992273, 0.005594211822133355, 0.001884903922172172, 0.007001621509842485, 0.004859589335698555, 0.012330017249493706, 0.0024054296987757215, 0.002371396555482356, 0.005649391232385742, 0.0027424208440902384, 0.005426210682410227, 0.0035412852536410478, 0.04023148777993928, 0.009748239980306295, 0.004747094155988685, 0.04069437060996804, 0.03486907062034392, 0.02569931415366909, 0.00433856461575063, 0.006019759706981191, 0.0020149284011031095, 0.002017191629922132, 0.004063742541547907, 0.10110796342065458, 0.002417822074622925, 0.0034701519548733946, 0.009460522077582365, 0.020064841434507135, 0.00490245623622249, 0.030424771595912538, 0.00211205336890624, 0.0008181581980149892, 0.0029726644904725604, 0.023460119913358814, 0.008155454560696903, 0.012266584329502289, 0.0053805820776759335, 0.01594190882759445, 0.005081826753751668, 0.025782473311066343, 0.002852218207951501, 0.010242112805000158, 0.0006839053879184842, 0.005282658464096729, 0.004191184102142358, 0.018076199196392827, 0.0051279826246351376, 0.004054680067794147, 0.011455745389359256, 0.009714216734696053, 0.004762522859254403, 0.01311652008340343, 0.00031626339176095533, 0.016885976762308852, 0.030511865542490687, 0.0020869554906176356]
MN27
[0.005574139028276368, 0.0013256135024125246, 0.008723150173752867, 0.004695658205948286, 0.024806431507627787, 0.0009485968063455811, 0.0012237414539658666, 0.0028394587113392015, 0.0007819568806024006, 0.00366377684090443, 0.006871340481596002, 0.006274826721564787, 0.007557052724835477, 0.0008240777479655087, 0.007871588905205104, 0.005561680695472405, 0.0005243616165279801, 0.04850132436333113, 0.00040840091879418793, 0.022247309485604598, 0.00311618675041689, 0.018142634061073894, 0.028059021776229442, 0.002013626563030916, 0.008361320860705955, 0.006745097856576616, 0.0015134889811009155, 0.0025778189628024983, 0.0005219981768760361, 0.005068233773281098, 0.0017013225253748666, 0.003008393284733607, 0.0005695793638757918, 0.0006423426107178466, 0.017543119854521203, 0.0013005520776140076, 0.0032850801139348296, 0.0032235791781454006, 0.0011674748308141982, 0.0014578582357832556, 0.005764767524534721, 0.002631788260393662, 0.004115117712702146, 0.0019078453392410496, 0.037749214838782005, 0.001990620388042386, 0.0012502828259194634, 0.0029600910620931906, 0.001825954627248017, 0.001412121085712036, 0.001555812173293265, 0.002911193818112034, 0.0022946068307805874, 0.0013460645792428851, 0.0011141407623498584, 0.0010240777114359056, 0.2280403958782667, 0.006173896126333017, 0.0010066702845614205, 0.2300781922716355, 0.015763038582607494, 0.024828592255549575, 0.003512316205970846, 0.02796619295470119, 0.0007599611993904586, 0.001080072316004753, 0.002854193881106949, 0.0035810385263743637, 0.0017730297415350874, 0.001186898943685509, 0.0049113709703520105, 0.0022741145485348935, 0.0012886190892167546, 0.005725004118039309, 0.0033688227787524875, 0.00039029133603460256, 0.007317126852906829, 0.007662644032281338, 0.0010263182245944897, 0.0024069121737097087, 0.0007052362055511953, 0.000529113151719112, 0.014145412323475284, 0.0013834787317955318, 0.0007779805988453403, 0.013935160919078359, 0.00039216921966097695, 0.0033207032568348597, 0.0007444650796071497, 0.001709958374337148, 0.000985672968684323, 0.0016383497392784226, 0.0017430273945688243, 0.0019443866129663537, 0.002014438998410695, 0.008352132752784994, 0.0002015572626529997, 0.0042800086299826815, 0.0019400848464912542, 0.011184033491564207]
MN25
[0.01104029014477623, 0.0014029229425032528, 0.0051247108238307824, 0.006171829129643218, 0.06911481069412265, 0.0015888393189784325, 0.0017001218033315902, 0.001612474920791594, 0.001665742028624585, 0.0058431727329525405, 0.0012681750569938223, 0.014675407551525493, 0.0022149891391873675, 0.001545453458255041, 0.0015626358249112783, 0.016536395316154223, 0.001816401750819751, 0.14257061632437285, 0.0007395846799340613, 0.004343597780847125, 0.0011522789338388173, 0.05508687060357436, 0.02425073487420492, 0.0014270141794798376, 0.0010682828361111717, 0.0032933526557394873, 0.001730208166061511, 0.0016111997345118192, 0.0014362431513676034, 0.0040566626285260645, 0.005898078846767264, 0.003805667250891826, 0.0021200514789058785, 0.0006635917630346595, 0.048127937318514766, 0.0025924359609468856, 0.002044861786027208, 0.00041708077022023667, 0.0010311171581653313, 0.0024544143868327735, 0.0038807655090410675, 0.001872176052651462, 0.008002469597141817, 0.003204431518648102, 0.0938554601875664, 0.0019138074820137514, 0.0007769104472972656, 0.0026022479038645438, 0.0010059910552526607, 0.003386112305909007, 0.0037372136689911993, 0.06444449308209982, 0.001686572428125638, 0.0008056822027411062, 0.0012076406505746348, 0.0009388496173422734, 0.028156657423580842, 0.0015960500071125895, 0.001337424729194753, 0.02852646954006168, 0.12929303159244598, 0.01494622070638875, 0.0008297004418757072, 0.0038364073733694174, 0.0009337172639963646, 0.0009245582098093211, 0.002504444730876408, 0.005828124893448024, 0.0013167841416027227, 0.0012159134783167984, 0.002861431898484175, 0.005656557825994875, 0.007957224101339441, 0.0007601008319900613, 0.001375049341180762, 0.0008106294170214041, 0.04135824697969175, 0.01437736740634085, 0.002169793098551189, 0.0016570250701750501, 0.0011753559057126916, 0.0017344551816386063, 0.0016340697707733752, 0.00809797327248327, 0.0012353859832509699, 0.003757715491925309, 0.0006753503650063609, 0.0026978981479213516, 0.0015396786863818197, 0.0014437579098360734, 0.0016793311362121967, 0.0017122530190193726, 0.0025421675689465736, 0.0035160546517765613, 0.0016103925501998934, 0.003286833799197678, 0.0003765159555728879, 0.007653241663287678, 0.0024935701495111063, 0.0007819886729580406]
MN24
[0.0022621096045075477, 0.0012313063913734765, 0.009497507186391144, 0.004852881472170116, 0.08935698681594581, 0.0012066708358129995, 0.001214399951825803, 0.0015747656781239794, 0.0014072483504101415, 0.006280627237435094, 0.001828311187681751, 0.0038466576539593713, 0.003349026362407096, 0.0015457398666370913, 0.0015508361659585979, 0.009755904285181614, 0.0014113855889471504, 0.15131361273675772, 0.000494930562462933, 0.0029023388970483214, 0.014598474904751687, 0.03631069092813538, 0.08691171411071422, 0.00177680437530073, 0.0020519269851905367, 0.004826724461544317, 0.06116620733155662, 0.0018373050863582242, 0.0006325353968936111, 0.00387478127783571, 0.00756829264636779, 0.0014027206620955833, 0.000963548532228392, 0.0005728530640523291, 0.05141991021570384, 0.0024264569113609472, 0.0020365483745348224, 0.0004879195473958209, 0.0015247510946469318, 0.000732137403251116, 0.0037805327045247416, 0.0019108121461194588, 0.00818572252437642, 0.002226262986168396, 0.10501991844281779, 0.0015891697290361482, 0.0018412594580593136, 0.0026771780369152566, 0.0009648470761294915, 0.0016647984875112962, 0.001694734460004944, 0.0652347229537365, 0.0017028319525017252, 0.000887706106569229, 0.0011939234101624693, 0.0006915901156881378, 0.02220140003770595, 0.0017030192929912045, 0.0010872772673860805, 0.022521403774953958, 0.024242968532082253, 0.022354423857119617, 0.0009182160204190044, 0.0031195952270582656, 0.00048060382037993203, 0.000803933014621356, 0.0022610497987802392, 0.00661156487401116, 0.0006946330678495169, 0.0008710938390499262, 0.0031023265284300665, 0.002991703478347083, 0.001769269362233715, 0.000890613705155653, 0.00404990904657839, 0.0006110278782538668, 0.014218708433599094, 0.011002287538565442, 0.0018548254333171734, 0.003000063958088285, 0.0008382984989486193, 0.0016084186149872952, 0.0065688886740087995, 0.01100658861073814, 0.0010458286068667424, 0.004585271836338327, 0.0005183315755271891, 0.004928607927380205, 0.0005982613154363627, 0.0017133762560670165, 0.001185697135776658, 0.002071022447593232, 0.002110582150639111, 0.0021172728389297194, 0.0015594861837556532, 0.010219202617354184, 0.0002775578726325236, 0.00814106976892021, 0.0033144210742817935, 0.0009583374755634393]
MN23
[0.0042650965168509886, 0.002246494356093154, 0.013034668261496647, 0.008370062188681594, 0.09447044578083981, 0.001535966039193994, 0.0015100719735046952, 0.0023379212580670263, 0.0014590100182704452, 0.006216643280264824, 0.0021990776140414833, 0.0019039300833010718, 0.005742386476192722, 0.0015538536744009624, 0.00173360019061462, 0.009515869913502367, 0.0010369002727083799, 0.14418975070475298, 0.0005281928262948855, 0.00408961527942531, 0.003658361187893962, 0.03414145178791177, 0.05546713880043326, 0.003710274315146276, 0.005719824559327262, 0.014643825287533042, 0.0033944607787286464, 0.003504677497581496, 0.0006642591690027565, 0.008238595312296508, 0.0027381971091527202, 0.001978413150620663, 0.001233332350146757, 0.0005912867396511614, 0.05605093847981346, 0.0016213617996032777, 0.002178007314522933, 0.0006597230292510549, 0.0014652948045293264, 0.0009006726618757384, 0.004247173158955086, 0.0030854070903378796, 0.009454122786436958, 0.004299018192529571, 0.08882876963755056, 0.0022255869918814393, 0.001968371059473751, 0.004063930280578346, 0.0019067787696220076, 0.002423062075799068, 0.0027329277041131814, 0.0038048744085746105, 0.002278461480375872, 0.00095358245099484, 0.0015554317169871755, 0.001200548868912402, 0.03140960796701996, 0.002048525457682856, 0.00210840491335356, 0.031830202937173924, 0.034559450209310366, 0.042272079390014726, 0.0015161893297366226, 0.00433278286663011, 0.0005305018872913045, 0.004097830446941044, 0.00933742341426329, 0.011158387332384794, 0.0014201470938589528, 0.0011100463026637226, 0.006448615750675206, 0.004418211751753141, 0.0024322567929088703, 0.014551846395639894, 0.0073828475541470075, 0.0004268434654852281, 0.03160480731041317, 0.027499639097116897, 0.0022408346357100663, 0.00794753439776906, 0.0009224731937949567, 0.0011957739728573474, 0.006595905752219787, 0.0056744233267271285, 0.00123704054059493, 0.005864163607937552, 0.0005010684366959715, 0.005087718461277957, 0.0010714512304953044, 0.002316648665443266, 0.001459579258923413, 0.004762264462116496, 0.0029226370636612265, 0.002976009469121978, 0.002241470813656685, 0.012358953700085334, 0.00025192010736058384, 0.009738095367955344, 0.0037522585564340643, 0.000857427796053724]
MN22
[0.002511865956042921, 0.0018120800639150223, 0.013919763000686867, 0.009963922637106456, 0.060375997268868394, 0.0018450536043341321, 0.002047877754159949, 0.0021964848700672442, 0.001593065840631292, 0.004747469863135772, 0.0031716952925198907, 0.002472351724175415, 0.007480931955622316, 0.0015296214343712932, 0.0027242444882469726, 0.0076973415495229305, 0.0012198913630977423, 0.11631216375068333, 0.0008724980790449601, 0.0077624655914740135, 0.005067231628839865, 0.02410188723891185, 0.019163263936886006, 0.004838708320658831, 0.08181846946814259, 0.009380148999163293, 0.003689004905075427, 0.0033620571160059894, 0.0007316963579579957, 0.006874412343935501, 0.0025983745747572094, 0.003664930749210216, 0.002111408494148833, 0.0007701773985762479, 0.04020769457817921, 0.003036914939073157, 0.0034934264692696817, 0.0017967922861135517, 0.0012734762305838952, 0.00630466066137706, 0.0046205831586388696, 0.0033334073465867723, 0.008288914475077454, 0.0038104244072103047, 0.07407639060943536, 0.0026322277062771735, 0.002342181124438392, 0.0049937968866796386, 0.0020751680963444186, 0.003104371592661253, 0.0019044005514410945, 0.003483922837456514, 0.0018359535491241292, 0.002741943374924206, 0.0019505396411484148, 0.001495740915223426, 0.03030708570415892, 0.001594418365044342, 0.0018918861237419596, 0.030627537545364136, 0.029954105306857836, 0.08842550881052731, 0.0024988840279474003, 0.004396217182617347, 0.0007930638688815395, 0.0017622987005323628, 0.003303352412414001, 0.010909570992402343, 0.0010919482041293219, 0.0013862754868549203, 0.008245082479744353, 0.005971497484509362, 0.002577620248395458, 0.048349423593833214, 0.01307013578913411, 0.0008658219154305494, 0.01384455693436812, 0.009011915211327388, 0.0025803723785142395, 0.005646487935383695, 0.0011170362348392054, 0.0015258893604689458, 0.007851134108309135, 0.00747375652479349, 0.0017770833522955842, 0.0057786246680067285, 0.000611208289726526, 0.009138509998295439, 0.0013471067700486926, 0.003403013590423789, 0.001877545663832905, 0.0024049093950864135, 0.0031458881878676645, 0.004894000696983622, 0.0021339007185008675, 0.014725219271168558, 0.0005241977913944889, 0.006830538178147781, 0.0036905205357858524, 0.0014133609046691933]
MN21
[0.004165582515560746, 0.003199152478243175, 0.011206747818918953, 0.011118267921592305, 0.04878115030710254, 0.002892378458860258, 0.0027783298555926926, 0.003231497759243128, 0.003095799811655188, 0.009501281064170699, 0.002554120934020413, 0.01680704441687146, 0.005420197140348716, 0.0025850493958333495, 0.003296796725991581, 0.00645114789797997, 0.0022719864029674486, 0.09403649512585023, 0.0011201410687411808, 0.004422419469133162, 0.002887005249652514, 0.0187603057709213, 0.031391419939350906, 0.005012877043181324, 0.0023497790325623523, 0.006618027866433172, 0.005231749319053435, 0.003430633901347851, 0.002159306963687805, 0.004178779412571804, 0.02476210883581059, 0.00464099266351608, 0.0017849682380793326, 0.0012145671130527197, 0.03937032555629033, 0.00411028809477546, 0.0037131402815176783, 0.0008825543344139845, 0.003209042806655416, 0.0010415097094564369, 0.00631929039307631, 0.0041424253967300255, 0.012473188983588816, 0.0076994765890546915, 0.058156569121040544, 0.0031988520126159034, 0.0020470694118696945, 0.006171602520641254, 0.0030074770631704807, 0.003844641383199991, 0.004335234484269488, 0.004626446145567714, 0.011041181431278552, 0.004888665821402732, 0.0028977264890557505, 0.0010892681766325933, 0.059264673046139804, 0.0022501423678910207, 0.0026310943981682545, 0.05989409805620156, 0.01689183336793897, 0.02628585917986514, 0.004091447314278898, 0.008104151143092759, 0.0009935866291987292, 0.002972054806271881, 0.00601931959041599, 0.011493060335597154, 0.05438658204465755, 0.0019967781889212543, 0.006374288635439388, 0.008485011588620972, 0.003725552806407261, 0.0013313437963811089, 0.004269797008144414, 0.0009681831849833243, 0.018985300700819517, 0.04750910897326121, 0.0032514159887457044, 0.007618947086692866, 0.003010154910976642, 0.0033514679601273816, 0.015209178149522405, 0.008713965370258269, 0.0028142309887270534, 0.0050458557374655835, 0.00040568095250408093, 0.004249782055524458, 0.0022121729843537843, 0.004006312757659868, 0.002632972453603172, 0.0048084973097862315, 0.005026406274372622, 0.008301314773268134, 0.0036375058859125227, 0.005781236322670054, 0.0003262686722916367, 0.01136353070435122, 0.0061496231409916245, 0.0015361282332957997]
MN20
[0.001660595296519221, 0.0032929038336736104, 0.010781623216130453, 0.011550935589455233, 0.06515428187549237, 0.003330647291825316, 0.0035804783174264443, 0.0032920163477757353, 0.004586347491031807, 0.009747349713332187, 0.0029647824219132613, 0.004931915986660432, 0.005893410803264935, 0.0049852561211816675, 0.004440203169934818, 0.006811192151737988, 0.005107609705438283, 0.09863891614077681, 0.0013030522494016368, 0.003768497271351429, 0.0025423017364179343, 0.024670276978955432, 0.023694046313114857, 0.002677164492323848, 0.0015040459391063242, 0.004357683422549557, 0.007290795944281276, 0.005721342873525387, 0.0027626624084545756, 0.0023515725726082955, 0.005665627466882435, 0.0039969791026503165, 0.002148153374664575, 0.00188735450304894, 0.03826923318216711, 0.003316935581168658, 0.0032659239466612715, 0.00111866764575339, 0.0016445521914333016, 0.0014307281915170564, 0.0069000081983317686, 0.002836351037327852, 0.020460862953390373, 0.006391032375911084, 0.06325780265190133, 0.0035440379884571676, 0.0017763663329851882, 0.005848715021962617, 0.0026545175248211556, 0.00607962565986591, 0.002028135987665093, 0.0033327528388181057, 0.0032496312744899865, 0.0031993420589345, 0.0032069873429598126, 0.0010909255815107137, 0.07024176112153911, 0.00451618890395649, 0.0032844691387119164, 0.07103755405469081, 0.04193212164013331, 0.03733431091438191, 0.002283471667346695, 0.009610861695029789, 0.0007429219233106091, 0.00248839047616789, 0.004951537974267702, 0.022927317919490063, 0.001515807069795163, 0.002046503081146289, 0.004703168539236169, 0.010508091409709534, 0.003763098295013188, 0.0030849810093547146, 0.003976538863483035, 0.0013370132300651988, 0.015751651318583946, 0.010471121259006596, 0.00491886265693326, 0.003968067013532153, 0.0025247349927008085, 0.005856037184638787, 0.00481843409748038, 0.03466030248368447, 0.0022928285207809347, 0.006582462288706863, 0.0009806627096618273, 0.004704573725361759, 0.001637455637062024, 0.005027897227715514, 0.002802480675077472, 0.0034068288370194583, 0.00827850464393933, 0.006449645770226307, 0.0030258666581113596, 0.00677218753704512, 0.0020097017368753776, 0.013800201403835866, 0.013494456618239092, 0.0014837683860110837]
MN50
[0.016118058226881348, 0.010390722782360856, 0.02767469643791363, 0.018413966024336675, 0.01261769029855009, 0.007613680499974715, 0.007700843009774914, 0.004036850223178342, 0.0054471518775765495, 0.012070873313371968, 0.007913273037156159, 0.01006543227657274, 0.008437096489471435, 0.009140920001084765, 0.00855133460930895, 0.004027525113796397, 0.0041684387904951225, 0.023419779337284972, 0.00240994916231191, 0.005279947223831929, 0.007820141579387697, 0.03317524028964017, 0.024925250336068502, 0.00770465208120327, 0.00347687963437548, 0.004334733340950429, 0.0075346778884731475, 0.00487462218717847, 0.004777509337323019, 0.011585729874774027, 0.005809527156083765, 0.012497597131452681, 0.003652401094350504, 0.0035397775299401287, 0.00956223305049116, 0.009586396035382303, 0.02151495844280242, 0.005785146905459441, 0.003984888226248656, 0.012220685286726604, 0.014307288423508157, 0.003558862838829894, 0.01766223278784572, 0.009131437821657554, 0.01881176563536734, 0.008750080986243492, 0.003769487505779751, 0.013211615865821548, 0.00537987278974796, 0.007117358398850849, 0.0034858001864572275, 0.003408421784956006, 0.007425536511797321, 0.004011395396235311, 0.005502348656570481, 0.00326403943716622, 0.028571389500683782, 0.004965378353854522, 0.003936700908792072, 0.028658680837117305, 0.020877651099295135, 0.01159559370351429, 0.007622041377174761, 0.006925145660127598, 0.0018221632567646975, 0.004045599218065286, 0.004584868117553762, 0.013807670024694938, 0.0037161380005636766, 0.004177344433881534, 0.007610930323378, 0.01338840757007276, 0.006679005955723291, 0.03936632935509707, 0.005326667007465671, 0.001197243657805624, 0.007308529735360038, 0.014612164843455351, 0.009967903702184921, 0.01244527804018939, 0.003492596070045463, 0.003278410219823645, 0.004274797785692106, 0.08482822486803034, 0.003551928592709083, 0.004944602304688144, 0.0008033851254432388, 0.005585980749561273, 0.0074912246378250665, 0.007021765873756301, 0.004066147853074453, 0.008965102421848017, 0.013149209198149693, 0.008582730353555522, 0.009438251268239375, 0.004284712432130678, 0.000899697508342777, 0.017594508007100947, 0.006893956855672238, 0.004985122021116076]
MN19
[0.0018936809330064974, 0.0009655104464027663, 0.006429564586946932, 0.004311247535370189, 0.054191646473622165, 0.0010159813007360318, 0.0011135580770494369, 0.0012439567390527346, 0.0016659501115029098, 0.005684133882511814, 0.0011975301511422745, 0.004819509848039376, 0.002096991303132811, 0.001613674474677606, 0.001152177994419435, 0.005942188810275153, 0.001176895307104116, 0.3977395667240979, 0.0003563825471164358, 0.0012813600780286084, 0.002013838282304556, 0.022762942882884395, 0.03421545393547678, 0.0007755920712614891, 0.0009178336024369133, 0.0017064553518865667, 0.0014911826187015834, 0.0018124483270415745, 0.0014197232256284835, 0.0029384104816408073, 0.002709624489826469, 0.0009888835337265973, 0.0006636334952679682, 0.0006534217637784094, 0.03747145859262956, 0.0013752269668267612, 0.0015105972870874905, 0.0012837184980213677, 0.0008446104794945805, 0.009536629803558582, 0.003884556308444318, 0.0009703047019367633, 0.006963078910382759, 0.0018467230059377431, 0.06758466797958813, 0.0019157415345055523, 0.0007141243928262635, 0.002134783214149507, 0.0009804082564303046, 0.0014571272005258489, 0.0009648325700206874, 0.0062863927558058615, 0.0010207186984408315, 0.0008271660305127512, 0.0010260567001170804, 0.00046554032605380805, 0.019332443013873834, 0.0007589897841319689, 0.0008259612374168329, 0.019447365966246875, 0.012744190287873491, 0.014022433647959753, 0.0020950013282319555, 0.0028637971532596467, 0.00036631154768240184, 0.0014630309163111417, 0.0015799707364190457, 0.005461705155790949, 0.0009193141530990214, 0.0006414106173335288, 0.002550663383824341, 0.0027919287523446496, 0.0012737819506773306, 0.0015698090509812866, 0.002415438310588634, 0.0017087970992568442, 0.010898727612378077, 0.09754457740357066, 0.0014431034035093124, 0.001776650425781949, 0.0007402421801540913, 0.0013295518506363897, 0.014626910461216188, 0.007047973065905529, 0.0010113956798610407, 0.002332789397856473, 0.0014294667724926023, 0.002594091973815597, 0.0008246584032177776, 0.0013415498103903469, 0.004079137272770464, 0.0022419305048909143, 0.001824103952472767, 0.0013555457610648202, 0.0014534489239381506, 0.009338763653573869, 0.007339214741839576, 0.007568685784582109, 0.0020129638145960317, 0.000986757456787674]
MN12
[0.0013052873127313103, 0.00251980396692918, 0.00988823651293237, 0.008947564551773587, 0.0257077183842596, 0.002600852902337582, 0.0024418810602986627, 0.004710503531066292, 0.0020087090747947845, 0.0054361834123651, 0.0036561000690736993, 0.002671091229947291, 0.0029056928892549393, 0.002820218912308854, 0.0032163404652338578, 0.3833710393650416, 0.0019813151103024343, 0.05152659588100834, 0.000984156447520497, 0.0025571830503065625, 0.0034204182115915903, 0.015516644062667359, 0.014746773382836986, 0.002299461099031427, 0.004506777826526933, 0.004715247028909049, 0.0038285470655304178, 0.002894065457491586, 0.0015192386777751836, 0.004531957933913395, 0.0044620550692165695, 0.007870729991542747, 0.0015492176016944936, 0.001059597526047898, 0.01997400261364671, 0.003110038236031964, 0.002603958505292821, 0.0006628089679476006, 0.002087694629127638, 0.000979486009751292, 0.005234348129212071, 0.0021522880107933255, 0.014268505389040967, 0.003512732406717762, 0.032102886669188736, 0.0022305105950569545, 0.00117640462613189, 0.004364353583653919, 0.0020240503096486014, 0.0036746081602289774, 0.001510662050731806, 0.0016585481872240107, 0.0036030339659740467, 0.0014782000018732054, 0.002549218635514647, 0.0010368315325516443, 0.03540296597278854, 0.0031303800480634494, 0.0019031142797179524, 0.03602010369957171, 0.015752023841575064, 0.011340883660042435, 0.002275812905563653, 0.005127109695851543, 0.0005858909377434445, 0.0016951166752404746, 0.00364668697973597, 0.015602888221181912, 0.0014177531761637879, 0.0015844155631996283, 0.004111730608107504, 0.007040247466524841, 0.0059379013092238355, 0.015606234569460838, 0.002640530778586002, 0.00358744878377564, 0.006313271276083889, 0.011579218104250806, 0.0029028264851059795, 0.004329594600533167, 0.001435847290800946, 0.0023249210681549285, 0.00256713598502255, 0.008114782158271282, 0.0017059748195166024, 0.00647667748516097, 0.003101294674537145, 0.004492926311861846, 0.0022086656564165746, 0.006813500646772593, 0.002157414368700026, 0.004173360894139856, 0.004692494816669061, 0.005344976037077605, 0.0050881726129001536, 0.007794841905230245, 0.007585580883976063, 0.00987228517211277, 0.005174600880930859, 0.0031680204140533005]
MN13
[0.003276920124657809, 0.0017145201674851679, 0.007551870760711302, 0.009396867102387409, 0.09448678576529623, 0.001513987039719744, 0.0017176154192052066, 0.0028296739793108824, 0.0019907922425050494, 0.00820472548365512, 0.002535145265255092, 0.0024444037783859984, 0.0032363897020703174, 0.00206342839682228, 0.002467476862074982, 0.012811199510414711, 0.0014121367446263762, 0.1282277887188024, 0.0005903459497103628, 0.008109947842237458, 0.0032197223961751152, 0.02763520481544007, 0.08314711264696495, 0.0021838803196078246, 0.0016330370109485018, 0.005635646071123428, 0.0028199701648804923, 0.0026609219505103815, 0.0017112696500223745, 0.00671317038377559, 0.002899964758263374, 0.0028387297790939403, 0.0012741563892728945, 0.0007648136465254496, 0.05134131374765058, 0.004197272748097818, 0.0023122942007906917, 0.0008804114436620309, 0.0009969086472661945, 0.0012252006324686186, 0.005280447101800171, 0.001996825719882198, 0.009168991377874806, 0.0034084109752137706, 0.07909602171137699, 0.0024852784203962153, 0.0016933615384254253, 0.004103149250660199, 0.0014188900112530396, 0.0021620264436500104, 0.0018994755552809472, 0.03524547891377706, 0.0023960414076694856, 0.001114163244917779, 0.0014670139723255546, 0.0008453120530229632, 0.038817096819636, 0.001623586679823662, 0.0014109260312252629, 0.039337788671584786, 0.024506476165075803, 0.01956244278381326, 0.0013472186479901625, 0.005192668885266327, 0.0005510169422747391, 0.00742019460248979, 0.006251441508521682, 0.009387833732862637, 0.0017936448955608436, 0.0008970351230455829, 0.005272007301469866, 0.003947683298850467, 0.00244806056154479, 0.0028866942259568014, 0.004758778429154772, 0.003502928604472055, 0.027102734796154732, 0.024839331067552785, 0.0023037536018144272, 0.005381200886940087, 0.0009645833998640089, 0.0016693359024827566, 0.007510188344873208, 0.006584205059105813, 0.0011729386407541144, 0.0049938680209745965, 0.003641286003330187, 0.0034386500051212412, 0.0011448084847363819, 0.002401267759347873, 0.002044537826635132, 0.0026761556113619996, 0.0026932616783393367, 0.0028457003854469773, 0.0022511281156177183, 0.007863275491129829, 0.03359120201375888, 0.011279094763742828, 0.003380616224512394, 0.0008574420503818757]
MN36
[0.00426683813808854, 0.0058248219024677195, 0.030746398459392553, 0.0102585214935502, 0.01714929081302786, 0.003952632629782044, 0.0053794962457846904, 0.0021796757277733254, 0.016601721134916765, 0.010135858473382513, 0.0022430318213343746, 0.003309733379652733, 0.004658391693717912, 0.012885598940376204, 0.0033700339432767503, 0.002347204999349742, 0.01482842970173203, 0.034923944581383704, 0.003968267650664344, 0.003558458717225887, 0.006197408075331488, 0.011182332208128434, 0.006305496233398376, 0.0016389926550011587, 0.0028943342243973893, 0.0014497500544512797, 0.006131813947082056, 0.006317363859569737, 0.0061906698802243615, 0.0027771427165772917, 0.03364669028107766, 0.004505645891464267, 0.004587283230231351, 0.0015488244421194843, 0.012024348131645357, 0.004127125145258842, 0.004513188364235487, 0.0025021578615852668, 0.0025480991610412613, 0.001211016838304003, 0.055204975932058954, 0.002961141625308374, 0.016143512936476277, 0.007416351290813335, 0.024174490078899522, 0.0044991776671103436, 0.0013930459864975964, 0.003858792091422978, 0.0038805727668424243, 0.009524576528650892, 0.0028041915459480625, 0.0038775970572382714, 0.002904218056686756, 0.0028824013192418362, 0.002812987417284228, 0.004505739722676188, 0.06667585638275743, 0.00256263663327813, 0.0035881522330169923, 0.06743035574082043, 0.023335447167355167, 0.013743602989278642, 0.002708539180777931, 0.010170019474530511, 0.003873132875666516, 0.0015235648525399605, 0.003515795741749602, 0.020644797895002356, 0.0020329030143009033, 0.0026490089450726243, 0.005773466912107992, 0.015435434947032397, 0.003934463572116308, 0.0012935518710945463, 0.0020136488118038314, 0.048206681258093194, 0.012642442081283142, 0.01827410306823095, 0.005586996279160561, 0.03622571548583004, 0.0059273088385599715, 0.016478340747204043, 0.0044249973098667485, 0.018145018280699327, 0.0035745504977049555, 0.005581935058634069, 0.02961051489995, 0.005173924571892538, 0.00472834992043676, 0.004946397152637287, 0.009463829665469223, 0.002815735017771822, 0.005694548651926207, 0.009993113184796126, 0.0027989891259676803, 0.001637656560395206, 0.0036137322988050074, 0.01654998214636186, 0.009604606274197734, 0.0016643467126626304]
MN11
[0.003850429234204715, 0.003390914142819713, 0.011422659910694606, 0.010559841766165097, 0.020478324072760762, 0.002516212619393127, 0.0030595710020908796, 0.0017110701327115857, 0.006471253483554494, 0.0075204644150393555, 0.003228393987676395, 0.002304308595277421, 0.0029077714827177984, 0.008045632348822312, 0.004014777994566499, 0.004095369442289123, 0.010695643913194757, 0.047717979934993146, 0.0032850295370765517, 0.003214331029751722, 0.0021254744720540096, 0.016855404000248795, 0.013163483520160677, 0.0013258993823252036, 0.020689229954983672, 0.00232570153029499, 0.003658644300233985, 0.004860497218352024, 0.0050126885993736, 0.002695839100628767, 0.00694782551788443, 0.0035423545204905293, 0.0027192579737957776, 0.001149261787830446, 0.03632551851850116, 0.0029183685495726267, 0.003931067797470968, 0.003295066010414549, 0.0024198031666402553, 0.0014742830874425082, 0.006837133335022863, 0.01361484132967543, 0.015530113669404736, 0.00598909417881945, 0.0734288724021209, 0.002930386788644546, 0.0013996106415736331, 0.00392399570866942, 0.0031723318389271777, 0.00546929474047756, 0.001667095467957553, 0.0009080361018157852, 0.002912888154743094, 0.0016741653386162865, 0.0027833473667329993, 0.0032848917243849204, 0.06863233707772201, 0.003783336577741785, 0.0042013803443874285, 0.06902735164425516, 0.013150936750539986, 0.009445061457119226, 0.003304378356373005, 0.009848007125380809, 0.005238244836395938, 0.004666825669830257, 0.0031556559028551763, 0.013917465693013232, 0.0016633875031210122, 0.0021649786924026262, 0.003839108781373386, 0.006501644881513715, 0.002934828481296832, 0.06488077878286391, 0.002773838162925498, 0.020088983920354964, 0.004527124152651394, 0.12221792600140377, 0.0038066359560366037, 0.004095568024936176, 0.0034577911568599274, 0.01138182577573218, 0.0022843394344321945, 0.021441457234084613, 0.003914470874464114, 0.004450858906178148, 0.01100260487077128, 0.0032748813298969785, 0.002429662404016645, 0.001991522757832811, 0.007117866457291601, 0.0024036127217856628, 0.0047290126925507376, 0.0028967962354372392, 0.003137131916197101, 0.0033807448480260164, 0.002640777321478916, 0.009764990294222137, 0.0057606656429044865, 0.0012214555072574214]
MN31
[0.018590324539317773, 0.002470920505255623, 0.010074415426882439, 0.01640856683327011, 0.043261857208017666, 0.0033724989192986574, 0.0029006573834246437, 0.002521025281049383, 0.003433940706616467, 0.011422155987316386, 0.003855102667463435, 0.02679008563532867, 0.00757474959190012, 0.002472682625716767, 0.0024095647634291796, 0.005934149047106671, 0.0018945959247768953, 0.08170565291646219, 0.001074911969857465, 0.002745040869957845, 0.0026413039222495703, 0.029526472389856968, 0.03585022023441351, 0.004495807798990867, 0.0017831856166234017, 0.024441032632132723, 0.0039807253530802, 0.003630022745202624, 0.0013276200025210787, 0.006877476590501661, 0.004328341167220789, 0.004638457921126724, 0.0025702969915289723, 0.0012282580992985389, 0.03355875623338882, 0.003591290758187441, 0.0037178599132211966, 0.0005137064836506354, 0.0019467133774457334, 0.007470811128258735, 0.008781350961279211, 0.0024750344228760836, 0.01618291484234114, 0.00642375435536639, 0.053053750627210565, 0.0040890395747357235, 0.0023850369321392196, 0.011163842457003378, 0.0020904164418293876, 0.0046510818120847255, 0.0021813443603807586, 0.0043344314485545725, 0.0025742667129647493, 0.003864380893961092, 0.0025035764414634487, 0.0016824642756571024, 0.06391661892401826, 0.0020700823973243757, 0.002080734008912765, 0.06465535736293768, 0.02206926263326128, 0.03346394443835818, 0.0036851633694402583, 0.008656792287522563, 0.0007546221650198137, 0.003444476331478684, 0.003558296912333968, 0.01635877062568028, 0.002183575869709, 0.0016882140220619486, 0.006658551478399514, 0.008958419151420172, 0.003738735651756541, 0.049319985477850645, 0.004462577559994451, 0.0010502997644055874, 0.022181237329509534, 0.01244547469313911, 0.004277540637161306, 0.004950387917268232, 0.0016198343722325789, 0.002125254890333009, 0.0030067468420309235, 0.012849650145014184, 0.002607545814646557, 0.00498368250932162, 0.0008186581715183555, 0.0042339073222840305, 0.0032700216138854257, 0.0039789195834180405, 0.0031286208912051474, 0.004407281780867967, 0.005391426453755381, 0.004888663378887205, 0.004217238139718627, 0.00957447791438104, 0.0009696403241059332, 0.01576785091108523, 0.006613021976587621, 0.0014504912345609151]
MN14
[0.009883399975100734, 0.0015800370787845386, 0.006411754838165866, 0.013222636248991764, 0.13437849723368833, 0.001647946084668258, 0.001663986479116994, 0.0033785267799653867, 0.0018222925607711356, 0.007030989802180346, 0.05498096742358554, 0.0034079814465918356, 0.0025914117251679995, 0.0013284250663826234, 0.0021193860131732815, 0.02197690506982741, 0.0009927359819977115, 0.12006768385809366, 0.0006297411880251569, 0.002909348641449896, 0.0020330498726040163, 0.024850605889185706, 0.027543158650145002, 0.0017249597187073149, 0.0073215953238207196, 0.005395140613108382, 0.00328323460288779, 0.003156599397417504, 0.0006653404508453898, 0.0032845125968077597, 0.0038532341877062235, 0.0033236021905323383, 0.0013336506515873976, 0.0011953673750873211, 0.042705743532520005, 0.002544310172036985, 0.0027006813727612666, 0.0014470086672235787, 0.0010503106445564527, 0.0022238050064538038, 0.004509696723093677, 0.0018225979320268927, 0.008482193536862475, 0.0037811061886883182, 0.07247709526454041, 0.0024457980263568467, 0.0016315837365048502, 0.003857538360088846, 0.0018138289735741948, 0.003120475775295634, 0.0037137160340389324, 0.0015884193285229237, 0.004352246083352144, 0.0014861171926861655, 0.0016289974718028764, 0.0007719605037159346, 0.03432695270565202, 0.0028992335238885183, 0.002037403035469551, 0.03471262240557461, 0.022440051413852774, 0.01629202854750861, 0.0014736114571043699, 0.0047086076175996295, 0.00039119647680308, 0.0032344614722409825, 0.004100244210382332, 0.010078808757652089, 0.022524129449970842, 0.001077342443450621, 0.004317692040302651, 0.005375455041202769, 0.0024580454872021934, 0.007877817892391368, 0.002067650336492411, 0.0006290846032774217, 0.07528293654233109, 0.013474863093775009, 0.002293612850998639, 0.005010396772146628, 0.0012142876226280451, 0.001187918517915884, 0.0060221804081594275, 0.005889577363892789, 0.0013685055367437134, 0.003242427508596198, 0.00047355930350802104, 0.0035434134907653798, 0.0015007570751002291, 0.002780257667265254, 0.0012247277272172433, 0.0027335233164286097, 0.002937701450708516, 0.0025417324408340738, 0.00268261832240968, 0.013775086412383347, 0.0018050857057109024, 0.009429388095327588, 0.004057109038009, 0.0013619592762509176]
MN33
[0.0029034744559056106, 0.005483610041495542, 0.00984070329721293, 0.017593013761837577, 0.015015251214889693, 0.006721529508561179, 0.006687168883373281, 0.003360175772396956, 0.0066803462833582355, 0.01676515329789154, 0.004505830019664623, 0.0042848191503074545, 0.007618678755500022, 0.011125226484691676, 0.005758354668114613, 0.00559023583243602, 0.010068258283279513, 0.028287668530926395, 0.006562446270121756, 0.004144094773976782, 0.007455039566102292, 0.013419602222927433, 0.007645928207440014, 0.0023291456521223443, 0.004420020448819424, 0.002662999672261808, 0.005409856660814926, 0.007836085247658851, 0.00478394825584733, 0.0031390738611237474, 0.006289741751852031, 0.006991012482187293, 0.015224575786938827, 0.0022833511641543853, 0.01653086036428204, 0.00509919284929727, 0.005440411391488873, 0.0011224500490138974, 0.0029335747357480133, 0.004189456050786145, 0.011220971745257574, 0.002783556649758039, 0.018144595273590785, 0.00958733663776693, 0.02447368553438443, 0.005666738724533227, 0.002770732691209818, 0.005857209149385242, 0.004338692764543552, 0.012974918746557889, 0.003947594874650719, 0.002218257186460176, 0.004755790255879317, 0.0030154522055339484, 0.004212338143243218, 0.007314611955892406, 0.07626256449513658, 0.0032313090287472077, 0.005483842689584674, 0.07712389092909984, 0.038988202642073824, 0.02326705443157706, 0.002240822658773932, 0.011085254381636508, 0.006150804136464631, 0.002303354155413646, 0.004566621564588501, 0.015276603928905941, 0.0027346813659471984, 0.0031558019084234265, 0.012100310199950455, 0.02449304721179839, 0.005638626791274379, 0.012389297788121263, 0.004939020031429484, 0.012774150327155094, 0.019131107942198886, 0.011448649875396608, 0.004974704295149364, 0.005553747387357845, 0.004858061943227543, 0.01178702272194481, 0.0038789691382265304, 0.043256427951443376, 0.0058555289733214526, 0.006518190048536322, 0.009557848002345697, 0.006987736738914512, 0.007801628224395755, 0.004645432265722602, 0.012621101222812393, 0.004011088896696883, 0.009569690379519522, 0.012063746490805011, 0.004543606657989396, 0.006341469172559255, 0.005066665061905974, 0.01718609954770887, 0.008298563404190695, 0.0023528047460731386]
MN34
[0.005213647725443306, 0.0031920678617236237, 0.014740453961330547, 0.01309218776176109, 0.017019697839703363, 0.003925377847941541, 0.003909959552871224, 0.0016059489181324627, 0.010507899752241381, 0.004967454137708486, 0.004384416162286386, 0.004553301741875963, 0.0022197406078447585, 0.018850831817675384, 0.008843835493223822, 0.0025445652324570535, 0.02353250233921807, 0.031673415428836796, 0.0035533392055573237, 0.0027294542310581623, 0.003691221339774072, 0.031483128467357416, 0.008755822169733068, 0.0016997004105319758, 0.0024681153742948155, 0.0013764927943149853, 0.005313232361749732, 0.0047418602185025265, 0.0063456909506734195, 0.003438542751044367, 0.008755182585711356, 0.007390032572145093, 0.004815545963998806, 0.002122609349680613, 0.013589018488332301, 0.0037023699644209143, 0.004687386725455739, 0.09666493907967441, 0.002951590636106527, 0.0026747962088356503, 0.00953409655837317, 0.002136464664065238, 0.023746809491874667, 0.0048639538652488585, 0.04896953819291297, 0.00349807295584235, 0.0013211551809933515, 0.003936509692137768, 0.0024958216721480157, 0.007625136417458271, 0.007371537129351862, 0.0012825791036966123, 0.003300140403940208, 0.0022740091839540365, 0.0042170998740318376, 0.003163807352205649, 0.044418990608766924, 0.0028603105494487834, 0.0035001632109344493, 0.04506003452559907, 0.021822608122014864, 0.011233105501616061, 0.013468314247616079, 0.007656360658258976, 0.004125909049736173, 0.015954341406026248, 0.0034468080036033507, 0.016814877195773976, 0.0023376262110860707, 0.0023535863283667934, 0.00438113573951864, 0.013574023334529341, 0.003285576770704761, 0.02376724486659827, 0.0018055010067911307, 0.0064275344535256445, 0.004693047843387507, 0.04832769151155804, 0.00907351794642076, 0.00462876443590309, 0.007871680193172666, 0.018650923415772708, 0.0022011961853510907, 0.05284398813465197, 0.006553674233443338, 0.00449983329375983, 0.004450141613477348, 0.0032312838469370827, 0.0017027673703897321, 0.002872031805092546, 0.008329264351259387, 0.0028219667667755202, 0.006763197227161899, 0.005369304950404689, 0.00287139714963995, 0.0036240306410094997, 0.0014380869186112642, 0.011656022296735286, 0.007858565774050476, 0.0019094625350552172]
MN35
[0.0010539414252041155, 0.0031438414688638406, 0.008072248447245989, 0.01044860989536198, 0.004913669300581074, 0.00293387700433163, 0.002806459231523729, 0.0017215604653386242, 0.006120225676030618, 0.005479944214774519, 0.004417567168209213, 0.002876692197992526, 0.002809136985473189, 0.006850834844060741, 0.002634801125442843, 0.0012523353734053403, 0.007693828179759088, 0.004995590109644027, 0.0037442221083412303, 0.0029783198372052492, 0.13819457088913567, 0.003975544917224147, 0.004478703515848185, 0.0017771164005452008, 0.0027054141358733926, 0.0011896254806336875, 0.0027483733470119514, 0.0028322307520771643, 0.0032509532216332673, 0.004126586188903584, 0.004168130253274131, 0.0028318537221018593, 0.004666551511132726, 0.00211985950779255, 0.005243398954290223, 0.0038146538610713586, 0.002471518348057781, 0.0024364956969927256, 0.0021272297850420795, 0.0008325897733574118, 0.013270700329368956, 0.0022323996148659545, 0.009826296325106508, 0.004598844005835236, 0.004058722830833808, 0.0032356780355920637, 0.0010547729813281464, 0.0036152794385923156, 0.0021765112027928683, 0.006867274654271871, 0.002204164405458222, 0.0009478549523938618, 0.002377674535463944, 0.0023254324180068445, 0.0022763217044575465, 0.00392668851901956, 0.04536121302856468, 0.004633463479314145, 0.0029630189245075066, 0.045018129465128856, 0.02456498710769907, 0.01730023263719292, 0.0034423968757226224, 0.007687397864619043, 0.0021940333360482376, 0.0024226689245696606, 0.002862500293110069, 0.010023137330842886, 0.001273963260015792, 0.055603154070562016, 0.0035436438677159217, 0.008754828311963864, 0.0025741959714808216, 0.0016011147189486307, 0.003019979995865337, 0.1562520288671518, 0.0018603873716412605, 0.005374077717968232, 0.0027603105987325043, 0.005096251046699383, 0.003479485413670303, 0.008013418554681464, 0.01349223864737605, 0.04526086865481749, 0.0031416616571303814, 0.00409056857885476, 0.10214479817847663, 0.0032005637265750436, 0.001937070701401668, 0.002468890972349558, 0.005480230592666204, 0.002289647167727682, 0.004678941855342585, 0.0049160589212363034, 0.0025958725090829667, 0.00327539372041942, 0.011701799371778728, 0.006878023754262233, 0.005266313356691881, 0.0015673173252171752]
