%!PS-Adobe-2.0 
%%Creator: MATLAB, The MathWorks, Inc. Version 8.1.0.604 (R2013a). Operating System: Linux 3.13.0-65-generic #106-Ubuntu SMP Fri Oct 2 22:08:27 UTC 2015 x86_64.
%%Title: ./rela-abs6.eps
%%CreationDate: 10/17/2015  14:39:24
%%DocumentNeededFonts: Helvetica
%%DocumentProcessColors: Cyan Magenta Yellow Black
%%Extensions: CMYK
%%Pages: (atend)
%%BoundingBox: (atend)
%%EndComments

%%BeginProlog
% MathWorks dictionary
/MathWorks 160 dict begin
% definition operators
/bdef {bind def} bind def
/ldef {load def} bind def
/xdef {exch def} bdef
/xstore {exch store} bdef
% operator abbreviations
/c  /clip ldef
/cc /concat ldef
/cp /closepath ldef
/gr /grestore ldef
/gs /gsave ldef
/mt /moveto ldef
/np /newpath ldef
/cm /currentmatrix ldef
/sm /setmatrix ldef
/rm /rmoveto ldef
/rl /rlineto ldef
/s {show newpath} bdef
/sc {setcmykcolor} bdef
/sr /setrgbcolor ldef
/sg /setgray ldef
/w /setlinewidth ldef
/j /setlinejoin ldef
/cap /setlinecap ldef
/rc {rectclip} bdef
/rf {rectfill} bdef
% page state control
/pgsv () def
/bpage {/pgsv save def} bdef
/epage {pgsv restore} bdef
/bplot /gsave ldef
/eplot {stroke grestore} bdef
% orientation switch
/portraitMode 0 def /landscapeMode 1 def /rotateMode 2 def
% coordinate system mappings
/dpi2point 0 def
% font control
/FontSize 0 def
/FMS {/FontSize xstore findfont [FontSize 0 0 FontSize neg 0 0]
  makefont setfont} bdef
/reencode {exch dup where {pop load} {pop StandardEncoding} ifelse
  exch dup 3 1 roll findfont dup length dict begin
  { 1 index /FID ne {def}{pop pop} ifelse } forall
  /Encoding exch def currentdict end definefont pop} bdef
/isroman {findfont /CharStrings get /Agrave known} bdef
/FMSR {3 1 roll 1 index dup isroman {reencode} {pop pop} ifelse
  exch FMS} bdef
/csm {1 dpi2point div -1 dpi2point div scale neg translate
 dup landscapeMode eq {pop -90 rotate}
  {rotateMode eq {90 rotate} if} ifelse} bdef
% line types: solid, dotted, dashed, dotdash
/SO { [] 0 setdash } bdef
/DO { [.5 dpi2point mul 4 dpi2point mul] 0 setdash } bdef
/DA { [6 dpi2point mul] 0 setdash } bdef
/DD { [.5 dpi2point mul 4 dpi2point mul 6 dpi2point mul 4
  dpi2point mul] 0 setdash } bdef
% macros for lines and objects
/L {lineto stroke} bdef
/MP {3 1 roll moveto 1 sub {rlineto} repeat} bdef
/AP {{rlineto} repeat} bdef
/PDlw -1 def
/W {/PDlw currentlinewidth def setlinewidth} def
/PP {closepath eofill} bdef
/DP {closepath stroke} bdef
/MR {4 -2 roll moveto dup  0 exch rlineto exch 0 rlineto
  neg 0 exch rlineto closepath} bdef
/FR {MR stroke} bdef
/PR {MR fill} bdef
/L1i {{currentfile picstr readhexstring pop} image} bdef
/tMatrix matrix def
/MakeOval {newpath tMatrix currentmatrix pop translate scale
0 0 1 0 360 arc tMatrix setmatrix} bdef
/FO {MakeOval stroke} bdef
/PO {MakeOval fill} bdef
/PD {currentlinewidth 2 div 0 360 arc fill
   PDlw -1 eq not {PDlw w /PDlw -1 def} if} def
/FA {newpath tMatrix currentmatrix pop translate scale
  0 0 1 5 -2 roll arc tMatrix setmatrix stroke} bdef
/PA {newpath tMatrix currentmatrix pop	translate 0 0 moveto scale
  0 0 1 5 -2 roll arc closepath tMatrix setmatrix fill} bdef
/FAn {newpath tMatrix currentmatrix pop translate scale
  0 0 1 5 -2 roll arcn tMatrix setmatrix stroke} bdef
/PAn {newpath tMatrix currentmatrix pop translate 0 0 moveto scale
  0 0 1 5 -2 roll arcn closepath tMatrix setmatrix fill} bdef
/vradius 0 def /hradius 0 def /lry 0 def
/lrx 0 def /uly 0 def /ulx 0 def /rad 0 def
/MRR {/vradius xdef /hradius xdef /lry xdef /lrx xdef /uly xdef
  /ulx xdef newpath tMatrix currentmatrix pop ulx hradius add uly
  vradius add translate hradius vradius scale 0 0 1 180 270 arc 
  tMatrix setmatrix lrx hradius sub uly vradius add translate
  hradius vradius scale 0 0 1 270 360 arc tMatrix setmatrix
  lrx hradius sub lry vradius sub translate hradius vradius scale
  0 0 1 0 90 arc tMatrix setmatrix ulx hradius add lry vradius sub
  translate hradius vradius scale 0 0 1 90 180 arc tMatrix setmatrix
  closepath} bdef
/FRR {MRR stroke } bdef
/PRR {MRR fill } bdef
/MlrRR {/lry xdef /lrx xdef /uly xdef /ulx xdef /rad lry uly sub 2 div def
  newpath tMatrix currentmatrix pop ulx rad add uly rad add translate
  rad rad scale 0 0 1 90 270 arc tMatrix setmatrix lrx rad sub lry rad
  sub translate rad rad scale 0 0 1 270 90 arc tMatrix setmatrix
  closepath} bdef
/FlrRR {MlrRR stroke } bdef
/PlrRR {MlrRR fill } bdef
/MtbRR {/lry xdef /lrx xdef /uly xdef /ulx xdef /rad lrx ulx sub 2 div def
  newpath tMatrix currentmatrix pop ulx rad add uly rad add translate
  rad rad scale 0 0 1 180 360 arc tMatrix setmatrix lrx rad sub lry rad
  sub translate rad rad scale 0 0 1 0 180 arc tMatrix setmatrix
  closepath} bdef
/FtbRR {MtbRR stroke } bdef
/PtbRR {MtbRR fill } bdef
/stri 6 array def /dtri 6 array def
/smat 6 array def /dmat 6 array def
/tmat1 6 array def /tmat2 6 array def /dif 3 array def
/asub {/ind2 exch def /ind1 exch def dup dup
  ind1 get exch ind2 get sub exch } bdef
/tri_to_matrix {
  2 0 asub 3 1 asub 4 0 asub 5 1 asub
  dup 0 get exch 1 get 7 -1 roll astore } bdef
/compute_transform {
  dmat dtri tri_to_matrix tmat1 invertmatrix 
  smat stri tri_to_matrix tmat2 concatmatrix } bdef
/ds {stri astore pop} bdef
/dt {dtri astore pop} bdef
/db {2 copy /cols xdef /rows xdef mul dup 3 mul string
  currentfile exch readhexstring pop
  dup 0 3 index getinterval /rbmap xdef
  dup 2 index dup getinterval /gbmap xdef
  1 index dup 2 mul exch getinterval /bbmap xdef pop pop}bdef
/it {gs np dtri aload pop moveto lineto lineto cp c
  cols rows 8 compute_transform 
  rbmap gbmap bbmap true 3 colorimage gr}bdef
/il {newpath moveto lineto stroke}bdef
currentdict end def
%%EndProlog

%%BeginSetup
MathWorks begin

0 cap

end
%%EndSetup

%%Page: 1 1
%%BeginPageSetup
%%PageBoundingBox:    88    72  1047   364
MathWorks begin
bpage
%%EndPageSetup

%%BeginObject: obj1
bplot

/dpi2point 12 def
portraitMode 0000 4320 csm

 1057   -48 11509  3504 MR c np
85 dict begin %Colortable dictionary
/c0 { 0.000000 0.000000 0.000000 sr} bdef
/c1 { 1.000000 1.000000 1.000000 sr} bdef
/c2 { 0.900000 0.000000 0.000000 sr} bdef
/c3 { 0.000000 0.820000 0.000000 sr} bdef
/c4 { 0.000000 0.000000 0.800000 sr} bdef
/c5 { 0.910000 0.820000 0.320000 sr} bdef
/c6 { 1.000000 0.260000 0.820000 sr} bdef
/c7 { 0.000000 0.820000 0.820000 sr} bdef
c0
1 j
1 sg
   0    0 13825 3457 PR
36 w
0 2585 10714 0 0 -2585 1797 2844 4 MP
PP
-10714 0 0 2585 10714 0 0 -2585 1797 2844 5 MP stroke
24 w
DO
0 sg
2301 2844 mt 2301  259 L
2301  259 mt 2301  259 L
3813 2844 mt 3813  259 L
3813  259 mt 3813  259 L
5326 2844 mt 5326  259 L
5326  259 mt 5326  259 L
6838 2844 mt 6838  259 L
6838  259 mt 6838  259 L
8351 2844 mt 8351  259 L
8351  259 mt 8351  259 L
9864 2844 mt 9864  259 L
9864  259 mt 9864  259 L
11376 2844 mt 11376  259 L
11376  259 mt 11376  259 L
1797 2844 mt 12511 2844 L
12511 2844 mt 12511 2844 L
1797 1982 mt 12511 1982 L
12511 1982 mt 12511 1982 L
1797 1120 mt 12511 1120 L
12511 1120 mt 12511 1120 L
1797  259 mt 12511  259 L
12511  259 mt 12511  259 L
SO
36 w
1797 2844 mt 12511 2844 L
1797  259 mt 12511  259 L
1797 2844 mt 1797  259 L
12511 2844 mt 12511  259 L
1797 2844 mt 12511 2844 L
1797 2844 mt 1797  259 L
2301 2844 mt 2301 2736 L
2301  259 mt 2301  366 L
%%IncludeResource: font Helvetica
/Helvetica /ISOLatin1Encoding 264 FMSR

1773 3123 mt 
(8am Sun) s
3813 2844 mt 3813 2736 L
3813  259 mt 3813  366 L
3263 3123 mt 
(8am Mon) s
5326 2844 mt 5326 2736 L
5326  259 mt 5326  366 L
4828 3123 mt 
(8am Tue) s
6838 2844 mt 6838 2736 L
6838  259 mt 6838  366 L
6283 3123 mt 
(8am Wed) s
8351 2844 mt 8351 2736 L
8351  259 mt 8351  366 L
7837 3123 mt 
(8am Thu) s
9864 2844 mt 9864 2736 L
9864  259 mt 9864  366 L
9421 3123 mt 
(8am Fri) s
11376 2844 mt 11376 2736 L
11376  259 mt 11376  366 L
10885 3123 mt 
(8am Sat) s
1797 2844 mt 1904 2844 L
12511 2844 mt 12403 2844 L
1616 2942 mt 
(0) s
1797 1982 mt 1904 1982 L
12511 1982 mt 12403 1982 L
1469 2080 mt 
(10) s
1797 1120 mt 1904 1120 L
12511 1120 mt 12403 1120 L
1469 1218 mt 
(20) s
1797  259 mt 1904  259 L
12511  259 mt 12403  259 L
1469  357 mt 
(30) s
1797 2844 mt 12511 2844 L
1797  259 mt 12511  259 L
1797 2844 mt 1797  259 L
12511 2844 mt 12511  259 L
gs 1797 259 10715 2586 MR c np
60 w
/c8 { 1.000000 0.000000 0.000000 sr} bdef
c8
63 -41 63 -27 63 -27 63 -33 63 -6 63 40 63 77 63 -58 
63 4 63 -4 63 51 63 8 63 121 63 84 63 121 63 145 
63 64 63 696 63 -720 63 -106 63 -42 63 -54 63 -145 63 -90 
63 -53 63 -11 63 -34 63 -39 63 -51 63 -8 63 -8 63 -70 
63 -12 63 -1 63 -51 63 17 63 44 63 24 63 88 63 246 
64 252 63 200 63 270 63 -338 63 -70 63 -99 63 -64 63 -89 
63 -106 63 -34 63 -83 63 -103 63 -60 63 -40 63 -29 63 -53 
63 4 63 -2 63 -13 63 18 63 101 63 -24 63 85 63 229 
63 276 63 186 63 258 63 -295 63 -48 63 -44 63 -91 63 -118 
63 -22 63 -107 63 -103 63 -123 63 -66 63 -46 63 -20 63 -57 
63 14 63 0 63 -19 64 42 63 34 63 44 63 72 63 251 
63 254 63 370 63 -145 63 -90 63 28 63 -103 63 -69 63 -69 
63 -71 63 -51 63 -93 6145 1793 100 MP stroke
63 -120 63 -102 63 -12 63 -58 63 21 63 -86 63 -25 63 -30 
63 30 63 73 63 -5 63 58 63 176 63 315 63 240 63 43 
63 -36 63 -37 63 -58 63 -79 63 -77 63 -60 63 -103 63 -100 
63 -162 63 -84 64 8 63 36 63 -52 63 10 63 -1 63 -36 
63 22 63 49 63 39 63 -8 63 245 63 285 63 193 63 61 
63 -63 63 -34 63 -55 63 -46 63 -66 63 -101 63 -62 63 -67 
63 -89 63 -76 63 0 63 -5 63 -26 63 -9 63 35 63 28 
63 50 63 116 63 127 63 94 63 108 63 53 63 2 63 -97 
63 -111 63 -32 63 -70 63 -105 1860 1721 69 MP stroke
DA
/c9 { 0.000000 0.000000 1.000000 sr} bdef
c9
63 -66 63 -52 63 -49 63 -46 63 24 63 44 63 24 63 -14 
63 7 63 8 63 65 63 50 63 97 63 91 63 113 63 145 
63 72 63 242 63 -276 63 -94 63 -50 63 -64 63 -114 63 -109 
63 -54 63 -27 63 -54 63 -61 63 -33 63 -4 63 6 63 -65 
63 -3 63 15 63 -19 63 3 63 32 63 40 63 53 63 226 
64 251 63 249 63 38 63 -153 63 -37 63 -42 63 -118 63 -101 
63 -105 63 -49 63 -61 63 -101 63 -57 63 -9 63 22 63 -79 
63 17 63 -7 63 5 63 -2 63 50 63 -9 63 57 63 217 
63 274 63 214 63 75 63 -142 63 -24 63 -47 63 -85 63 -94 
63 -79 63 -64 63 -109 63 -123 63 -63 63 0 63 49 63 -79 
63 6 63 4 63 -10 64 23 63 5 63 -7 63 44 63 236 
63 276 63 260 63 -45 63 -63 63 -15 63 -61 63 -72 63 -114 
63 -79 63 -45 63 -53 6145 1776 100 MP stroke
63 -83 63 -73 63 13 63 -3 63 -48 63 -39 63 -3 63 -17 
63 -1 63 24 63 -1 63 36 63 195 63 291 63 195 63 63 
63 -97 63 -32 63 -42 63 -77 63 -91 63 -75 63 -63 63 -76 
63 -122 63 -104 64 -7 63 30 63 -47 63 -10 63 9 63 -17 
63 22 63 49 63 -4 63 41 63 202 63 246 63 193 63 60 
63 -71 63 -9 63 -54 63 -57 63 -78 63 -95 63 -54 63 -40 
63 -119 63 -74 63 -19 63 3 63 -13 63 -8 63 32 63 48 
63 62 63 126 63 135 63 89 63 106 63 56 63 1 63 -104 
63 -93 63 -56 63 -71 63 -126 1860 1722 69 MP stroke
gr

60 w
c9
DA
0 sg
%%IncludeResource: font Helvetica
/Helvetica /ISOLatin1Encoding 288 FMSR

5696 3390 mt 
(Starting time of the trip) s
1350 3132 mt  -90 rotate
(Speed reference \(mile/h\)) s
90 rotate
%%IncludeResource: font Helvetica
/Helvetica /ISOLatin1Encoding 120 FMSR

1706 2910 mt 
( ) s
12421  324 mt 
( ) s
SO
36 w
1 sg
0 783 3835 0 0 -783 2223 998 4 MP
PP
-3835 0 0 783 3835 0 0 -783 2223 998 5 MP stroke
24 w
DO
SO
36 w
0 sg
2223  998 mt 6058  998 L
2223  215 mt 6058  215 L
2223  998 mt 2223  215 L
6058  998 mt 6058  215 L
2223  998 mt 6058  998 L
2223  998 mt 2223  215 L
2223  998 mt 6058  998 L
2223  215 mt 6058  215 L
2223  998 mt 2223  215 L
6058  998 mt 6058  215 L
%%IncludeResource: font Helvetica
/Helvetica /ISOLatin1Encoding 288 FMSR

2691  524 mt 
(Absolute speed reference) s
gs 2223 215 3836 784 MR c np
60 w
c8
360 0 2294 421 2 MP stroke
gr

60 w
c8
0 sg
2691  894 mt 
(Relative speed reference) s
gs 2223 215 3836 784 MR c np
DA
c9
360 0 2294 791 2 MP stroke
SO
36 w
gr

36 w
c9

end %%Color Dict

eplot
%%EndObject

396 18 moveto
/Helvetica-BoldOblique findfont
[10 0 0 10 0 0] makefont setfont
(Student Version of MATLAB) show

epage
end

showpage

%%Trailer
%%BoundingBox:    88    72  1047   364
%%Pages: 001
%%EOF
