526	174	238	156	3	508	174	121	114	255	144	14	545	49	173	-32	282	-28	-41	542	121	95	-5	-64	163	29	579	-120	219	347	319	
-400	-137	-292	-279	-502	-1530	-122	-426	-271	-467	-458	-610	-1633	-367	-450	-602	-438	-708	-657	-1159	-429	-444	-581	-439	-601	-464	-1137	-270	-413	-506	-926	
49	-76	-159	-211	-90	131	-105	-158	-149	-33	-295	76	260	-82	17	-47	11	-113	401	762	485	-79	-230	-665	-392	142	298	-170	-179	-225	-527	
-830	-436	-1231	-969	-931	-60	-836	-1321	-1514	-2209	-384	-1119	-25	-907	-1807	-2493	-2515	-1400	-1285	-426	-188	-786	-2043	-2896	-918	-1353	-302	-986	-1607	-1948	-2240	
748	422	559	552	605	773	465	510	535	541	557	621	718	458	511	531	540	598	788	742	546	534	515	602	498	765	748	544	530	480	579	
620	-4029	-4394	-5183	-2083	-1637	-5024	-4417	-4686	-5257	-5460	-2417	-2338	-4344	-3848	-3586	-5588	-4792	-2822	-1243	-3643	-6561	-4987	-5306	-5129	-3220	-3096	-4911	-5179	-4900	-5105	
-1369	-191	-344	-732	-715	-742	-526	-639	-822	-948	-1050	-458	-1269	-379	-967	-968	-1222	-864	-880	-1302	-326	-850	-890	-1297	-852	-978	-1548	-591	-778	-1020	-1176	
-1585	355	76	466	-1445	-3008	225	-8	-44	-10	9	-2456	-3416	-110	116	-116	-165	160	-1311	-3151	-266	245	258	-127	-331	-1363	-3290	249	115	-52	-346	
294	399	397	464	673	457	379	301	329	284	385	432	333	281	341	334	278	419	783	566	271	359	427	324	312	665	329	399	366	258	369	
-7	384	500	301	90	708	404	359	132	159	-482	-255	585	435	433	70	152	-408	-99	630	622	789	396	-27	-313	198	916	5	263	367	171	
-898	-1158	-1354	-1823	-622	-557	-1243	-1155	-1188	-1136	-2399	-517	-273	-943	-1586	-972	-1191	-1615	-424	-886	-970	-1368	-1557	-1427	-1979	-630	-451	-1128	-1490	-1436	-1951	
-2280	-2068	-2707	-2833	-4086	-6989	-2461	-2548	-2581	-3582	-3860	-4005	-6561	-2276	-3294	-3139	-3690	-3795	-5085	-7167	-3562	-2314	-2961	-2947	-3413	-3129	-6033	-2219	-2542	-3341	-3224	
-783	-300	-517	-1172	-915	281	-455	-475	-415	-296	-1340	-752	42	-268	-267	-212	-737	-1388	-908	225	18	46	-118	-324	-1545	-1068	214	19	-155	-362	-562	
2192	1340	1627	1706	1779	1817	1562	1644	1782	1780	1895	1851	1967	1591	1644	1653	1795	1868	1914	1967	1477	1750	1786	1787	1783	1931	2062	1606	1593	1691	1914	
-1333	-912	-1365	-1078	-913	-1982	-1525	-1581	-1801	-1580	-1080	-500	-1852	-1458	-1724	-2019	-1809	-1128	-527	-2296	-1637	-1544	-1805	-1586	-578	-939	-2475	-1536	-1683	-2002	-1897	
-4083	-1867	-2208	-2432	-806	-553	-1506	-1981	-2765	-3183	-3583	-1345	-758	1332	160	-2937	-3346	-3174	-806	-898	-1108	-2282	-3032	-3072	-3325	-1349	309	-261	-1675	-2649	-4666	
2766	1997	2278	2467	2761	2780	2041	2191	2259	2483	2561	2868	2863	2091	2296	2352	2613	2622	2786	2927	2130	2522	2355	2541	2398	3104	2975	2208	2227	2419	2845	
-626	-738	-981	-757	-825	-977	-667	-916	-1018	-995	-1344	-691	-961	-993	-1479	-1121	-1066	-1061	-553	-922	-606	-914	-1293	-1309	-1061	-1259	-805	-878	-1114	-907	-1256	
-302	-57	-89	-29	-159	-221	-54	-36	-74	-227	-51	-204	-345	-41	-58	-24	-61	-35	-128	-271	-79	-11	-1	-87	-18	-205	-405	-72	-9	-25	-99	
-2401	-513	-892	-359	-2436	-4666	-300	-426	-770	-621	-271	-2047	-5188	-338	-656	-293	-964	-607	-2840	-5490	-1704	50	-154	-105	-786	-3073	-4816	49	-176	-730	-1027	
-1650	-1102	-1511	-1565	-1566	-2261	-1440	-1711	-2076	-2316	-2021	-1324	-2562	-1725	-2851	-2679	-2841	-2760	-2490	-2935	-1025	-2622	-3055	-3069	-1854	-2867	-3340	-2031	-2436	-2662	-2660	
-3843	1946	1025	2295	-1838	-1814	554	-164	-484	879	6763	-1736	-1429	-318	1616	-360	1924	4440	-2337	-2734	-2095	1310	2170	2549	6853	-409	-2530	-665	788	686	2076	
1768	1241	1566	1504	1414	1597	1407	1433	1537	1672	1715	1376	1677	1461	2226	1429	1605	1580	1540	1779	1094	1516	1605	1613	1716	1507	1745	1535	1475	1611	1651	
147	295	461	744	1034	-190	240	324	421	416	594	706	-300	185	297	300	271	620	1010	-19	176	315	368	545	550	1119	-40	220	299	364	406	
381	164	232	206	94	347	280	229	264	297	354	80	332	312	393	428	368	334	154	260	257	436	444	570	408	278	497	368	363	324	465	
257	-1200	-829	-2369	-1382	1581	-325	-52	-611	668	-3099	-2019	1735	266	1296	772	-50	-2155	-2161	1633	537	220	546	809	-3455	-2293	1634	374	-84	-277	-485	
485	653	684	219	-1	1280	835	538	772	587	469	449	1715	873	553	510	668	359	285	1240	696	871	486	659	131	397	1639	608	581	397	451	
-955	-281	-368	-820	-673	-155	-192	-287	-292	-384	-1194	-868	-515	-162	-371	-52	-425	-999	-958	-618	-166	-270	-174	-214	-1055	-1228	-526	-232	-224	-327	-627	
372	-39	-164	-185	240	570	71	109	288	-64	-647	147	706	54	-652	-192	-77	-474	142	617	326	-272	-205	-314	-569	-91	467	-49	-227	27	-531	
354	192	243	246	286	270	215	188	259	268	265	301	298	215	247	288	286	271	305	318	223	231	262	265	257	332	293	257	235	234	287	
112	96	132	120	163	188	133	147	131	107	151	184	115	122	115	123	141	151	180	193	150	130	135	107	157	211	179	141	147	127	179	
-1446	-681	-1334	-558	-714	-2006	-1248	-1819	-1654	-1878	-30	75	-1251	-2944	-3050	-3270	-2164	-873	308	-2402	-1981	-1955	-1590	-1864	175	-14	-3122	-1011	-1701	-2044	-1561	
-855	-1361	-1684	-1703	-1235	824	-1526	-1588	-1402	-1793	-2000	-993	785	-1444	-4142	-2968	-2517	-3428	-1142	344	-6	-1875	-2916	-3400	-3471	-1212	889	-2195	-2591	-2743	-3561	
-1914	782	-104	81	-941	-1260	112	61	-78	-465	-297	-859	-1570	53	-921	-988	-558	-88	-1185	-1545	-72	158	-586	-446	162	-972	-2416	-422	-585	-786	-160	
-228	8	111	83	23	221	66	155	268	134	-108	334	380	97	-179	206	6	-49	-98	215	222	355	196	145	45	-45	94	129	210	287	85	
-1137	-408	-735	-723	-977	-428	-968	-1053	-1182	-1309	-796	-863	-630	-979	-1349	-1372	-1266	-1489	-1022	-137	-302	-949	-1382	-1554	-1265	-647	-476	-1160	-1268	-1139	-1256	
-1353	-11	-3	-604	-1404	179	573	671	1084	1203	-1060	-1915	723	1241	1209	2394	941	-230	-1957	558	-103	992	989	1458	-1069	-1951	382	1082	708	951	1077	
19207	7117	13136	14774	18094	16524	10787	13780	15702	17020	17447	18439	17097	8962	16008	19052	20809	20239	21120	20083	10917	12172	16627	18565	18371	20081	20559	11114	15997	19511	22969	
