digraph G {
"Turtle Bay" -> "Midtown (North Central)" [label ="1531"];
"Turtle Bay" -> "others" [label ="2285"];
"Chelsea" -> "Theatre District" [label ="2207"];
"Chelsea" -> "Chelsea" [label ="4354"];
"Chelsea" -> "Greenwich Village" [label ="2901"];
"Chelsea" -> "Hell's Kitchen (Clinton)" [label ="3022"];
"Chelsea" -> "Flatiron District" [label ="2012"];
"Chelsea" -> "Midtown (North Central)" [label ="3602"];
"Chelsea" -> "Midtown (South Central)" [label ="2221"];
"Chelsea" -> "others" [label ="3815"];
"Lincoln Square" -> "Midtown (North Central)" [label ="2020"];
"Lincoln Square" -> "Upper West Side" [label ="2384"];
"Greenwich Village" -> "Chelsea" [label ="2930"];
"Greenwich Village" -> "Greenwich Village" [label ="2706"];
"Greenwich Village" -> "Midtown (North Central)" [label ="1724"];
"Greenwich Village" -> "others" [label ="3077"];
"SoHo" -> "others" [label ="1851"];
"Hell's Kitchen (Clinton)" -> "Theatre District" [label ="1567"];
"Hell's Kitchen (Clinton)" -> "Chelsea" [label ="2722"];
"Hell's Kitchen (Clinton)" -> "Hell's Kitchen (Clinton)" [label ="3370"];
"Hell's Kitchen (Clinton)" -> "Midtown (North Central)" [label ="3084"];
"Hell's Kitchen (Clinton)" -> "others" [label ="3166"];
"Lenox Hill" -> "Midtown (North Central)" [label ="3756"];
"Lenox Hill" -> "Yorkville" [label ="4969"];
"Lenox Hill" -> "Lenox Hill" [label ="3530"];
"Lenox Hill" -> "others" [label ="2976"];
"East Village" -> "others" [label ="1801"];
"Flatiron District" -> "Chelsea" [label ="2126"];
"Flatiron District" -> "Greenwich Village" [label ="1508"];
"Flatiron District" -> "Midtown (North Central)" [label ="1535"];
"Flatiron District" -> "others" [label ="2300"];
"Midtown (North Central)" -> "Theatre District" [label ="2086"];
"Midtown (North Central)" -> "Chelsea" [label ="2814"];
"Midtown (North Central)" -> "Lincoln Square" [label ="1609"];
"Midtown (North Central)" -> "Greenwich Village" [label ="1581"];
"Midtown (North Central)" -> "Hell's Kitchen (Clinton)" [label ="2397"];
"Midtown (North Central)" -> "Lenox Hill" [label ="2986"];
"Midtown (North Central)" -> "Flatiron District" [label ="1714"];
"Midtown (North Central)" -> "Midtown (North Central)" [label ="5532"];
"Midtown (North Central)" -> "Midtown (South Central)" [label ="2916"];
"Midtown (North Central)" -> "Yorkville" [label ="3792"];
"Midtown (North Central)" -> "Upper West Side" [label ="1768"];
"Midtown (North Central)" -> "others" [label ="6299"];
"Yorkville" -> "Lenox Hill" [label ="4284"];
"Yorkville" -> "Midtown (North Central)" [label ="4058"];
"Yorkville" -> "Yorkville" [label ="6095"];
"Yorkville" -> "Carnegie Hill" [label ="2081"];
"Yorkville" -> "Upper West Side" [label ="2197"];
"Yorkville" -> "others" [label ="3129"];
"Carnegie Hill" -> "Yorkville" [label ="1869"];
"Theatre District" -> "Chelsea" [label ="1914"];
"Theatre District" -> "Midtown (North Central)" [label ="2583"];
"Theatre District" -> "others" [label ="3596"];
"Midtown (South Central)" -> "Chelsea" [label ="1650"];
"Midtown (South Central)" -> "Midtown (North Central)" [label ="2552"];
"Midtown (South Central)" -> "Midtown (South Central)" [label ="1515"];
"Midtown (South Central)" -> "others" [label ="2959"];
"Upper West Side" -> "Lincoln Square" [label ="2146"];
"Upper West Side" -> "Midtown (North Central)" [label ="1945"];
"Upper West Side" -> "Yorkville" [label ="2126"];
"Upper West Side" -> "Upper West Side" [label ="5853"];
"Upper West Side" -> "others" [label ="1939"];
"others" -> "Theatre District" [label ="2098"];
"others" -> "Chelsea" [label ="2287"];
"others" -> "Greenwich Village" [label ="1609"];
"others" -> "Hell's Kitchen (Clinton)" [label ="1807"];
"others" -> "Midtown (North Central)" [label ="4261"];
"others" -> "Yorkville" [label ="2123"];
"others" -> "Lenox Hill" [label ="1825"];
"others" -> "Midtown (South Central)" [label ="1841"];
"others" -> "Turtle Bay" [label ="1500"];
"others" -> "Upper West Side" [label ="1807"];
"others" -> "others" [label ="17384"];
}