digraph G {
"Turtle Bay" -> "others" [label ="1983"];
"Chelsea" -> "Theatre District" [label ="1843"];
"Chelsea" -> "Chelsea" [label ="3967"];
"Chelsea" -> "Greenwich Village" [label ="2702"];
"Chelsea" -> "Hell's Kitchen (Clinton)" [label ="2587"];
"Chelsea" -> "Flatiron District" [label ="1961"];
"Chelsea" -> "Midtown (North Central)" [label ="3362"];
"Chelsea" -> "Midtown (South Central)" [label ="2038"];
"Chelsea" -> "others" [label ="3662"];
"Lincoln Square" -> "Midtown (North Central)" [label ="1918"];
"Lincoln Square" -> "Upper West Side" [label ="2409"];
"Greenwich Village" -> "Chelsea" [label ="2643"];
"Greenwich Village" -> "Greenwich Village" [label ="2514"];
"Greenwich Village" -> "Midtown (North Central)" [label ="1542"];
"Greenwich Village" -> "others" [label ="2842"];
"SoHo" -> "others" [label ="1716"];
"Hell's Kitchen (Clinton)" -> "Chelsea" [label ="2256"];
"Hell's Kitchen (Clinton)" -> "Hell's Kitchen (Clinton)" [label ="2648"];
"Hell's Kitchen (Clinton)" -> "Midtown (North Central)" [label ="2821"];
"Hell's Kitchen (Clinton)" -> "others" [label ="2841"];
"Lenox Hill" -> "Midtown (North Central)" [label ="3401"];
"Lenox Hill" -> "Yorkville" [label ="4893"];
"Lenox Hill" -> "Lenox Hill" [label ="3230"];
"Lenox Hill" -> "others" [label ="2651"];
"East Village" -> "others" [label ="1728"];
"Flatiron District" -> "Chelsea" [label ="1870"];
"Flatiron District" -> "others" [label ="2048"];
"Midtown (North Central)" -> "Chelsea" [label ="2746"];
"Midtown (North Central)" -> "Lincoln Square" [label ="1598"];
"Midtown (North Central)" -> "Greenwich Village" [label ="1603"];
"Midtown (North Central)" -> "Hell's Kitchen (Clinton)" [label ="2167"];
"Midtown (North Central)" -> "Flatiron District" [label ="1735"];
"Midtown (North Central)" -> "Midtown (North Central)" [label ="5392"];
"Midtown (North Central)" -> "Theatre District" [label ="2110"];
"Midtown (North Central)" -> "Yorkville" [label ="4030"];
"Midtown (North Central)" -> "Lenox Hill" [label ="3037"];
"Midtown (North Central)" -> "Midtown (South Central)" [label ="2825"];
"Midtown (North Central)" -> "Upper West Side" [label ="1893"];
"Midtown (North Central)" -> "others" [label ="5742"];
"Yorkville" -> "Midtown (North Central)" [label ="4214"];
"Yorkville" -> "Yorkville" [label ="6081"];
"Yorkville" -> "Carnegie Hill" [label ="2212"];
"Yorkville" -> "Lenox Hill" [label ="4509"];
"Yorkville" -> "Upper West Side" [label ="2312"];
"Yorkville" -> "others" [label ="3049"];
"Carnegie Hill" -> "Yorkville" [label ="1888"];
"Theatre District" -> "Chelsea" [label ="1719"];
"Theatre District" -> "Midtown (North Central)" [label ="2310"];
"Theatre District" -> "others" [label ="3026"];
"Midtown (South Central)" -> "Chelsea" [label ="1518"];
"Midtown (South Central)" -> "Midtown (North Central)" [label ="2421"];
"Midtown (South Central)" -> "others" [label ="2571"];
"Upper West Side" -> "Lincoln Square" [label ="2231"];
"Upper West Side" -> "Midtown (North Central)" [label ="1917"];
"Upper West Side" -> "Yorkville" [label ="2215"];
"Upper West Side" -> "Upper West Side" [label ="6005"];
"Upper West Side" -> "others" [label ="1988"];
"others" -> "Theatre District" [label ="1991"];
"others" -> "Chelsea" [label ="2213"];
"others" -> "Greenwich Village" [label ="1578"];
"others" -> "Hell's Kitchen (Clinton)" [label ="1678"];
"others" -> "Lenox Hill" [label ="1815"];
"others" -> "Midtown (North Central)" [label ="4306"];
"others" -> "Yorkville" [label ="2167"];
"others" -> "Midtown (South Central)" [label ="1808"];
"others" -> "Upper West Side" [label ="1889"];
"others" -> "others" [label ="17028"];
}