digraph G {
"Forest Hills" -> "North Bellerose" [label ="1"];
"Forest Hills" -> "Forest Hills" [label ="59"];
"Forest Hills" -> "Queens Village" [label ="2"];
"Forest Hills" -> "Jamaica Center" [label ="3"];
"Forest Hills" -> "Glen Oaks" [label ="1"];
"Forest Hills" -> "Fresh Pond" [label ="1"];
"Forest Hills" -> "Middle Village" [label ="4"];
"Forest Hills" -> "Bay Terrace" [label ="2"];
"Forest Hills" -> "Bellerose Manor" [label ="1"];
"Forest Hills" -> "Elmhurst" [label ="10"];
"Forest Hills" -> "Flushing (Downtown)" [label ="1"];
"Forest Hills" -> "Cobble Hill" [label ="1"];
"Forest Hills" -> "Kew Gardens Hills" [label ="19"];
"Forest Hills" -> "North Corona" [label ="4"];
"Forest Hills" -> "Morris Park" [label ="1"];
"Forest Hills" -> "College Point" [label ="2"];
"Forest Hills" -> "South Williamsburg" [label ="1"];
"Forest Hills" -> "Rego Park Crescents" [label ="1"];
"Forest Hills" -> "Clearview" [label ="1"];
"Forest Hills" -> "South Richmond Hill" [label ="1"];
"Forest Hills" -> "Jamaica Estates" [label ="2"];
"Forest Hills" -> "South Ozone Park" [label ="1"];
"Forest Hills" -> "Ozone Park" [label ="1"];
"Forest Hills" -> "Hillcrest" [label ="8"];
"Forest Hills" -> "Bedford-Stuyvesant" [label ="1"];
"Forest Hills" -> "Rego Park" [label ="18"];
"Forest Hills" -> "Fresh Meadows" [label ="2"];
"Forest Hills" -> "Southside (Williamsburg)" [label ="2"];
"Forest Hills" -> "East New York" [label ="1"];
"Forest Hills" -> "Bellerose (NYC)" [label ="1"];
"Forest Hills" -> "East Flatbush" [label ="1"];
"Forest Hills" -> "Glendale" [label ="5"];
"Forest Hills" -> "Utopia" [label ="1"];
"Forest Hills" -> "City Line" [label ="1"];
"Forest Hills" -> "Lindenwood" [label ="2"];
"Forest Hills" -> "Washington Heights" [label ="1"];
"Forest Hills" -> "Flushing" [label ="23"];
"Forest Hills" -> "Kew Gardens" [label ="2"];
"Forest Hills" -> "Corona" [label ="7"];
"Forest Hills" -> "East Williamsburg" [label ="2"];
"Forest Hills" -> "Briarwood" [label ="7"];
"Forest Hills" -> "Bushwick" [label ="1"];
"Forest Hills" -> "others" [label ="76"];
"Forest Hills" -> "Maspeth" [label ="2"];
"Jamaica Center" -> "Williamsburg" [label ="1"];
"Jamaica Center" -> "Forest Hills" [label ="3"];
"Jamaica Center" -> "Rochdale" [label ="1"];
"Jamaica Center" -> "South Jamaica" [label ="1"];
"Jamaica Center" -> "Woodhaven" [label ="2"];
"Jamaica Center" -> "Ozone Park" [label ="1"];
"Jamaica Center" -> "Bedford-Stuyvesant" [label ="1"];
"Jamaica Center" -> "Jamaica Center" [label ="13"];
"Jamaica Center" -> "Rego Park" [label ="2"];
"Jamaica Center" -> "Fresh Meadows" [label ="1"];
"Jamaica Center" -> "Hollis Hills" [label ="1"];
"Jamaica Center" -> "Jamaica Hills" [label ="1"];
"Jamaica Center" -> "Laurelton" [label ="1"];
"Jamaica Center" -> "Richmond Hill" [label ="1"];
"Jamaica Center" -> "Corona" [label ="2"];
"Jamaica Center" -> "Hollis" [label ="1"];
"Jamaica Center" -> "Kew Gardens Hills" [label ="1"];
"Jamaica Center" -> "New Lots" [label ="1"];
"Jamaica Center" -> "South Richmond Hill" [label ="1"];
"Jamaica Center" -> "others" [label ="35"];
"Glen Oaks" -> "Glen Oaks" [label ="1"];
"Auburndale" -> "Middle Village" [label ="1"];
"Auburndale" -> "Fresh Meadows" [label ="1"];
"Auburndale" -> "Bayside" [label ="1"];
"Auburndale" -> "Flushing (Downtown)" [label ="1"];
"Middle Village" -> "Woodhaven" [label ="1"];
"Middle Village" -> "Saint Albans" [label ="1"];
"Middle Village" -> "Middle Village" [label ="4"];
"Middle Village" -> "Fresh Meadows" [label ="1"];
"Middle Village" -> "Ridgewood" [label ="1"];
"Middle Village" -> "others" [label ="13"];
"Middle Village" -> "Ozone Park" [label ="1"];
"Jamaica Hills" -> "Jamaica Estates" [label ="1"];
"Jamaica Hills" -> "Elmhurst" [label ="1"];
"Jamaica Hills" -> "others" [label ="1"];
"Greenwood Heights" -> "Greenwood Heights" [label ="8"];
"Greenwood Heights" -> "Bensonhurst" [label ="1"];
"Greenwood Heights" -> "Elmhurst" [label ="1"];
"Greenwood Heights" -> "Cobble Hill" [label ="1"];
"Greenwood Heights" -> "Prospect Park South" [label ="2"];
"Greenwood Heights" -> "Inwood" [label ="1"];
"Greenwood Heights" -> "Homecrest" [label ="1"];
"Greenwood Heights" -> "Gowanus" [label ="3"];
"Greenwood Heights" -> "Fort Greene" [label ="6"];
"Greenwood Heights" -> "Washington Heights" [label ="1"];
"Greenwood Heights" -> "Flatbush" [label ="4"];
"Greenwood Heights" -> "Weeksville" [label ="1"];
"Greenwood Heights" -> "Borough Park" [label ="1"];
"Greenwood Heights" -> "Park Slope" [label ="25"];
"Greenwood Heights" -> "Bedford-Stuyvesant" [label ="5"];
"Greenwood Heights" -> "Southside (Williamsburg)" [label ="6"];
"Greenwood Heights" -> "Crown Heights" [label ="4"];
"Greenwood Heights" -> "Kensington & Parkville" [label ="1"];
"Greenwood Heights" -> "East Flatbush" [label ="2"];
"Greenwood Heights" -> "South Park Slope" [label ="2"];
"Greenwood Heights" -> "Williamsburg" [label ="4"];
"Greenwood Heights" -> "Morris Park" [label ="1"];
"Greenwood Heights" -> "Spring Creek" [label ="1"];
"Greenwood Heights" -> "Clinton Hill" [label ="2"];
"Greenwood Heights" -> "Ridgewood" [label ="1"];
"Greenwood Heights" -> "Prospect Heights" [label ="3"];
"Greenwood Heights" -> "Midwood" [label ="2"];
"Greenwood Heights" -> "East Williamsburg" [label ="6"];
"Greenwood Heights" -> "Bushwick" [label ="1"];
"Greenwood Heights" -> "others" [label ="60"];
"Greenwood Heights" -> "Boerum Hill" [label ="1"];
"Kingsbridge" -> "Norwood" [label ="1"];
"Kingsbridge" -> "Spuyten Duyvil" [label ="1"];
"Kingsbridge" -> "Kingsbridge Heights" [label ="2"];
"Kingsbridge" -> "Fordham" [label ="1"];
"Kingsbridge" -> "Washington Heights" [label ="5"];
"Kingsbridge" -> "Bedford Park" [label ="1"];
"Kingsbridge" -> "Marble Hill (Manhattan, NYC)" [label ="1"];
"Kingsbridge" -> "Inwood" [label ="5"];
"Kingsbridge" -> "Kingsbridge" [label ="2"];
"Kingsbridge" -> "others" [label ="8"];
"Clinton Hill" -> "Brownsville" [label ="2"];
"Clinton Hill" -> "Greenwood Heights" [label ="4"];
"Clinton Hill" -> "Carroll Gardens" [label ="7"];
"Clinton Hill" -> "Clinton Hill" [label ="23"];
"Clinton Hill" -> "Remsen Village" [label ="1"];
"Clinton Hill" -> "Cobble Hill" [label ="3"];
"Clinton Hill" -> "Downtown Brooklyn" [label ="9"];
"Clinton Hill" -> "Prospect Park South" [label ="1"];
"Clinton Hill" -> "Gowanus" [label ="9"];
"Clinton Hill" -> "Fort Greene" [label ="19"];
"Clinton Hill" -> "Washington Heights" [label ="1"];
"Clinton Hill" -> "Flatbush" [label ="9"];
"Clinton Hill" -> "Flatlands" [label ="1"];
"Clinton Hill" -> "Weeksville" [label ="1"];
"Clinton Hill" -> "Borough Park" [label ="1"];
"Clinton Hill" -> "Park Slope" [label ="21"];
"Clinton Hill" -> "Williamsburg" [label ="8"];
"Clinton Hill" -> "Bedford-Stuyvesant" [label ="33"];
"Clinton Hill" -> "Southside (Williamsburg)" [label ="18"];
"Clinton Hill" -> "Cypress Hills" [label ="1"];
"Clinton Hill" -> "Kensington & Parkville" [label ="1"];
"Clinton Hill" -> "South Park Slope" [label ="2"];
"Clinton Hill" -> "Crown Heights" [label ="14"];
"Clinton Hill" -> "Canarsie" [label ="1"];
"Clinton Hill" -> "City Line" [label ="1"];
"Clinton Hill" -> "Windsor Terrace" [label ="1"];
"Clinton Hill" -> "Arverne" [label ="1"];
"Clinton Hill" -> "Prospect Heights" [label ="4"];
"Clinton Hill" -> "South Williamsburg" [label ="2"];
"Clinton Hill" -> "Midwood" [label ="1"];
"Clinton Hill" -> "Corona" [label ="1"];
"Clinton Hill" -> "East Williamsburg" [label ="11"];
"Clinton Hill" -> "Bushwick" [label ="13"];
"Clinton Hill" -> "others" [label ="172"];
"Clinton Hill" -> "Boerum Hill" [label ="5"];
"Bergen Beach" -> "Mill Basin" [label ="1"];
"Flushing (Downtown)" -> "College Point" [label ="9"];
"Flushing (Downtown)" -> "Forest Hills" [label ="2"];
"Flushing (Downtown)" -> "Parkchester" [label ="1"];
"Flushing (Downtown)" -> "Fordham" [label ="1"];
"Flushing (Downtown)" -> "Ozone Park" [label ="1"];
"Flushing (Downtown)" -> "Fresh Pond" [label ="1"];
"Flushing (Downtown)" -> "Flushing (Downtown)" [label ="11"];
"Flushing (Downtown)" -> "Middle Village" [label ="1"];
"Flushing (Downtown)" -> "Fresh Meadows" [label ="1"];
"Flushing (Downtown)" -> "Flushing" [label ="16"];
"Flushing (Downtown)" -> "Elmhurst" [label ="1"];
"Flushing (Downtown)" -> "Bayside" [label ="1"];
"Flushing (Downtown)" -> "Linden Hill" [label ="1"];
"Flushing (Downtown)" -> "Bedford-Stuyvesant" [label ="1"];
"Flushing (Downtown)" -> "Corona" [label ="7"];
"Flushing (Downtown)" -> "Kew Gardens Hills" [label ="1"];
"Flushing (Downtown)" -> "North Corona" [label ="1"];
"Flushing (Downtown)" -> "others" [label ="24"];
"Kingsbridge Heights" -> "Kingsbridge" [label ="2"];
"Kingsbridge Heights" -> "Washington Heights" [label ="1"];
"Kingsbridge Heights" -> "Bedford Park" [label ="1"];
"Kingsbridge Heights" -> "Highbridge" [label ="1"];
"Kingsbridge Heights" -> "Mount Eden" [label ="1"];
"Kingsbridge Heights" -> "Kingsbridge Heights" [label ="1"];
"Kingsbridge Heights" -> "Mount Hope" [label ="2"];
"Kingsbridge Heights" -> "others" [label ="1"];
"Kew Gardens Hills" -> "College Point" [label ="1"];
"Kew Gardens Hills" -> "Forest Hills" [label ="1"];
"Kew Gardens Hills" -> "Jamaica Center" [label ="2"];
"Kew Gardens Hills" -> "Flushing (Downtown)" [label ="1"];
"Kew Gardens Hills" -> "Corona" [label ="2"];
"Kew Gardens Hills" -> "Kew Gardens Hills" [label ="2"];
"Kew Gardens Hills" -> "others" [label ="4"];
"City Line" -> "City Line" [label ="2"];
"City Line" -> "East Williamsburg" [label ="1"];
"City Line" -> "East New York" [label ="1"];
"City Line" -> "others" [label ="3"];
"Prospect Park South" -> "Park Slope" [label ="1"];
"Prospect Park South" -> "Williamsburg" [label ="1"];
"Prospect Park South" -> "Windsor Terrace" [label ="3"];
"Prospect Park South" -> "Greenwood Heights" [label ="1"];
"Prospect Park South" -> "Flatbush" [label ="4"];
"Prospect Park South" -> "Crown Heights" [label ="1"];
"Prospect Park South" -> "Borough Park" [label ="1"];
"Prospect Park South" -> "Ridgewood" [label ="1"];
"Prospect Park South" -> "East Flatbush" [label ="1"];
"Prospect Park South" -> "others" [label ="9"];
"Prospect Park South" -> "Prospect Park South" [label ="5"];
"College Point" -> "College Point" [label ="1"];
"College Point" -> "Kew Gardens Hills" [label ="1"];
"College Point" -> "North Corona" [label ="1"];
"College Point" -> "others" [label ="4"];
"College Point" -> "Flushing (Downtown)" [label ="1"];
"Willets Point" -> "Willets Point" [label ="1"];
"Willets Point" -> "others" [label ="1"];
"Willets Point" -> "Greenwood Heights" [label ="1"];
"South Jamaica" -> "Morris Park" [label ="1"];
"South Jamaica" -> "Rochdale" [label ="1"];
"South Jamaica" -> "South Jamaica" [label ="7"];
"South Jamaica" -> "Saint Albans" [label ="1"];
"South Jamaica" -> "Canarsie" [label ="1"];
"South Jamaica" -> "Jamaica Center" [label ="1"];
"South Jamaica" -> "Ozone Park" [label ="1"];
"South Jamaica" -> "others" [label ="26"];
"Saint Albans" -> "South Ozone Park" [label ="1"];
"Saint Albans" -> "others" [label ="1"];
"Saint Albans" -> "South Jamaica" [label ="1"];
"Washington Heights" -> "Boerum Hill" [label ="1"];
"Washington Heights" -> "Soundview" [label ="2"];
"Washington Heights" -> "Forest Hills" [label ="1"];
"Washington Heights" -> "Kingsbridge Heights" [label ="3"];
"Washington Heights" -> "Riverdale" [label ="2"];
"Washington Heights" -> "Pelham Bay" [label ="2"];
"Washington Heights" -> "Bedford Park" [label ="2"];
"Washington Heights" -> "Westchester Heights" [label ="1"];
"Washington Heights" -> "Elmhurst" [label ="6"];
"Washington Heights" -> "Flushing (Downtown)" [label ="1"];
"Washington Heights" -> "Downtown Brooklyn" [label ="1"];
"Washington Heights" -> "Wakefield" [label ="2"];
"Washington Heights" -> "North Corona" [label ="2"];
"Washington Heights" -> "Prospect Park South" [label ="1"];
"Washington Heights" -> "Fordham" [label ="1"];
"Washington Heights" -> "Washington Heights" [label ="324"];
"Washington Heights" -> "Crotona" [label ="2"];
"Washington Heights" -> "Flatbush" [label ="1"];
"Washington Heights" -> "Melrose" [label ="5"];
"Washington Heights" -> "Fort Greene" [label ="1"];
"Washington Heights" -> "Woodlawn" [label ="2"];
"Washington Heights" -> "Glendale" [label ="1"];
"Washington Heights" -> "Ozone Park" [label ="1"];
"Washington Heights" -> "Park Slope" [label ="2"];
"Washington Heights" -> "Spuyten Duyvil" [label ="1"];
"Washington Heights" -> "Belmont" [label ="1"];
"Washington Heights" -> "Bedford-Stuyvesant" [label ="1"];
"Washington Heights" -> "Morris Heights" [label ="3"];
"Washington Heights" -> "Highbridge" [label ="6"];
"Washington Heights" -> "Rego Park" [label ="1"];
"Washington Heights" -> "Southside (Williamsburg)" [label ="1"];
"Washington Heights" -> "Cypress Hills" [label ="1"];
"Washington Heights" -> "West Farms" [label ="2"];
"Washington Heights" -> "Kingsbridge" [label ="3"];
"Washington Heights" -> "Mount Hope" [label ="2"];
"Washington Heights" -> "University Heights" [label ="9"];
"Washington Heights" -> "Longwood" [label ="2"];
"Washington Heights" -> "Vinegar Hill" [label ="1"];
"Washington Heights" -> "Parkchester" [label ="3"];
"Washington Heights" -> "Morris Park" [label ="1"];
"Washington Heights" -> "Bronxdale" [label ="1"];
"Washington Heights" -> "Marble Hill (Manhattan, NYC)" [label ="2"];
"Washington Heights" -> "Windsor Terrace" [label ="1"];
"Washington Heights" -> "Mount Eden" [label ="6"];
"Washington Heights" -> "Ridgewood" [label ="1"];
"Washington Heights" -> "Inwood" [label ="40"];
"Washington Heights" -> "Concourse & Concourse Village" [label ="8"];
"Washington Heights" -> "Eastchester" [label ="1"];
"Washington Heights" -> "East Tremont" [label ="1"];
"Washington Heights" -> "Corona" [label ="2"];
"Washington Heights" -> "East Williamsburg" [label ="1"];
"Washington Heights" -> "Morrisania" [label ="3"];
"Washington Heights" -> "Foxhurst (East Morrisania)" [label ="1"];
"Washington Heights" -> "Bushwick" [label ="1"];
"Washington Heights" -> "others" [label ="792"];
"Washington Heights" -> "Clinton Hill" [label ="1"];
"Mapleton" -> "Gravesend" [label ="1"];
"Mapleton" -> "Mapleton" [label ="11"];
"Mapleton" -> "others" [label ="1"];
"Mapleton" -> "Fordham" [label ="1"];
"Woodlawn" -> "others" [label ="2"];
"New Lots" -> "Brownsville" [label ="1"];
"New Lots" -> "New Lots" [label ="2"];
"New Lots" -> "East New York" [label ="2"];
"New Lots" -> "others" [label ="1"];
"Ozone Park" -> "Glendale" [label ="1"];
"Ozone Park" -> "South Jamaica" [label ="1"];
"Ozone Park" -> "South Ozone Park" [label ="1"];
"Ozone Park" -> "Rego Park" [label ="2"];
"Ozone Park" -> "others" [label ="5"];
"Ozone Park" -> "Richmond Hill" [label ="2"];
"Ozone Park" -> "New Lots" [label ="1"];
"Ozone Park" -> "Ozone Park" [label ="6"];
"Norwood" -> "Norwood" [label ="5"];
"Norwood" -> "Kingsbridge" [label ="1"];
"Norwood" -> "Bedford Park" [label ="1"];
"Norwood" -> "Mount Eden" [label ="1"];
"Norwood" -> "Williamsbridge" [label ="1"];
"Norwood" -> "Bronxwood" [label ="1"];
"Norwood" -> "Belmont" [label ="1"];
"Norwood" -> "others" [label ="6"];
"Belmont" -> "Belmont" [label ="1"];
"Belmont" -> "East Tremont" [label ="1"];
"Belmont" -> "others" [label ="1"];
"Belmont" -> "Norwood" [label ="1"];
"Morris Heights" -> "Washington Heights" [label ="4"];
"Morris Heights" -> "Bedford Park" [label ="1"];
"Morris Heights" -> "South Williamsburg" [label ="1"];
"Morris Heights" -> "Highbridge" [label ="1"];
"Morris Heights" -> "Castle Hill" [label ="1"];
"Morris Heights" -> "Mount Eden" [label ="1"];
"Morris Heights" -> "Williamsbridge" [label ="1"];
"Morris Heights" -> "Concourse & Concourse Village" [label ="2"];
"Morris Heights" -> "Crotona" [label ="2"];
"Morris Heights" -> "Mount Hope" [label ="8"];
"Morris Heights" -> "others" [label ="6"];
"Morris Heights" -> "Morris Heights" [label ="14"];
"Schuylerville" -> "Washington Heights" [label ="1"];
"Schuylerville" -> "Co-Op City" [label ="1"];
"Schuylerville" -> "Throggs Neck" [label ="1"];
"Schuylerville" -> "Pelham Bay" [label ="1"];
"Fresh Meadows" -> "Auburndale" [label ="1"];
"Southside (Williamsburg)" -> "Forest Hills" [label ="4"];
"Southside (Williamsburg)" -> "Northside (Williamsburg)" [label ="2"];
"Southside (Williamsburg)" -> "Flatlands" [label ="1"];
"Southside (Williamsburg)" -> "Fresh Pond" [label ="3"];
"Southside (Williamsburg)" -> "Middle Village" [label ="4"];
"Southside (Williamsburg)" -> "Stuyvesant Heights" [label ="1"];
"Southside (Williamsburg)" -> "Greenwood Heights" [label ="8"];
"Southside (Williamsburg)" -> "Bensonhurst" [label ="2"];
"Southside (Williamsburg)" -> "Carroll Gardens" [label ="12"];
"Southside (Williamsburg)" -> "Boerum Hill" [label ="13"];
"Southside (Williamsburg)" -> "Ditmas Park West" [label ="2"];
"Southside (Williamsburg)" -> "Cobble Hill" [label ="14"];
"Southside (Williamsburg)" -> "Downtown Brooklyn" [label ="13"];
"Southside (Williamsburg)" -> "Prospect Park South" [label ="4"];
"Southside (Williamsburg)" -> "Elmhurst" [label ="1"];
"Southside (Williamsburg)" -> "Inwood" [label ="1"];
"Southside (Williamsburg)" -> "Gowanus" [label ="15"];
"Southside (Williamsburg)" -> "Fort Greene" [label ="27"];
"Southside (Williamsburg)" -> "Concourse & Concourse Village" [label ="1"];
"Southside (Williamsburg)" -> "Flatbush" [label ="11"];
"Southside (Williamsburg)" -> "Sheepshead Bay" [label ="1"];
"Southside (Williamsburg)" -> "Bath Beach" [label ="1"];
"Southside (Williamsburg)" -> "Melrose" [label ="1"];
"Southside (Williamsburg)" -> "Weeksville" [label ="3"];
"Southside (Williamsburg)" -> "South Williamsburg" [label ="10"];
"Southside (Williamsburg)" -> "South Ozone Park" [label ="1"];
"Southside (Williamsburg)" -> "Borough Park" [label ="1"];
"Southside (Williamsburg)" -> "Park Slope" [label ="51"];
"Southside (Williamsburg)" -> "Spuyten Duyvil" [label ="1"];
"Southside (Williamsburg)" -> "RAMBO" [label ="8"];
"Southside (Williamsburg)" -> "Vinegar Hill" [label ="4"];
"Southside (Williamsburg)" -> "Bedford-Stuyvesant" [label ="101"];
"Southside (Williamsburg)" -> "Highbridge" [label ="1"];
"Southside (Williamsburg)" -> "Rego Park" [label ="1"];
"Southside (Williamsburg)" -> "Mapleton" [label ="1"];
"Southside (Williamsburg)" -> "Southside (Williamsburg)" [label ="146"];
"Southside (Williamsburg)" -> "Crown Heights" [label ="38"];
"Southside (Williamsburg)" -> "Kensington & Parkville" [label ="5"];
"Southside (Williamsburg)" -> "East Flatbush" [label ="1"];
"Southside (Williamsburg)" -> "South Park Slope" [label ="8"];
"Southside (Williamsburg)" -> "Williamsburg" [label ="103"];
"Southside (Williamsburg)" -> "Throggs Neck" [label ="1"];
"Southside (Williamsburg)" -> "Windsor Terrace" [label ="4"];
"Southside (Williamsburg)" -> "Lindenwood" [label ="1"];
"Southside (Williamsburg)" -> "Ridgewood" [label ="4"];
"Southside (Williamsburg)" -> "Prospect Heights" [label ="10"];
"Southside (Williamsburg)" -> "Washington Heights" [label ="6"];
"Southside (Williamsburg)" -> "Corona" [label ="1"];
"Southside (Williamsburg)" -> "East Williamsburg" [label ="163"];
"Southside (Williamsburg)" -> "Maspeth" [label ="7"];
"Southside (Williamsburg)" -> "Bushwick" [label ="86"];
"Southside (Williamsburg)" -> "others" [label ="1208"];
"Southside (Williamsburg)" -> "Clinton Hill" [label ="35"];
"Cypress Hills" -> "Crown Heights" [label ="1"];
"Cypress Hills" -> "Forest Hills" [label ="1"];
"Cypress Hills" -> "Rosedale" [label ="1"];
"Cypress Hills" -> "Cypress Hills" [label ="1"];
"Cypress Hills" -> "East New York" [label ="1"];
"East New York" -> "Forest Hills" [label ="1"];
"East New York" -> "Queens Village" [label ="1"];
"East New York" -> "Ocean Hill" [label ="2"];
"East New York" -> "Canarsie" [label ="1"];
"East New York" -> "Bedford-Stuyvesant" [label ="2"];
"East New York" -> "Ozone Park" [label ="1"];
"East New York" -> "Remsen Village" [label ="1"];
"East New York" -> "Bensonhurst" [label ="1"];
"East New York" -> "City Line" [label ="1"];
"East New York" -> "East New York" [label ="2"];
"East New York" -> "Brownsville" [label ="1"];
"East New York" -> "South Ozone Park" [label ="1"];
"East New York" -> "Ridgewood" [label ="1"];
"East New York" -> "New Lots" [label ="2"];
"East New York" -> "Bushwick" [label ="1"];
"East New York" -> "others" [label ="6"];
"Prospect Heights" -> "Forest Hills" [label ="3"];
"Prospect Heights" -> "Bergen Beach" [label ="1"];
"Prospect Heights" -> "Bedford Park" [label ="1"];
"Prospect Heights" -> "Jamaica Hills" [label ="1"];
"Prospect Heights" -> "Greenwood Heights" [label ="1"];
"Prospect Heights" -> "Carroll Gardens" [label ="9"];
"Prospect Heights" -> "Clinton Hill" [label ="23"];
"Prospect Heights" -> "Ditmas Park West" [label ="1"];
"Prospect Heights" -> "Cobble Hill" [label ="7"];
"Prospect Heights" -> "Downtown Brooklyn" [label ="11"];
"Prospect Heights" -> "Prospect Park South" [label ="6"];
"Prospect Heights" -> "Elmhurst" [label ="2"];
"Prospect Heights" -> "Inwood" [label ="2"];
"Prospect Heights" -> "Gowanus" [label ="14"];
"Prospect Heights" -> "Windsor Terrace" [label ="3"];
"Prospect Heights" -> "Flatbush" [label ="10"];
"Prospect Heights" -> "South Park Slope" [label ="2"];
"Prospect Heights" -> "Borough Park" [label ="1"];
"Prospect Heights" -> "Park Slope" [label ="27"];
"Prospect Heights" -> "RAMBO" [label ="3"];
"Prospect Heights" -> "Vinegar Hill" [label ="2"];
"Prospect Heights" -> "Bedford-Stuyvesant" [label ="29"];
"Prospect Heights" -> "Crown Heights" [label ="17"];
"Prospect Heights" -> "Coney Island" [label ="1"];
"Prospect Heights" -> "East New York" [label ="1"];
"Prospect Heights" -> "Kensington & Parkville" [label ="3"];
"Prospect Heights" -> "East Flatbush" [label ="1"];
"Prospect Heights" -> "Williamsburg" [label ="9"];
"Prospect Heights" -> "Southside (Williamsburg)" [label ="12"];
"Prospect Heights" -> "Gravesend" [label ="1"];
"Prospect Heights" -> "South Jamaica" [label ="1"];
"Prospect Heights" -> "Fort Greene" [label ="28"];
"Prospect Heights" -> "Prospect Heights" [label ="15"];
"Prospect Heights" -> "Flushing" [label ="1"];
"Prospect Heights" -> "Dyker Heights" [label ="1"];
"Prospect Heights" -> "Midwood" [label ="1"];
"Prospect Heights" -> "East Williamsburg" [label ="23"];
"Prospect Heights" -> "Maspeth" [label ="1"];
"Prospect Heights" -> "Bushwick" [label ="7"];
"Prospect Heights" -> "others" [label ="325"];
"Prospect Heights" -> "Boerum Hill" [label ="3"];
"Plumb Beach" -> "Plumb Beach" [label ="2"];
"Plumb Beach" -> "Brighton Beach" [label ="1"];
"Plumb Beach" -> "Howard Beach" [label ="1"];
"Mount Hope" -> "Soundview" [label ="2"];
"Mount Hope" -> "East Tremont" [label ="1"];
"Mount Hope" -> "Riverdale" [label ="1"];
"Mount Hope" -> "Washington Heights" [label ="1"];
"Mount Hope" -> "Bedford Park" [label ="1"];
"Mount Hope" -> "Highbridge" [label ="1"];
"Mount Hope" -> "Mount Eden" [label ="2"];
"Mount Hope" -> "Mount Hope" [label ="7"];
"Mount Hope" -> "others" [label ="9"];
"Mount Hope" -> "Morris Heights" [label ="4"];
"South Park Slope" -> "Boerum Hill" [label ="1"];
"South Park Slope" -> "Forest Hills" [label ="1"];
"South Park Slope" -> "Greenwood Heights" [label ="4"];
"South Park Slope" -> "Bensonhurst" [label ="2"];
"South Park Slope" -> "Clinton Hill" [label ="1"];
"South Park Slope" -> "Downtown Brooklyn" [label ="2"];
"South Park Slope" -> "Prospect Park South" [label ="4"];
"South Park Slope" -> "Gowanus" [label ="1"];
"South Park Slope" -> "Windsor Terrace" [label ="2"];
"South Park Slope" -> "Brighton Beach" [label ="1"];
"South Park Slope" -> "Flatbush" [label ="4"];
"South Park Slope" -> "Bath Beach" [label ="1"];
"South Park Slope" -> "Park Slope" [label ="11"];
"South Park Slope" -> "Bedford-Stuyvesant" [label ="3"];
"South Park Slope" -> "Southside (Williamsburg)" [label ="1"];
"South Park Slope" -> "Crown Heights" [label ="4"];
"South Park Slope" -> "Kensington & Parkville" [label ="2"];
"South Park Slope" -> "South Park Slope" [label ="7"];
"South Park Slope" -> "Williamsburg" [label ="3"];
"South Park Slope" -> "Glendale" [label ="2"];
"South Park Slope" -> "Prospect Heights" [label ="3"];
"South Park Slope" -> "Marine Park" [label ="1"];
"South Park Slope" -> "Midwood" [label ="1"];
"South Park Slope" -> "East Williamsburg" [label ="2"];
"South Park Slope" -> "Bushwick" [label ="2"];
"South Park Slope" -> "others" [label ="44"];
"South Park Slope" -> "Maspeth" [label ="1"];
"Longwood" -> "Soundview" [label ="1"];
"Longwood" -> "Hunts Point" [label ="1"];
"Longwood" -> "Washington Heights" [label ="1"];
"Longwood" -> "Concourse & Concourse Village" [label ="1"];
"Longwood" -> "Westchester Heights" [label ="1"];
"Longwood" -> "Eastchester" [label ="1"];
"Longwood" -> "Parkchester" [label ="1"];
"Longwood" -> "Foxhurst (East Morrisania)" [label ="1"];
"Longwood" -> "others" [label ="1"];
"Longwood" -> "Morris Heights" [label ="1"];
"Morris Park" -> "Longwood" [label ="1"];
"Morris Park" -> "others" [label ="2"];
"Morris Park" -> "Mount Eden" [label ="1"];
"Morris Park" -> "Bronxwood" [label ="1"];
"Coney Island" -> "Park Slope" [label ="1"];
"Coney Island" -> "Bath Beach" [label ="1"];
"Coney Island" -> "others" [label ="3"];
"Coney Island" -> "Midwood" [label ="1"];
"Coney Island" -> "Coney Island" [label ="1"];
"Canarsie" -> "Canarsie" [label ="1"];
"Canarsie" -> "Rosedale" [label ="1"];
"Canarsie" -> "East Flatbush" [label ="1"];
"Canarsie" -> "Flatbush" [label ="1"];
"Inwood" -> "Kingsbridge Heights" [label ="3"];
"Inwood" -> "Riverdale" [label ="2"];
"Inwood" -> "Bedford Park" [label ="3"];
"Inwood" -> "Bronxwood" [label ="1"];
"Inwood" -> "Fordham" [label ="3"];
"Inwood" -> "Washington Heights" [label ="45"];
"Inwood" -> "Castle Hill" [label ="2"];
"Inwood" -> "Co-Op City" [label ="1"];
"Inwood" -> "Bedford-Stuyvesant" [label ="1"];
"Inwood" -> "Highbridge" [label ="1"];
"Inwood" -> "Southside (Williamsburg)" [label ="1"];
"Inwood" -> "Mount Hope" [label ="2"];
"Inwood" -> "University Heights" [label ="1"];
"Inwood" -> "Crown Heights" [label ="1"];
"Inwood" -> "Kingsbridge" [label ="2"];
"Inwood" -> "Marble Hill (Manhattan, NYC)" [label ="2"];
"Inwood" -> "Mount Eden" [label ="1"];
"Inwood" -> "Inwood" [label ="15"];
"Inwood" -> "Melrose" [label ="2"];
"Inwood" -> "Morrisania" [label ="1"];
"Inwood" -> "others" [label ="43"];
"Inwood" -> "Morris Heights" [label ="1"];
"Flushing" -> "Hillcrest" [label ="1"];
"Flushing" -> "Willets Point" [label ="1"];
"Flushing" -> "Jamaica Estates" [label ="1"];
"Flushing" -> "Flushing" [label ="9"];
"Flushing" -> "Ozone Park" [label ="1"];
"Flushing" -> "Flushing (Downtown)" [label ="4"];
"Flushing" -> "Corona" [label ="3"];
"Flushing" -> "Briarwood" [label ="1"];
"Flushing" -> "North Corona" [label ="1"];
"Flushing" -> "others" [label ="9"];
"Flushing" -> "Elmhurst" [label ="2"];
"Bushwick" -> "Soundview" [label ="1"];
"Bushwick" -> "Pelham Bay" [label ="1"];
"Bushwick" -> "Brownsville" [label ="1"];
"Bushwick" -> "Middle Village" [label ="1"];
"Bushwick" -> "Greenwood Heights" [label ="2"];
"Bushwick" -> "Carroll Gardens" [label ="3"];
"Bushwick" -> "Clinton Hill" [label ="10"];
"Bushwick" -> "Bergen Beach" [label ="1"];
"Bushwick" -> "Cobble Hill" [label ="3"];
"Bushwick" -> "Downtown Brooklyn" [label ="2"];
"Bushwick" -> "Prospect Park South" [label ="2"];
"Bushwick" -> "Homecrest" [label ="1"];
"Bushwick" -> "Gowanus" [label ="4"];
"Bushwick" -> "Fort Greene" [label ="11"];
"Bushwick" -> "Washington Heights" [label ="1"];
"Bushwick" -> "Flatbush" [label ="8"];
"Bushwick" -> "Flatlands" [label ="1"];
"Bushwick" -> "Weeksville" [label ="1"];
"Bushwick" -> "Borough Park" [label ="1"];
"Bushwick" -> "Park Slope" [label ="7"];
"Bushwick" -> "Vinegar Hill" [label ="2"];
"Bushwick" -> "Bedford-Stuyvesant" [label ="56"];
"Bushwick" -> "Rego Park" [label ="2"];
"Bushwick" -> "Southside (Williamsburg)" [label ="35"];
"Bushwick" -> "Cypress Hills" [label ="1"];
"Bushwick" -> "Crown Heights" [label ="26"];
"Bushwick" -> "East New York" [label ="4"];
"Bushwick" -> "Kensington & Parkville" [label ="3"];
"Bushwick" -> "Williamsburg" [label ="40"];
"Bushwick" -> "Glendale" [label ="1"];
"Bushwick" -> "Windsor Terrace" [label ="1"];
"Bushwick" -> "Ridgewood" [label ="6"];
"Bushwick" -> "Prospect Heights" [label ="5"];
"Bushwick" -> "Flushing" [label ="2"];
"Bushwick" -> "Midwood" [label ="1"];
"Bushwick" -> "East Williamsburg" [label ="90"];
"Bushwick" -> "Morris Heights" [label ="1"];
"Bushwick" -> "Bushwick" [label ="64"];
"Bushwick" -> "others" [label ="264"];
"Bushwick" -> "Elmhurst" [label ="1"];
"Marble Hill (Manhattan, NYC)" -> "Washington Heights" [label ="3"];
"Marble Hill (Manhattan, NYC)" -> "Inwood" [label ="3"];
"Marble Hill (Manhattan, NYC)" -> "Kingsbridge" [label ="1"];
"Marble Hill (Manhattan, NYC)" -> "Mount Eden" [label ="1"];
"Marble Hill (Manhattan, NYC)" -> "others" [label ="3"];
"Soundview" -> "Highbridge" [label ="1"];
"Soundview" -> "Soundview" [label ="1"];
"Soundview" -> "Bronxdale" [label ="1"];
"Soundview" -> "Schuylerville" [label ="1"];
"Soundview" -> "Castle Hill" [label ="1"];
"Soundview" -> "Williamsbridge" [label ="1"];
"Soundview" -> "Longwood" [label ="1"];
"Soundview" -> "Foxhurst (East Morrisania)" [label ="2"];
"Soundview" -> "others" [label ="4"];
"Van Nest" -> "Morrisania" [label ="1"];
"Van Nest" -> "Parkchester" [label ="1"];
"Van Nest" -> "others" [label ="1"];
"Van Nest" -> "East Tremont" [label ="1"];
"Pelham Bay" -> "Soundview" [label ="1"];
"Pelham Bay" -> "Co-Op City" [label ="1"];
"Pelham Bay" -> "Pelham Bay" [label ="1"];
"Pelham Bay" -> "Schuylerville" [label ="1"];
"Pelham Bay" -> "Eastchester" [label ="1"];
"Pelham Bay" -> "others" [label ="2"];
"Brownsville" -> "Remsen Village" [label ="1"];
"Brownsville" -> "Bedford-Stuyvesant" [label ="2"];
"Brownsville" -> "East New York" [label ="2"];
"Brownsville" -> "Gowanus" [label ="1"];
"Bellerose Manor" -> "Jamaica Center" [label ="1"];
"Williamsbridge" -> "Williamsbridge" [label ="1"];
"Carroll Gardens" -> "Forest Hills" [label ="2"];
"Carroll Gardens" -> "Pelham Bay" [label ="1"];
"Carroll Gardens" -> "Stuyvesant Heights" [label ="1"];
"Carroll Gardens" -> "Greenwood Heights" [label ="7"];
"Carroll Gardens" -> "Carroll Gardens" [label ="19"];
"Carroll Gardens" -> "Clinton Hill" [label ="6"];
"Carroll Gardens" -> "Cobble Hill" [label ="16"];
"Carroll Gardens" -> "Downtown Brooklyn" [label ="14"];
"Carroll Gardens" -> "Prospect Park South" [label ="1"];
"Carroll Gardens" -> "Elmhurst" [label ="1"];
"Carroll Gardens" -> "Gowanus" [label ="12"];
"Carroll Gardens" -> "Fort Greene" [label ="10"];
"Carroll Gardens" -> "Flatbush" [label ="9"];
"Carroll Gardens" -> "South Ozone Park" [label ="1"];
"Carroll Gardens" -> "Park Slope" [label ="29"];
"Carroll Gardens" -> "Bedford-Stuyvesant" [label ="10"];
"Carroll Gardens" -> "Southside (Williamsburg)" [label ="6"];
"Carroll Gardens" -> "Crown Heights" [label ="13"];
"Carroll Gardens" -> "East New York" [label ="1"];
"Carroll Gardens" -> "Kensington & Parkville" [label ="3"];
"Carroll Gardens" -> "South Park Slope" [label ="2"];
"Carroll Gardens" -> "Williamsburg" [label ="9"];
"Carroll Gardens" -> "Coney Island" [label ="1"];
"Carroll Gardens" -> "Windsor Terrace" [label ="3"];
"Carroll Gardens" -> "Prospect Heights" [label ="5"];
"Carroll Gardens" -> "Midwood" [label ="1"];
"Carroll Gardens" -> "East Williamsburg" [label ="16"];
"Carroll Gardens" -> "Bushwick" [label ="4"];
"Carroll Gardens" -> "others" [label ="249"];
"Carroll Gardens" -> "Boerum Hill" [label ="8"];
"Laurel Hill" -> "East Williamsburg" [label ="1"];
"Laurel Hill" -> "Laurel Hill" [label ="3"];
"Laurel Hill" -> "others" [label ="3"];
"Laurel Hill" -> "Maspeth" [label ="2"];
"Elmhurst" -> "Jamaica Hills" [label ="3"];
"Elmhurst" -> "Queens Village" [label ="1"];
"Elmhurst" -> "Jamaica Center" [label ="6"];
"Elmhurst" -> "Bedford Park" [label ="1"];
"Elmhurst" -> "Fresh Pond" [label ="4"];
"Elmhurst" -> "Linden Hill" [label ="1"];
"Elmhurst" -> "Middle Village" [label ="10"];
"Elmhurst" -> "Forest Hills" [label ="7"];
"Elmhurst" -> "Carroll Gardens" [label ="1"];
"Elmhurst" -> "Elmhurst" [label ="64"];
"Elmhurst" -> "Flushing (Downtown)" [label ="6"];
"Elmhurst" -> "Whitestone" [label ="1"];
"Elmhurst" -> "Kew Gardens Hills" [label ="2"];
"Elmhurst" -> "North Corona" [label ="8"];
"Elmhurst" -> "Weeksville" [label ="1"];
"Elmhurst" -> "Morris Park" [label ="1"];
"Elmhurst" -> "College Point" [label ="5"];
"Elmhurst" -> "Auburndale" [label ="1"];
"Elmhurst" -> "South Jamaica" [label ="2"];
"Elmhurst" -> "Windsor Terrace" [label ="1"];
"Elmhurst" -> "Washington Heights" [label ="8"];
"Elmhurst" -> "Brighton Beach" [label ="1"];
"Elmhurst" -> "Flatbush" [label ="1"];
"Elmhurst" -> "Bath Beach" [label ="1"];
"Elmhurst" -> "Clearview" [label ="1"];
"Elmhurst" -> "South Richmond Hill" [label ="1"];
"Elmhurst" -> "Clason Point" [label ="1"];
"Elmhurst" -> "South Ozone Park" [label ="1"];
"Elmhurst" -> "Ozone Park" [label ="2"];
"Elmhurst" -> "Far Rockaway" [label ="1"];
"Elmhurst" -> "Park Slope" [label ="2"];
"Elmhurst" -> "Bedford-Stuyvesant" [label ="4"];
"Elmhurst" -> "Rego Park" [label ="11"];
"Elmhurst" -> "Southside (Williamsburg)" [label ="2"];
"Elmhurst" -> "Cypress Hills" [label ="1"];
"Elmhurst" -> "East New York" [label ="1"];
"Elmhurst" -> "Bayside" [label ="3"];
"Elmhurst" -> "Corona" [label ="17"];
"Elmhurst" -> "Kingsbridge" [label ="1"];
"Elmhurst" -> "Longwood" [label ="1"];
"Elmhurst" -> "Williamsburg" [label ="2"];
"Elmhurst" -> "Glendale" [label ="8"];
"Elmhurst" -> "Gowanus" [label ="1"];
"Elmhurst" -> "Little Neck" [label ="1"];
"Elmhurst" -> "Canarsie" [label ="1"];
"Elmhurst" -> "Woodhaven" [label ="2"];
"Elmhurst" -> "Bowne Park" [label ="2"];
"Elmhurst" -> "Hollis Hills" [label ="1"];
"Elmhurst" -> "Ridgewood" [label ="1"];
"Elmhurst" -> "Inwood" [label ="3"];
"Elmhurst" -> "South Williamsburg" [label ="2"];
"Elmhurst" -> "Flushing" [label ="5"];
"Elmhurst" -> "Douglaston" [label ="1"];
"Elmhurst" -> "Oakland Gardens" [label ="2"];
"Elmhurst" -> "Richmond Hill" [label ="1"];
"Elmhurst" -> "East Williamsburg" [label ="1"];
"Elmhurst" -> "Howard Beach" [label ="1"];
"Elmhurst" -> "Bushwick" [label ="2"];
"Elmhurst" -> "others" [label ="242"];
"Elmhurst" -> "Maspeth" [label ="11"];
"Whitestone" -> "Hollis Hills" [label ="1"];
"Whitestone" -> "others" [label ="3"];
"Cobble Hill" -> "Forest Hills" [label ="1"];
"Cobble Hill" -> "Jamaica Center" [label ="1"];
"Cobble Hill" -> "Greenwood Heights" [label ="1"];
"Cobble Hill" -> "Carroll Gardens" [label ="22"];
"Cobble Hill" -> "Boerum Hill" [label ="10"];
"Cobble Hill" -> "Ditmas Park West" [label ="1"];
"Cobble Hill" -> "Cobble Hill" [label ="13"];
"Cobble Hill" -> "Downtown Brooklyn" [label ="9"];
"Cobble Hill" -> "Prospect Park South" [label ="2"];
"Cobble Hill" -> "Homecrest" [label ="2"];
"Cobble Hill" -> "Gowanus" [label ="13"];
"Cobble Hill" -> "Fort Greene" [label ="15"];
"Cobble Hill" -> "South Williamsburg" [label ="2"];
"Cobble Hill" -> "Flatbush" [label ="6"];
"Cobble Hill" -> "Bath Beach" [label ="2"];
"Cobble Hill" -> "Weeksville" [label ="2"];
"Cobble Hill" -> "Borough Park" [label ="1"];
"Cobble Hill" -> "Park Slope" [label ="49"];
"Cobble Hill" -> "RAMBO" [label ="2"];
"Cobble Hill" -> "Southside (Williamsburg)" [label ="3"];
"Cobble Hill" -> "Bedford-Stuyvesant" [label ="10"];
"Cobble Hill" -> "Crown Heights" [label ="12"];
"Cobble Hill" -> "Kensington & Parkville" [label ="6"];
"Cobble Hill" -> "East Flatbush" [label ="2"];
"Cobble Hill" -> "South Park Slope" [label ="3"];
"Cobble Hill" -> "Williamsburg" [label ="6"];
"Cobble Hill" -> "City Line" [label ="1"];
"Cobble Hill" -> "Windsor Terrace" [label ="5"];
"Cobble Hill" -> "Prospect Heights" [label ="10"];
"Cobble Hill" -> "Midwood" [label ="1"];
"Cobble Hill" -> "East Williamsburg" [label ="13"];
"Cobble Hill" -> "East Tremont" [label ="1"];
"Cobble Hill" -> "Bushwick" [label ="5"];
"Cobble Hill" -> "others" [label ="316"];
"Cobble Hill" -> "Clinton Hill" [label ="14"];
"Homecrest" -> "Homecrest" [label ="3"];
"Homecrest" -> "Sheepshead Bay" [label ="1"];
"Homecrest" -> "Marine Park" [label ="1"];
"Homecrest" -> "Midwood" [label ="1"];
"Homecrest" -> "Kensington & Parkville" [label ="1"];
"Homecrest" -> "Gravesend" [label ="2"];
"Homecrest" -> "Madison" [label ="1"];
"Farragut" -> "Brownsville" [label ="1"];
"South Williamsburg" -> "Park Slope" [label ="1"];
"South Williamsburg" -> "Williamsburg" [label ="5"];
"South Williamsburg" -> "Gowanus" [label ="1"];
"South Williamsburg" -> "Fort Greene" [label ="4"];
"South Williamsburg" -> "South Williamsburg" [label ="11"];
"South Williamsburg" -> "Bedford-Stuyvesant" [label ="12"];
"South Williamsburg" -> "Middle Village" [label ="1"];
"South Williamsburg" -> "Borough Park" [label ="1"];
"South Williamsburg" -> "Ridgewood" [label ="1"];
"South Williamsburg" -> "Southside (Williamsburg)" [label ="12"];
"South Williamsburg" -> "Washington Heights" [label ="1"];
"South Williamsburg" -> "Crown Heights" [label ="1"];
"South Williamsburg" -> "Clinton Hill" [label ="1"];
"South Williamsburg" -> "East Williamsburg" [label ="5"];
"South Williamsburg" -> "Downtown Brooklyn" [label ="1"];
"South Williamsburg" -> "New Lots" [label ="1"];
"South Williamsburg" -> "Bushwick" [label ="5"];
"South Williamsburg" -> "others" [label ="30"];
"South Williamsburg" -> "Boerum Hill" [label ="1"];
"Crotona" -> "Fordham" [label ="1"];
"Crotona" -> "Crotona" [label ="9"];
"Crotona" -> "Castle Hill" [label ="1"];
"Crotona" -> "Melrose" [label ="2"];
"Crotona" -> "West Farms" [label ="1"];
"Crotona" -> "Mount Hope" [label ="1"];
"Crotona" -> "others" [label ="3"];
"Castle Hill" -> "Soundview" [label ="2"];
"Castle Hill" -> "Throggs Neck" [label ="1"];
"Castle Hill" -> "Washington Heights" [label ="2"];
"Castle Hill" -> "Bedford Park" [label ="1"];
"Castle Hill" -> "Highbridge" [label ="1"];
"Castle Hill" -> "Castle Hill" [label ="3"];
"Castle Hill" -> "Rego Park" [label ="1"];
"Castle Hill" -> "West Farms" [label ="1"];
"Castle Hill" -> "Elmhurst" [label ="1"];
"Castle Hill" -> "Van Nest" [label ="1"];
"Castle Hill" -> "others" [label ="2"];
"Flatlands" -> "Remsen Village" [label ="1"];
"Flatlands" -> "Flatbush" [label ="1"];
"Jamaica Estates" -> "others" [label ="2"];
"Bedford-Stuyvesant" -> "Forest Hills" [label ="1"];
"Bedford-Stuyvesant" -> "Jamaica Center" [label ="1"];
"Bedford-Stuyvesant" -> "Brownsville" [label ="2"];
"Bedford-Stuyvesant" -> "Greenwood Heights" [label ="1"];
"Bedford-Stuyvesant" -> "Bensonhurst" [label ="1"];
"Bedford-Stuyvesant" -> "Carroll Gardens" [label ="5"];
"Bedford-Stuyvesant" -> "Clinton Hill" [label ="26"];
"Bedford-Stuyvesant" -> "Bronxwood" [label ="1"];
"Bedford-Stuyvesant" -> "Cobble Hill" [label ="2"];
"Bedford-Stuyvesant" -> "Downtown Brooklyn" [label ="10"];
"Bedford-Stuyvesant" -> "Weeksville" [label ="7"];
"Bedford-Stuyvesant" -> "Elmhurst" [label ="3"];
"Bedford-Stuyvesant" -> "Gowanus" [label ="6"];
"Bedford-Stuyvesant" -> "Fort Greene" [label ="30"];
"Bedford-Stuyvesant" -> "South Williamsburg" [label ="18"];
"Bedford-Stuyvesant" -> "Flatbush" [label ="12"];
"Bedford-Stuyvesant" -> "Sheepshead Bay" [label ="1"];
"Bedford-Stuyvesant" -> "Bath Beach" [label ="1"];
"Bedford-Stuyvesant" -> "Washington Heights" [label ="1"];
"Bedford-Stuyvesant" -> "South Richmond Hill" [label ="1"];
"Bedford-Stuyvesant" -> "Prospect Park South" [label ="1"];
"Bedford-Stuyvesant" -> "New Lots" [label ="2"];
"Bedford-Stuyvesant" -> "Ozone Park" [label ="1"];
"Bedford-Stuyvesant" -> "Park Slope" [label ="16"];
"Bedford-Stuyvesant" -> "Spuyten Duyvil" [label ="1"];
"Bedford-Stuyvesant" -> "RAMBO" [label ="3"];
"Bedford-Stuyvesant" -> "Vinegar Hill" [label ="4"];
"Bedford-Stuyvesant" -> "Bedford-Stuyvesant" [label ="129"];
"Bedford-Stuyvesant" -> "Southside (Williamsburg)" [label ="48"];
"Bedford-Stuyvesant" -> "Crown Heights" [label ="29"];
"Bedford-Stuyvesant" -> "East New York" [label ="4"];
"Bedford-Stuyvesant" -> "Corona" [label ="1"];
"Bedford-Stuyvesant" -> "East Flatbush" [label ="4"];
"Bedford-Stuyvesant" -> "Canarsie" [label ="2"];
"Bedford-Stuyvesant" -> "Williamsburg" [label ="27"];
"Bedford-Stuyvesant" -> "Glendale" [label ="1"];
"Bedford-Stuyvesant" -> "Coney Island" [label ="1"];
"Bedford-Stuyvesant" -> "Fordham" [label ="1"];
"Bedford-Stuyvesant" -> "City Line" [label ="1"];
"Bedford-Stuyvesant" -> "Ocean Hill" [label ="3"];
"Bedford-Stuyvesant" -> "Ridgewood" [label ="1"];
"Bedford-Stuyvesant" -> "Prospect Heights" [label ="6"];
"Bedford-Stuyvesant" -> "Melrose" [label ="1"];
"Bedford-Stuyvesant" -> "Midwood" [label ="1"];
"Bedford-Stuyvesant" -> "Kew Gardens" [label ="1"];
"Bedford-Stuyvesant" -> "Olinville" [label ="1"];
"Bedford-Stuyvesant" -> "East Williamsburg" [label ="42"];
"Bedford-Stuyvesant" -> "Morris Heights" [label ="1"];
"Bedford-Stuyvesant" -> "Foxhurst (East Morrisania)" [label ="1"];
"Bedford-Stuyvesant" -> "Bushwick" [label ="42"];
"Bedford-Stuyvesant" -> "others" [label ="257"];
"Bedford-Stuyvesant" -> "Boerum Hill" [label ="4"];
"Hunts Point" -> "Soundview" [label ="2"];
"Hunts Point" -> "Castle Hill" [label ="1"];
"Hunts Point" -> "others" [label ="2"];
"Hunts Point" -> "Hunts Point" [label ="4"];
"Spuyten Duyvil" -> "Washington Heights" [label ="1"];
"Spuyten Duyvil" -> "Spuyten Duyvil" [label ="8"];
"Spuyten Duyvil" -> "Riverdale" [label ="2"];
"Spuyten Duyvil" -> "others" [label ="2"];
"South Ozone Park" -> "Rochdale" [label ="1"];
"South Ozone Park" -> "Woodhaven" [label ="1"];
"South Ozone Park" -> "Brownsville" [label ="1"];
"South Ozone Park" -> "South Ozone Park" [label ="5"];
"South Ozone Park" -> "Bensonhurst" [label ="1"];
"South Ozone Park" -> "Carroll Gardens" [label ="1"];
"South Ozone Park" -> "Ozone Park" [label ="1"];
"South Ozone Park" -> "Flushing (Downtown)" [label ="1"];
"South Ozone Park" -> "Remsen Village" [label ="1"];
"South Ozone Park" -> "Springfield Gardens" [label ="1"];
"South Ozone Park" -> "others" [label ="5"];
"West Farms" -> "Soundview" [label ="1"];
"West Farms" -> "Parkchester" [label ="1"];
"West Farms" -> "Belmont" [label ="1"];
"West Farms" -> "West Farms" [label ="1"];
"West Farms" -> "Eastchester" [label ="1"];
"West Farms" -> "Morrisania" [label ="1"];
"West Farms" -> "University Heights" [label ="1"];
"West Farms" -> "others" [label ="2"];
"Linden Hill" -> "others" [label ="3"];
"Linden Hill" -> "Linden Hill" [label ="1"];
"Kensington & Parkville" -> "Bensonhurst" [label ="2"];
"Kensington & Parkville" -> "Carroll Gardens" [label ="1"];
"Kensington & Parkville" -> "Downtown Brooklyn" [label ="1"];
"Kensington & Parkville" -> "Madison" [label ="1"];
"Kensington & Parkville" -> "Prospect Park South" [label ="4"];
"Kensington & Parkville" -> "Gowanus" [label ="2"];
"Kensington & Parkville" -> "Fort Greene" [label ="1"];
"Kensington & Parkville" -> "Washington Heights" [label ="1"];
"Kensington & Parkville" -> "Brighton Beach" [label ="1"];
"Kensington & Parkville" -> "Flatbush" [label ="4"];
"Kensington & Parkville" -> "Bath Beach" [label ="1"];
"Kensington & Parkville" -> "Weeksville" [label ="1"];
"Kensington & Parkville" -> "Borough Park" [label ="1"];
"Kensington & Parkville" -> "Park Slope" [label ="2"];
"Kensington & Parkville" -> "Williamsburg" [label ="1"];
"Kensington & Parkville" -> "Mapleton" [label ="1"];
"Kensington & Parkville" -> "Crown Heights" [label ="3"];
"Kensington & Parkville" -> "Kensington & Parkville" [label ="2"];
"Kensington & Parkville" -> "East Flatbush" [label ="1"];
"Kensington & Parkville" -> "South Park Slope" [label ="2"];
"Kensington & Parkville" -> "Sheepshead Bay" [label ="1"];
"Kensington & Parkville" -> "Coney Island" [label ="3"];
"Kensington & Parkville" -> "Ozone Park" [label ="1"];
"Kensington & Parkville" -> "Midwood" [label ="1"];
"Kensington & Parkville" -> "East Williamsburg" [label ="1"];
"Kensington & Parkville" -> "Gravesend" [label ="1"];
"Kensington & Parkville" -> "others" [label ="13"];
"Fieldston" -> "others" [label ="1"];
"Fieldston" -> "Fieldston" [label ="1"];
"Sheepshead Bay" -> "Jamaica Center" [label ="1"];
"Sheepshead Bay" -> "Sheepshead Bay" [label ="1"];
"Sheepshead Bay" -> "Marine Park" [label ="2"];
"Sheepshead Bay" -> "Midwood" [label ="2"];
"Sheepshead Bay" -> "Howard Beach" [label ="1"];
"Bronxdale" -> "Bedford Park" [label ="1"];
"Bronxdale" -> "Bronxdale" [label ="1"];
"Bronxdale" -> "Williamsbridge" [label ="1"];
"Ocean Hill" -> "Southside (Williamsburg)" [label ="1"];
"Ocean Hill" -> "Bedford-Stuyvesant" [label ="1"];
"Ocean Hill" -> "East New York" [label ="1"];
"Mount Eden" -> "Morrisania" [label ="1"];
"Mount Eden" -> "Parkchester" [label ="1"];
"Mount Eden" -> "Concourse & Concourse Village" [label ="3"];
"Mount Eden" -> "Castle Hill" [label ="1"];
"Mount Eden" -> "Highbridge" [label ="1"];
"Mount Eden" -> "Mount Eden" [label ="6"];
"Mount Eden" -> "East Tremont" [label ="1"];
"Mount Eden" -> "Inwood" [label ="2"];
"Mount Eden" -> "Washington Heights" [label ="2"];
"Mount Eden" -> "Eastchester" [label ="1"];
"Mount Eden" -> "Mount Hope" [label ="2"];
"Mount Eden" -> "University Heights" [label ="1"];
"Mount Eden" -> "others" [label ="10"];
"Eastchester" -> "others" [label ="1"];
"Bath Beach" -> "Plumb Beach" [label ="1"];
"Bath Beach" -> "Bath Beach" [label ="2"];
"Bath Beach" -> "Borough Park" [label ="1"];
"Bath Beach" -> "others" [label ="2"];
"East Williamsburg" -> "Jamaica Hills" [label ="1"];
"East Williamsburg" -> "Northside (Williamsburg)" [label ="1"];
"East Williamsburg" -> "Pelham Bay" [label ="1"];
"East Williamsburg" -> "Brownsville" [label ="1"];
"East Williamsburg" -> "Fresh Pond" [label ="3"];
"East Williamsburg" -> "Bellerose (NYC)" [label ="1"];
"East Williamsburg" -> "Middle Village" [label ="1"];
"East Williamsburg" -> "Forest Hills" [label ="4"];
"East Williamsburg" -> "Greenwood Heights" [label ="13"];
"East Williamsburg" -> "Bensonhurst" [label ="4"];
"East Williamsburg" -> "Carroll Gardens" [label ="8"];
"East Williamsburg" -> "Laurel Hill" [label ="1"];
"East Williamsburg" -> "Clinton Hill" [label ="33"];
"East Williamsburg" -> "Ditmas Park West" [label ="1"];
"East Williamsburg" -> "Flushing (Downtown)" [label ="1"];
"East Williamsburg" -> "Whitestone" [label ="1"];
"East Williamsburg" -> "Cobble Hill" [label ="7"];
"East Williamsburg" -> "Downtown Brooklyn" [label ="18"];
"East Williamsburg" -> "Wakefield" [label ="1"];
"East Williamsburg" -> "North Corona" [label ="1"];
"East Williamsburg" -> "Prospect Park South" [label ="4"];
"East Williamsburg" -> "Morris Park" [label ="1"];
"East Williamsburg" -> "Prospect Heights" [label ="15"];
"East Williamsburg" -> "Mount Hope" [label ="1"];
"East Williamsburg" -> "Gowanus" [label ="19"];
"East Williamsburg" -> "Windsor Terrace" [label ="4"];
"East Williamsburg" -> "South Williamsburg" [label ="8"];
"East Williamsburg" -> "Jamaica Center" [label ="3"];
"East Williamsburg" -> "Flatbush" [label ="14"];
"East Williamsburg" -> "Madison" [label ="1"];
"East Williamsburg" -> "Weeksville" [label ="7"];
"East Williamsburg" -> "New Lots" [label ="1"];
"East Williamsburg" -> "Borough Park" [label ="3"];
"East Williamsburg" -> "Park Slope" [label ="64"];
"East Williamsburg" -> "RAMBO" [label ="8"];
"East Williamsburg" -> "Maspeth" [label ="8"];
"East Williamsburg" -> "Belmont" [label ="1"];
"East Williamsburg" -> "Bedford-Stuyvesant" [label ="97"];
"East Williamsburg" -> "Rego Park" [label ="3"];
"East Williamsburg" -> "Stuyvesant Heights" [label ="2"];
"East Williamsburg" -> "Southside (Williamsburg)" [label ="122"];
"East Williamsburg" -> "Crown Heights" [label ="54"];
"East Williamsburg" -> "Bayside" [label ="4"];
"East Williamsburg" -> "Richmond Hill" [label ="1"];
"East Williamsburg" -> "Kensington & Parkville" [label ="6"];
"East Williamsburg" -> "Elmhurst" [label ="9"];
"East Williamsburg" -> "Vinegar Hill" [label ="1"];
"East Williamsburg" -> "South Park Slope" [label ="12"];
"East Williamsburg" -> "Kew Gardens Hills" [label ="1"];
"East Williamsburg" -> "Williamsburg" [label ="109"];
"East Williamsburg" -> "Gerritsen Beach" [label ="1"];
"East Williamsburg" -> "Glendale" [label ="2"];
"East Williamsburg" -> "Rochdale" [label ="1"];
"East Williamsburg" -> "Fort Greene" [label ="21"];
"East Williamsburg" -> "Mount Eden" [label ="1"];
"East Williamsburg" -> "Ridgewood" [label ="14"];
"East Williamsburg" -> "Inwood" [label ="3"];
"East Williamsburg" -> "Washington Heights" [label ="6"];
"East Williamsburg" -> "Flushing" [label ="1"];
"East Williamsburg" -> "Marine Park" [label ="1"];
"East Williamsburg" -> "Douglaston" [label ="1"];
"East Williamsburg" -> "Midwood" [label ="2"];
"East Williamsburg" -> "Corona" [label ="1"];
"East Williamsburg" -> "East Williamsburg" [label ="229"];
"East Williamsburg" -> "Gravesend" [label ="3"];
"East Williamsburg" -> "Briarwood" [label ="1"];
"East Williamsburg" -> "Bushwick" [label ="101"];
"East Williamsburg" -> "others" [label ="1062"];
"East Williamsburg" -> "Boerum Hill" [label ="11"];
"Morrisania" -> "Morrisania" [label ="5"];
"Morrisania" -> "Bedford Park" [label ="1"];
"Morrisania" -> "Highbridge" [label ="1"];
"Morrisania" -> "Mount Eden" [label ="1"];
"Morrisania" -> "Melrose" [label ="3"];
"Morrisania" -> "Mount Hope" [label ="2"];
"Morrisania" -> "Foxhurst (East Morrisania)" [label ="1"];
"Morrisania" -> "others" [label ="6"];
"Foxhurst (East Morrisania)" -> "Washington Heights" [label ="1"];
"Foxhurst (East Morrisania)" -> "Clason Point" [label ="1"];
"Foxhurst (East Morrisania)" -> "West Farms" [label ="1"];
"Foxhurst (East Morrisania)" -> "others" [label ="3"];
"Foxhurst (East Morrisania)" -> "Belmont" [label ="1"];
"Windsor Terrace" -> "Park Slope" [label ="4"];
"Windsor Terrace" -> "Williamsburg" [label ="1"];
"Windsor Terrace" -> "Coney Island" [label ="1"];
"Windsor Terrace" -> "Fort Greene" [label ="1"];
"Windsor Terrace" -> "Southside (Williamsburg)" [label ="1"];
"Windsor Terrace" -> "Windsor Terrace" [label ="1"];
"Windsor Terrace" -> "Mapleton" [label ="1"];
"Windsor Terrace" -> "Greenwood Heights" [label ="1"];
"Windsor Terrace" -> "Flatbush" [label ="1"];
"Windsor Terrace" -> "Sheepshead Bay" [label ="1"];
"Windsor Terrace" -> "Borough Park" [label ="1"];
"Windsor Terrace" -> "East Williamsburg" [label ="3"];
"Windsor Terrace" -> "Bushwick" [label ="1"];
"Windsor Terrace" -> "others" [label ="6"];
"Windsor Terrace" -> "Prospect Park South" [label ="1"];
"Riverdale" -> "Spuyten Duyvil" [label ="2"];
"Riverdale" -> "Kingsbridge Heights" [label ="2"];
"Riverdale" -> "Riverdale" [label ="4"];
"Riverdale" -> "Washington Heights" [label ="2"];
"Riverdale" -> "Marble Hill (Manhattan, NYC)" [label ="1"];
"Riverdale" -> "Mount Eden" [label ="1"];
"Riverdale" -> "Inwood" [label ="1"];
"Riverdale" -> "Kingsbridge" [label ="2"];
"Riverdale" -> "Woodlawn" [label ="1"];
"Riverdale" -> "others" [label ="4"];
"Parkchester" -> "Soundview" [label ="1"];
"Parkchester" -> "Kingsbridge" [label ="1"];
"Parkchester" -> "Bedford Park" [label ="1"];
"Parkchester" -> "Castle Hill" [label ="1"];
"Parkchester" -> "Melrose" [label ="1"];
"Parkchester" -> "Eastchester" [label ="1"];
"Parkchester" -> "Van Nest" [label ="2"];
"Parkchester" -> "Co-Op City" [label ="1"];
"Parkchester" -> "Parkchester" [label ="4"];
"Parkchester" -> "others" [label ="4"];
"Fresh Pond" -> "Bushwick" [label ="1"];
"Fresh Pond" -> "South Ozone Park" [label ="1"];
"Fresh Pond" -> "Middle Village" [label ="1"];
"Fresh Pond" -> "Ridgewood" [label ="1"];
"Fresh Pond" -> "Corona" [label ="1"];
"Fresh Pond" -> "East Williamsburg" [label ="3"];
"Fresh Pond" -> "Fresh Pond" [label ="3"];
"Fresh Pond" -> "others" [label ="5"];
"Stuyvesant Heights" -> "East Williamsburg" [label ="1"];
"Stuyvesant Heights" -> "Bushwick" [label ="1"];
"Rego Park Crescents" -> "Forest Hills" [label ="1"];
"Westchester Heights" -> "Westchester Heights" [label ="50"];
"Westchester Heights" -> "Eastchester" [label ="1"];
"Westchester Heights" -> "others" [label ="2"];
"Ditmas Park West" -> "Southside (Williamsburg)" [label ="1"];
"Ditmas Park West" -> "others" [label ="3"];
"Wakefield" -> "Wakefield" [label ="1"];
"Wakefield" -> "others" [label ="3"];
"Madison" -> "Sheepshead Bay" [label ="2"];
"Madison" -> "Madison" [label ="1"];
"Madison" -> "Clinton Hill" [label ="1"];
"Morris Park" -> "Morris Park" [label ="1"];
"Morris Park" -> "others" [label ="1"];
"Morris Park" -> "Woodhaven" [label ="1"];
"Throggs Neck" -> "College Point" [label ="1"];
"Throggs Neck" -> "Throggs Neck" [label ="1"];
"Throggs Neck" -> "others" [label ="4"];
"Locust Manor" -> "North Corona" [label ="1"];
"Brighton Beach" -> "Bath Beach" [label ="1"];
"Brighton Beach" -> "Bedford-Stuyvesant" [label ="1"];
"Brighton Beach" -> "Brighton Beach" [label ="4"];
"Brighton Beach" -> "others" [label ="1"];
"Flatbush" -> "Clinton Hill" [label ="1"];
"Flatbush" -> "Remsen Village" [label ="1"];
"Flatbush" -> "Downtown Brooklyn" [label ="3"];
"Flatbush" -> "Madison" [label ="1"];
"Flatbush" -> "Prospect Park South" [label ="5"];
"Flatbush" -> "Gowanus" [label ="2"];
"Flatbush" -> "Fort Greene" [label ="6"];
"Flatbush" -> "Flatbush" [label ="20"];
"Flatbush" -> "Flatlands" [label ="1"];
"Flatbush" -> "Weeksville" [label ="4"];
"Flatbush" -> "New Lots" [label ="1"];
"Flatbush" -> "South Ozone Park" [label ="1"];
"Flatbush" -> "Borough Park" [label ="2"];
"Flatbush" -> "Park Slope" [label ="10"];
"Flatbush" -> "Williamsburg" [label ="3"];
"Flatbush" -> "Bedford-Stuyvesant" [label ="7"];
"Flatbush" -> "Rego Park" [label ="1"];
"Flatbush" -> "Crown Heights" [label ="12"];
"Flatbush" -> "Sheepshead Bay" [label ="1"];
"Flatbush" -> "East New York" [label ="2"];
"Flatbush" -> "Kensington & Parkville" [label ="3"];
"Flatbush" -> "East Flatbush" [label ="4"];
"Flatbush" -> "South Park Slope" [label ="1"];
"Flatbush" -> "Southside (Williamsburg)" [label ="4"];
"Flatbush" -> "Farragut" [label ="2"];
"Flatbush" -> "Canarsie" [label ="1"];
"Flatbush" -> "Ocean Hill" [label ="1"];
"Flatbush" -> "Ridgewood" [label ="1"];
"Flatbush" -> "Prospect Heights" [label ="10"];
"Flatbush" -> "Midwood" [label ="2"];
"Flatbush" -> "Corona" [label ="1"];
"Flatbush" -> "East Williamsburg" [label ="2"];
"Flatbush" -> "Bushwick" [label ="1"];
"Flatbush" -> "others" [label ="52"];
"Bedford Park" -> "Longwood" [label ="1"];
"Bedford Park" -> "Norwood" [label ="1"];
"Bedford Park" -> "Kingsbridge Heights" [label ="2"];
"Bedford Park" -> "Washington Heights" [label ="1"];
"Bedford Park" -> "Bedford Park" [label ="1"];
"Bedford Park" -> "Highbridge" [label ="1"];
"Bedford Park" -> "Belmont" [label ="1"];
"Bedford Park" -> "Mount Hope" [label ="1"];
"Bedford Park" -> "North Corona" [label ="1"];
"Bedford Park" -> "others" [label ="1"];
"Bedford Park" -> "Morris Heights" [label ="1"];
"South Richmond Hill" -> "Hillcrest" [label ="1"];
"South Richmond Hill" -> "Jamaica Center" [label ="5"];
"South Richmond Hill" -> "others" [label ="2"];
"South Richmond Hill" -> "Kew Gardens" [label ="1"];
"South Richmond Hill" -> "South Richmond Hill" [label ="1"];
"South Richmond Hill" -> "Ozone Park" [label ="1"];
"Baychester" -> "Baychester" [label ="2"];
"Baychester" -> "Castle Hill" [label ="1"];
"Park Slope" -> "Boerum Hill" [label ="26"];
"Park Slope" -> "Forest Hills" [label ="5"];
"Park Slope" -> "Queens Village" [label ="1"];
"Park Slope" -> "Riverdale" [label ="1"];
"Park Slope" -> "Jamaica Center" [label ="1"];
"Park Slope" -> "Brownsville" [label ="2"];
"Park Slope" -> "Auburndale" [label ="1"];
"Park Slope" -> "Greenwood Heights" [label ="22"];
"Park Slope" -> "Bensonhurst" [label ="2"];
"Park Slope" -> "Carroll Gardens" [label ="25"];
"Park Slope" -> "Clinton Hill" [label ="35"];
"Park Slope" -> "Ditmas Park West" [label ="3"];
"Park Slope" -> "Remsen Village" [label ="1"];
"Park Slope" -> "Cobble Hill" [label ="25"];
"Park Slope" -> "Downtown Brooklyn" [label ="38"];
"Park Slope" -> "Prospect Park South" [label ="13"];
"Park Slope" -> "Elmhurst" [label ="3"];
"Park Slope" -> "Inwood" [label ="2"];
"Park Slope" -> "Homecrest" [label ="1"];
"Park Slope" -> "Gowanus" [label ="36"];
"Park Slope" -> "Fort Greene" [label ="42"];
"Park Slope" -> "Washington Heights" [label ="7"];
"Park Slope" -> "Brighton Beach" [label ="1"];
"Park Slope" -> "Flatbush" [label ="41"];
"Park Slope" -> "Sheepshead Bay" [label ="2"];
"Park Slope" -> "Flatlands" [label ="2"];
"Park Slope" -> "Weeksville" [label ="4"];
"Park Slope" -> "New Lots" [label ="1"];
"Park Slope" -> "Ozone Park" [label ="2"];
"Park Slope" -> "Park Slope" [label ="160"];
"Park Slope" -> "Spuyten Duyvil" [label ="1"];
"Park Slope" -> "RAMBO" [label ="3"];
"Park Slope" -> "Belle Harbor" [label ="1"];
"Park Slope" -> "Dyker Heights" [label ="1"];
"Park Slope" -> "Bedford-Stuyvesant" [label ="61"];
"Park Slope" -> "Mapleton" [label ="1"];
"Park Slope" -> "Southside (Williamsburg)" [label ="44"];
"Park Slope" -> "Crown Heights" [label ="78"];
"Park Slope" -> "Bayside" [label ="1"];
"Park Slope" -> "Kensington & Parkville" [label ="15"];
"Park Slope" -> "East Flatbush" [label ="4"];
"Park Slope" -> "South Park Slope" [label ="17"];
"Park Slope" -> "Williamsburg" [label ="36"];
"Park Slope" -> "Kingsbridge" [label ="1"];
"Park Slope" -> "Woodhaven" [label ="1"];
"Park Slope" -> "Spring Creek" [label ="1"];
"Park Slope" -> "Windsor Terrace" [label ="21"];
"Park Slope" -> "Ridgewood" [label ="1"];
"Park Slope" -> "Prospect Heights" [label ="44"];
"Park Slope" -> "South Williamsburg" [label ="3"];
"Park Slope" -> "Marine Park" [label ="2"];
"Park Slope" -> "Borough Park" [label ="6"];
"Park Slope" -> "Midwood" [label ="4"];
"Park Slope" -> "Marble Hill (Manhattan, NYC)" [label ="1"];
"Park Slope" -> "Bath Beach" [label ="3"];
"Park Slope" -> "East Williamsburg" [label ="51"];
"Park Slope" -> "Gravesend" [label ="4"];
"Park Slope" -> "Bushwick" [label ="28"];
"Park Slope" -> "others" [label ="687"];
"Park Slope" -> "Maspeth" [label ="4"];
"Laconia" -> "Williamsbridge" [label ="1"];
"RAMBO" -> "Park Slope" [label ="2"];
"RAMBO" -> "Williamsburg" [label ="2"];
"RAMBO" -> "RAMBO" [label ="1"];
"RAMBO" -> "Fort Greene" [label ="1"];
"RAMBO" -> "Washington Heights" [label ="1"];
"RAMBO" -> "Southside (Williamsburg)" [label ="3"];
"RAMBO" -> "Carroll Gardens" [label ="1"];
"RAMBO" -> "Elmhurst" [label ="1"];
"RAMBO" -> "Ditmas Park West" [label ="1"];
"RAMBO" -> "Cobble Hill" [label ="1"];
"RAMBO" -> "East Williamsburg" [label ="4"];
"RAMBO" -> "Vinegar Hill" [label ="1"];
"RAMBO" -> "Bushwick" [label ="3"];
"RAMBO" -> "others" [label ="73"];
"RAMBO" -> "Weeksville" [label ="1"];
"Vinegar Hill" -> "Park Slope" [label ="1"];
"Vinegar Hill" -> "Williamsburg" [label ="1"];
"Vinegar Hill" -> "Greenwood Heights" [label ="1"];
"Vinegar Hill" -> "Southside (Williamsburg)" [label ="4"];
"Vinegar Hill" -> "Clinton Hill" [label ="1"];
"Vinegar Hill" -> "others" [label ="5"];
"Rego Park" -> "Forest Hills" [label ="14"];
"Rego Park" -> "Jamaica Center" [label ="3"];
"Rego Park" -> "Middle Village" [label ="5"];
"Rego Park" -> "Bensonhurst" [label ="1"];
"Rego Park" -> "Elmhurst" [label ="10"];
"Rego Park" -> "Flushing (Downtown)" [label ="5"];
"Rego Park" -> "North Corona" [label ="3"];
"Rego Park" -> "Brighton Beach" [label ="1"];
"Rego Park" -> "Bedford-Stuyvesant" [label ="1"];
"Rego Park" -> "Ozone Park" [label ="1"];
"Rego Park" -> "South Ozone Park" [label ="1"];
"Rego Park" -> "Rego Park" [label ="30"];
"Rego Park" -> "Crown Heights" [label ="1"];
"Rego Park" -> "Cypress Hills" [label ="1"];
"Rego Park" -> "Laurelton" [label ="1"];
"Rego Park" -> "Glendale" [label ="2"];
"Rego Park" -> "Woodhaven" [label ="3"];
"Rego Park" -> "Kew Gardens" [label ="1"];
"Rego Park" -> "Corona" [label ="1"];
"Rego Park" -> "Gravesend" [label ="1"];
"Rego Park" -> "Bushwick" [label ="1"];
"Rego Park" -> "others" [label ="66"];
"Bayside" -> "Bay Terrace" [label ="1"];
"Bayside" -> "Bayside" [label ="2"];
"Bayside" -> "Whitestone" [label ="1"];
"Bayside" -> "Richmond Hill" [label ="1"];
"Bayside" -> "Kew Gardens Hills" [label ="1"];
"Bayside" -> "others" [label ="4"];
"Bellerose (NYC)" -> "Bellerose (NYC)" [label ="1"];
"Rochdale" -> "others" [label ="1"];
"Rochdale" -> "Rochdale" [label ="2"];
"Rochdale" -> "South Jamaica" [label ="2"];
"Rochdale" -> "Jamaica Center" [label ="1"];
"Williamsburg" -> "Boerum Hill" [label ="8"];
"Williamsburg" -> "Forest Hills" [label ="3"];
"Williamsburg" -> "Northside (Williamsburg)" [label ="1"];
"Williamsburg" -> "Flatlands" [label ="1"];
"Williamsburg" -> "Fresh Pond" [label ="1"];
"Williamsburg" -> "Jamaica Hills" [label ="1"];
"Williamsburg" -> "Greenwood Heights" [label ="9"];
"Williamsburg" -> "Bensonhurst" [label ="2"];
"Williamsburg" -> "Carroll Gardens" [label ="7"];
"Williamsburg" -> "Clinton Hill" [label ="33"];
"Williamsburg" -> "North Corona" [label ="1"];
"Williamsburg" -> "Cobble Hill" [label ="12"];
"Williamsburg" -> "Downtown Brooklyn" [label ="17"];
"Williamsburg" -> "Madison" [label ="1"];
"Williamsburg" -> "Prospect Park South" [label ="4"];
"Williamsburg" -> "Homecrest" [label ="1"];
"Williamsburg" -> "Gowanus" [label ="22"];
"Williamsburg" -> "Fort Greene" [label ="33"];
"Williamsburg" -> "South Williamsburg" [label ="10"];
"Williamsburg" -> "Brighton Beach" [label ="1"];
"Williamsburg" -> "Flatbush" [label ="19"];
"Williamsburg" -> "Sheepshead Bay" [label ="1"];
"Williamsburg" -> "Bath Beach" [label ="1"];
"Williamsburg" -> "Weeksville" [label ="1"];
"Williamsburg" -> "Borough Park" [label ="2"];
"Williamsburg" -> "Mill Basin" [label ="1"];
"Williamsburg" -> "Park Slope" [label ="56"];
"Williamsburg" -> "RAMBO" [label ="8"];
"Williamsburg" -> "Vinegar Hill" [label ="1"];
"Williamsburg" -> "Bedford-Stuyvesant" [label ="85"];
"Williamsburg" -> "Rego Park" [label ="3"];
"Williamsburg" -> "Fresh Meadows" [label ="1"];
"Williamsburg" -> "Stuyvesant Heights" [label ="1"];
"Williamsburg" -> "Southside (Williamsburg)" [label ="132"];
"Williamsburg" -> "Cypress Hills" [label ="1"];
"Williamsburg" -> "Crown Heights" [label ="43"];
"Williamsburg" -> "Kensington & Parkville" [label ="6"];
"Williamsburg" -> "East Flatbush" [label ="1"];
"Williamsburg" -> "South Park Slope" [label ="11"];
"Williamsburg" -> "Williamsburg" [label ="132"];
"Williamsburg" -> "Gravesend" [label ="1"];
"Williamsburg" -> "Glendale" [label ="3"];
"Williamsburg" -> "Little Neck" [label ="1"];
"Williamsburg" -> "Windsor Terrace" [label ="5"];
"Williamsburg" -> "Mount Eden" [label ="1"];
"Williamsburg" -> "Ridgewood" [label ="7"];
"Williamsburg" -> "Prospect Heights" [label ="10"];
"Williamsburg" -> "Washington Heights" [label ="7"];
"Williamsburg" -> "Flushing" [label ="2"];
"Williamsburg" -> "Marine Park" [label ="2"];
"Williamsburg" -> "Dyker Heights" [label ="1"];
"Williamsburg" -> "Midwood" [label ="3"];
"Williamsburg" -> "Kew Gardens" [label ="1"];
"Williamsburg" -> "East Williamsburg" [label ="153"];
"Williamsburg" -> "Maspeth" [label ="8"];
"Williamsburg" -> "Briarwood" [label ="1"];
"Williamsburg" -> "Bushwick" [label ="68"];
"Williamsburg" -> "others" [label ="1220"];
"Williamsburg" -> "Elmhurst" [label ="10"];
"Bedford" -> "East Williamsburg" [label ="1"];
"Bedford" -> "Rego Park" [label ="1"];
"Bedford" -> "others" [label ="1"];
"Ridgewood" -> "Hillcrest" [label ="1"];
"Ridgewood" -> "Crown Heights" [label ="1"];
"Ridgewood" -> "Glendale" [label ="4"];
"Ridgewood" -> "Fresh Pond" [label ="1"];
"Ridgewood" -> "Fort Greene" [label ="1"];
"Ridgewood" -> "City Line" [label ="1"];
"Ridgewood" -> "Jamaica Center" [label ="1"];
"Ridgewood" -> "Greenwood Heights" [label ="1"];
"Ridgewood" -> "Flatbush" [label ="1"];
"Ridgewood" -> "Southside (Williamsburg)" [label ="3"];
"Ridgewood" -> "Elmhurst" [label ="1"];
"Ridgewood" -> "Bedford-Stuyvesant" [label ="1"];
"Ridgewood" -> "East Williamsburg" [label ="1"];
"Ridgewood" -> "Ridgewood" [label ="4"];
"Ridgewood" -> "Bushwick" [label ="6"];
"Ridgewood" -> "others" [label ="11"];
"Ridgewood" -> "Maspeth" [label ="2"];
"Clason Point" -> "Clason Point" [label ="1"];
"Borough Park" -> "Woodhaven" [label ="1"];
"Borough Park" -> "Bedford-Stuyvesant" [label ="1"];
"Borough Park" -> "Mapleton" [label ="1"];
"Borough Park" -> "Greenwood Heights" [label ="2"];
"Borough Park" -> "Bensonhurst" [label ="3"];
"Borough Park" -> "Bath Beach" [label ="1"];
"Borough Park" -> "others" [label ="5"];
"Borough Park" -> "Bergen Beach" [label ="1"];
"Borough Park" -> "Kensington & Parkville" [label ="1"];
"Borough Park" -> "Flatbush" [label ="1"];
"Borough Park" -> "Borough Park" [label ="22"];
"Spring Creek" -> "Spring Creek" [label ="4"];
"Boerum Hill" -> "Jamaica Center" [label ="1"];
"Boerum Hill" -> "Brownsville" [label ="1"];
"Boerum Hill" -> "Greenwood Heights" [label ="2"];
"Boerum Hill" -> "Bensonhurst" [label ="3"];
"Boerum Hill" -> "Carroll Gardens" [label ="5"];
"Boerum Hill" -> "Boerum Hill" [label ="14"];
"Boerum Hill" -> "Bergen Beach" [label ="1"];
"Boerum Hill" -> "Cobble Hill" [label ="10"];
"Boerum Hill" -> "Downtown Brooklyn" [label ="9"];
"Boerum Hill" -> "Gowanus" [label ="6"];
"Boerum Hill" -> "Fort Greene" [label ="14"];
"Boerum Hill" -> "Washington Heights" [label ="1"];
"Boerum Hill" -> "Flatbush" [label ="6"];
"Boerum Hill" -> "Bath Beach" [label ="2"];
"Boerum Hill" -> "Park Slope" [label ="29"];
"Boerum Hill" -> "Vinegar Hill" [label ="1"];
"Boerum Hill" -> "Southside (Williamsburg)" [label ="10"];
"Boerum Hill" -> "Bedford-Stuyvesant" [label ="12"];
"Boerum Hill" -> "Crown Heights" [label ="14"];
"Boerum Hill" -> "East New York" [label ="1"];
"Boerum Hill" -> "South Park Slope" [label ="2"];
"Boerum Hill" -> "Williamsburg" [label ="13"];
"Boerum Hill" -> "Coney Island" [label ="1"];
"Boerum Hill" -> "Canarsie" [label ="1"];
"Boerum Hill" -> "Windsor Terrace" [label ="1"];
"Boerum Hill" -> "Ridgewood" [label ="1"];
"Boerum Hill" -> "Prospect Heights" [label ="7"];
"Boerum Hill" -> "Midwood" [label ="1"];
"Boerum Hill" -> "East Williamsburg" [label ="18"];
"Boerum Hill" -> "Bushwick" [label ="10"];
"Boerum Hill" -> "others" [label ="185"];
"Boerum Hill" -> "Clinton Hill" [label ="8"];
"Hillcrest" -> "Hillcrest" [label ="1"];
"Hillcrest" -> "Glendale" [label ="1"];
"Hillcrest" -> "Elmhurst" [label ="1"];
"Hillcrest" -> "Richmond Hill" [label ="1"];
"Hillcrest" -> "Jamaica Estates" [label ="1"];
"Hillcrest" -> "others" [label ="2"];
"Queens Village" -> "Laurelton" [label ="1"];
"Queens Village" -> "Queens Village" [label ="1"];
"Queens Village" -> "Elmhurst" [label ="1"];
"Queens Village" -> "others" [label ="3"];
"Northside (Williamsburg)" -> "Washington Heights" [label ="1"];
"Northside (Williamsburg)" -> "Southside (Williamsburg)" [label ="3"];
"Northside (Williamsburg)" -> "East Williamsburg" [label ="1"];
"Northside (Williamsburg)" -> "others" [label ="5"];
"Bensonhurst" -> "others" [label ="3"];
"Bensonhurst" -> "Neponsit" [label ="1"];
"Bensonhurst" -> "Forest Hills" [label ="1"];
"Bensonhurst" -> "Canarsie" [label ="1"];
"Bensonhurst" -> "Brighton Beach" [label ="1"];
"Bensonhurst" -> "Greenwood Heights" [label ="1"];
"Bensonhurst" -> "Bath Beach" [label ="1"];
"Bensonhurst" -> "Marine Park" [label ="1"];
"Bensonhurst" -> "Clinton Hill" [label ="1"];
"Bensonhurst" -> "Gravesend" [label ="2"];
"Bensonhurst" -> "Madison" [label ="2"];
"Bensonhurst" -> "Borough Park" [label ="1"];
"Bronxwood" -> "Norwood" [label ="1"];
"Bronxwood" -> "Pelham Gardens" [label ="1"];
"Bronxwood" -> "Mount Eden" [label ="1"];
"Bronxwood" -> "Bronxwood" [label ="3"];
"Bronxwood" -> "Mount Hope" [label ="1"];
"Bronxwood" -> "others" [label ="1"];
"Remsen Village" -> "Canarsie" [label ="1"];
"Arverne" -> "Arverne" [label ="1"];
"Downtown Brooklyn" -> "Boerum Hill" [label ="4"];
"Downtown Brooklyn" -> "Soundview" [label ="1"];
"Downtown Brooklyn" -> "Forest Hills" [label ="2"];
"Downtown Brooklyn" -> "Jamaica Center" [label ="1"];
"Downtown Brooklyn" -> "Brownsville" [label ="1"];
"Downtown Brooklyn" -> "Bay Terrace" [label ="1"];
"Downtown Brooklyn" -> "Greenwood Heights" [label ="1"];
"Downtown Brooklyn" -> "Castle Hill" [label ="1"];
"Downtown Brooklyn" -> "Carroll Gardens" [label ="6"];
"Downtown Brooklyn" -> "Clinton Hill" [label ="20"];
"Downtown Brooklyn" -> "Flushing (Downtown)" [label ="1"];
"Downtown Brooklyn" -> "Cobble Hill" [label ="5"];
"Downtown Brooklyn" -> "Downtown Brooklyn" [label ="32"];
"Downtown Brooklyn" -> "Weeksville" [label ="4"];
"Downtown Brooklyn" -> "Elmhurst" [label ="1"];
"Downtown Brooklyn" -> "Homecrest" [label ="2"];
"Downtown Brooklyn" -> "Gowanus" [label ="7"];
"Downtown Brooklyn" -> "Fort Greene" [label ="37"];
"Downtown Brooklyn" -> "Washington Heights" [label ="2"];
"Downtown Brooklyn" -> "Brighton Beach" [label ="1"];
"Downtown Brooklyn" -> "Flatbush" [label ="11"];
"Downtown Brooklyn" -> "Flatlands" [label ="1"];
"Downtown Brooklyn" -> "Prospect Park South" [label ="1"];
"Downtown Brooklyn" -> "New Lots" [label ="2"];
"Downtown Brooklyn" -> "Borough Park" [label ="3"];
"Downtown Brooklyn" -> "Park Slope" [label ="34"];
"Downtown Brooklyn" -> "RAMBO" [label ="2"];
"Downtown Brooklyn" -> "Vinegar Hill" [label ="2"];
"Downtown Brooklyn" -> "Southside (Williamsburg)" [label ="21"];
"Downtown Brooklyn" -> "Bedford-Stuyvesant" [label ="37"];
"Downtown Brooklyn" -> "Rego Park" [label ="1"];
"Downtown Brooklyn" -> "Stuyvesant Heights" [label ="1"];
"Downtown Brooklyn" -> "Crown Heights" [label ="15"];
"Downtown Brooklyn" -> "Coney Island" [label ="1"];
"Downtown Brooklyn" -> "Kensington & Parkville" [label ="1"];
"Downtown Brooklyn" -> "Bensonhurst" [label ="1"];
"Downtown Brooklyn" -> "East Flatbush" [label ="1"];
"Downtown Brooklyn" -> "South Park Slope" [label ="3"];
"Downtown Brooklyn" -> "Williamsburg" [label ="33"];
"Downtown Brooklyn" -> "South Jamaica" [label ="1"];
"Downtown Brooklyn" -> "Canarsie" [label ="2"];
"Downtown Brooklyn" -> "Windsor Terrace" [label ="1"];
"Downtown Brooklyn" -> "Lindenwood" [label ="1"];
"Downtown Brooklyn" -> "Mount Eden" [label ="1"];
"Downtown Brooklyn" -> "Prospect Heights" [label ="3"];
"Downtown Brooklyn" -> "South Williamsburg" [label ="4"];
"Downtown Brooklyn" -> "others" [label ="556"];
"Downtown Brooklyn" -> "Midwood" [label ="1"];
"Downtown Brooklyn" -> "Corona" [label ="1"];
"Downtown Brooklyn" -> "East Williamsburg" [label ="23"];
"Downtown Brooklyn" -> "Parkchester" [label ="1"];
"Downtown Brooklyn" -> "Bushwick" [label ="11"];
"Downtown Brooklyn" -> "Dyker Heights" [label ="1"];
"Downtown Brooklyn" -> "Maspeth" [label ="3"];
"Springfield Gardens" -> "East Williamsburg" [label ="1"];
"Springfield Gardens" -> "Springfield Gardens" [label ="1"];
"Springfield Gardens" -> "Rochdale" [label ="1"];
"Springfield Gardens" -> "others" [label ="1"];
"North Corona" -> "Jamaica Hills" [label ="1"];
"North Corona" -> "Flushing (Downtown)" [label ="3"];
"North Corona" -> "Flushing" [label ="1"];
"North Corona" -> "Elmhurst" [label ="2"];
"North Corona" -> "Kew Gardens" [label ="1"];
"North Corona" -> "Corona" [label ="4"];
"North Corona" -> "Kew Gardens Hills" [label ="1"];
"North Corona" -> "North Corona" [label ="1"];
"North Corona" -> "others" [label ="22"];
"Weeksville" -> "Park Slope" [label ="1"];
"Weeksville" -> "Ocean Hill" [label ="1"];
"Weeksville" -> "Brownsville" [label ="2"];
"Weeksville" -> "Bedford-Stuyvesant" [label ="4"];
"Weeksville" -> "Greenwood Heights" [label ="1"];
"Weeksville" -> "Flatbush" [label ="1"];
"Weeksville" -> "East New York" [label ="1"];
"Weeksville" -> "Remsen Village" [label ="2"];
"Weeksville" -> "Springfield Gardens" [label ="1"];
"Weeksville" -> "East Flatbush" [label ="1"];
"Weeksville" -> "Bushwick" [label ="1"];
"Weeksville" -> "others" [label ="2"];
"Weeksville" -> "Weeksville" [label ="2"];
"Fort Greene" -> "Soundview" [label ="1"];
"Fort Greene" -> "Forest Hills" [label ="1"];
"Fort Greene" -> "Northside (Williamsburg)" [label ="1"];
"Fort Greene" -> "Brownsville" [label ="1"];
"Fort Greene" -> "Manhattan Beach" [label ="1"];
"Fort Greene" -> "Rochdale" [label ="1"];
"Fort Greene" -> "Middle Village" [label ="2"];
"Fort Greene" -> "Bay Terrace" [label ="1"];
"Fort Greene" -> "Greenwood Heights" [label ="7"];
"Fort Greene" -> "Carroll Gardens" [label ="4"];
"Fort Greene" -> "Laurel Hill" [label ="1"];
"Fort Greene" -> "Clinton Hill" [label ="31"];
"Fort Greene" -> "Remsen Village" [label ="1"];
"Fort Greene" -> "Cobble Hill" [label ="8"];
"Fort Greene" -> "Downtown Brooklyn" [label ="24"];
"Fort Greene" -> "Madison" [label ="1"];
"Fort Greene" -> "Weeksville" [label ="1"];
"Fort Greene" -> "Elmhurst" [label ="1"];
"Fort Greene" -> "Inwood" [label ="1"];
"Fort Greene" -> "Gowanus" [label ="11"];
"Fort Greene" -> "Fort Greene" [label ="48"];
"Fort Greene" -> "South Williamsburg" [label ="7"];
"Fort Greene" -> "South Jamaica" [label ="1"];
"Fort Greene" -> "Flatbush" [label ="10"];
"Fort Greene" -> "Bath Beach" [label ="1"];
"Fort Greene" -> "Concourse & Concourse Village" [label ="1"];
"Fort Greene" -> "Bedford Park" [label ="1"];
"Fort Greene" -> "Prospect Park South" [label ="1"];
"Fort Greene" -> "Borough Park" [label ="2"];
"Fort Greene" -> "Park Slope" [label ="35"];
"Fort Greene" -> "RAMBO" [label ="6"];
"Fort Greene" -> "Williamsburg" [label ="20"];
"Fort Greene" -> "Bedford-Stuyvesant" [label ="53"];
"Fort Greene" -> "Southside (Williamsburg)" [label ="27"];
"Fort Greene" -> "East New York" [label ="1"];
"Fort Greene" -> "Kensington & Parkville" [label ="7"];
"Fort Greene" -> "Vinegar Hill" [label ="5"];
"Fort Greene" -> "Co-Op City" [label ="1"];
"Fort Greene" -> "University Heights" [label ="1"];
"Fort Greene" -> "South Park Slope" [label ="6"];
"Fort Greene" -> "Crown Heights" [label ="26"];
"Fort Greene" -> "Glendale" [label ="1"];
"Fort Greene" -> "Coney Island" [label ="1"];
"Fort Greene" -> "Woodhaven" [label ="1"];
"Fort Greene" -> "Canarsie" [label ="2"];
"Fort Greene" -> "Windsor Terrace" [label ="3"];
"Fort Greene" -> "Ridgewood" [label ="1"];
"Fort Greene" -> "Prospect Heights" [label ="6"];
"Fort Greene" -> "Washington Heights" [label ="1"];
"Fort Greene" -> "Dyker Heights" [label ="1"];
"Fort Greene" -> "Midwood" [label ="1"];
"Fort Greene" -> "Kew Gardens" [label ="1"];
"Fort Greene" -> "East Williamsburg" [label ="37"];
"Fort Greene" -> "Maspeth" [label ="1"];
"Fort Greene" -> "Bushwick" [label ="14"];
"Fort Greene" -> "others" [label ="533"];
"Fort Greene" -> "Boerum Hill" [label ="5"];
"Concourse & Concourse Village" -> "Soundview" [label ="3"];
"Concourse & Concourse Village" -> "Laconia" [label ="1"];
"Concourse & Concourse Village" -> "Glendale" [label ="1"];
"Concourse & Concourse Village" -> "Melrose" [label ="2"];
"Concourse & Concourse Village" -> "Washington Heights" [label ="4"];
"Concourse & Concourse Village" -> "East Tremont" [label ="1"];
"Concourse & Concourse Village" -> "Jamaica Center" [label ="1"];
"Concourse & Concourse Village" -> "Highbridge" [label ="3"];
"Concourse & Concourse Village" -> "Mount Eden" [label ="2"];
"Concourse & Concourse Village" -> "Flatbush" [label ="1"];
"Concourse & Concourse Village" -> "Crown Heights" [label ="1"];
"Concourse & Concourse Village" -> "Concourse & Concourse Village" [label ="6"];
"Concourse & Concourse Village" -> "Eastchester" [label ="1"];
"Concourse & Concourse Village" -> "Bronxwood" [label ="1"];
"Concourse & Concourse Village" -> "Kingsbridge Heights" [label ="1"];
"Concourse & Concourse Village" -> "Morrisania" [label ="2"];
"Concourse & Concourse Village" -> "others" [label ="40"];
"Concourse & Concourse Village" -> "Inwood" [label ="1"];
"Co-Op City" -> "Co-Op City" [label ="1"];
"Pelham Gardens" -> "others" [label ="2"];
"Highbridge" -> "Co-Op City" [label ="1"];
"Highbridge" -> "Washington Heights" [label ="1"];
"Highbridge" -> "Highbridge" [label ="13"];
"Highbridge" -> "Mount Eden" [label ="1"];
"Highbridge" -> "Williamsbridge" [label ="1"];
"Highbridge" -> "others" [label ="7"];
"Crown Heights" -> "Forest Hills" [label ="2"];
"Crown Heights" -> "Auburndale" [label ="1"];
"Crown Heights" -> "Greenwood Heights" [label ="6"];
"Crown Heights" -> "Bensonhurst" [label ="1"];
"Crown Heights" -> "Boerum Hill" [label ="5"];
"Crown Heights" -> "Ditmas Park West" [label ="1"];
"Crown Heights" -> "Cobble Hill" [label ="4"];
"Crown Heights" -> "Downtown Brooklyn" [label ="4"];
"Crown Heights" -> "Prospect Park South" [label ="2"];
"Crown Heights" -> "Elmhurst" [label ="1"];
"Crown Heights" -> "Kew Gardens Hills" [label ="1"];
"Crown Heights" -> "Gowanus" [label ="2"];
"Crown Heights" -> "Fort Greene" [label ="7"];
"Crown Heights" -> "South Williamsburg" [label ="4"];
"Crown Heights" -> "Brighton Beach" [label ="1"];
"Crown Heights" -> "Flatbush" [label ="16"];
"Crown Heights" -> "Weeksville" [label ="2"];
"Crown Heights" -> "Borough Park" [label ="1"];
"Crown Heights" -> "Park Slope" [label ="26"];
"Crown Heights" -> "RAMBO" [label ="1"];
"Crown Heights" -> "Williamsburg" [label ="8"];
"Crown Heights" -> "Bedford-Stuyvesant" [label ="25"];
"Crown Heights" -> "Rego Park" [label ="1"];
"Crown Heights" -> "Southside (Williamsburg)" [label ="8"];
"Crown Heights" -> "Crown Heights" [label ="25"];
"Crown Heights" -> "Kensington & Parkville" [label ="4"];
"Crown Heights" -> "East Flatbush" [label ="3"];
"Crown Heights" -> "South Park Slope" [label ="2"];
"Crown Heights" -> "Vinegar Hill" [label ="2"];
"Crown Heights" -> "Canarsie" [label ="1"];
"Crown Heights" -> "Ridgewood" [label ="2"];
"Crown Heights" -> "Prospect Heights" [label ="7"];
"Crown Heights" -> "Washington Heights" [label ="1"];
"Crown Heights" -> "Flushing" [label ="2"];
"Crown Heights" -> "East Williamsburg" [label ="13"];
"Crown Heights" -> "Bushwick" [label ="5"];
"Crown Heights" -> "others" [label ="123"];
"Crown Heights" -> "Clinton Hill" [label ="12"];
"Corona" -> "Hillcrest" [label ="1"];
"Corona" -> "College Point" [label ="1"];
"Corona" -> "Forest Hills" [label ="2"];
"Corona" -> "Richmond Hill" [label ="2"];
"Corona" -> "Borough Park" [label ="1"];
"Corona" -> "Jamaica Center" [label ="1"];
"Corona" -> "Washington Heights" [label ="2"];
"Corona" -> "Ridgewood" [label ="1"];
"Corona" -> "Melrose" [label ="1"];
"Corona" -> "Flushing" [label ="2"];
"Corona" -> "Elmhurst" [label ="9"];
"Corona" -> "Flushing (Downtown)" [label ="3"];
"Corona" -> "Clearview" [label ="1"];
"Corona" -> "Corona" [label ="8"];
"Corona" -> "Flatbush" [label ="1"];
"Corona" -> "North Corona" [label ="3"];
"Corona" -> "others" [label ="35"];
"East Flatbush" -> "Bedford-Stuyvesant" [label ="1"];
"East Flatbush" -> "Flatbush" [label ="2"];
"East Flatbush" -> "East Williamsburg" [label ="1"];
"East Flatbush" -> "Weeksville" [label ="1"];
"East Flatbush" -> "East Flatbush" [label ="3"];
"East Flatbush" -> "others" [label ="2"];
"East Flatbush" -> "Prospect Park South" [label ="1"];
"University Heights" -> "Co-Op City" [label ="1"];
"University Heights" -> "Fordham" [label ="1"];
"University Heights" -> "Washington Heights" [label ="1"];
"University Heights" -> "Castle Hill" [label ="1"];
"University Heights" -> "Inwood" [label ="3"];
"University Heights" -> "Wakefield" [label ="1"];
"University Heights" -> "University Heights" [label ="1"];
"University Heights" -> "others" [label ="9"];
"University Heights" -> "Morris Heights" [label ="1"];
"Gravesend" -> "Sheepshead Bay" [label ="1"];
"Gravesend" -> "Gravesend" [label ="2"];
"Gravesend" -> "Bensonhurst" [label ="1"];
"Gravesend" -> "Homecrest" [label ="2"];
"Gravesend" -> "Brighton Beach" [label ="1"];
"Glendale" -> "Forest Hills" [label ="1"];
"Glendale" -> "Glendale" [label ="3"];
"Glendale" -> "Fort Greene" [label ="1"];
"Glendale" -> "Fresh Pond" [label ="1"];
"Glendale" -> "Middle Village" [label ="2"];
"Glendale" -> "Rego Park" [label ="3"];
"Glendale" -> "Ridgewood" [label ="2"];
"Glendale" -> "Elmhurst" [label ="2"];
"Glendale" -> "Clearview" [label ="1"];
"Glendale" -> "Richmond Hill" [label ="1"];
"Glendale" -> "Bushwick" [label ="1"];
"Glendale" -> "others" [label ="2"];
"Glendale" -> "Maspeth" [label ="1"];
"Gowanus" -> "Middle Village" [label ="1"];
"Gowanus" -> "Stuyvesant Heights" [label ="1"];
"Gowanus" -> "Greenwood Heights" [label ="8"];
"Gowanus" -> "Bensonhurst" [label ="1"];
"Gowanus" -> "Kensington & Parkville" [label ="4"];
"Gowanus" -> "Carroll Gardens" [label ="8"];
"Gowanus" -> "Clinton Hill" [label ="7"];
"Gowanus" -> "Cobble Hill" [label ="6"];
"Gowanus" -> "Downtown Brooklyn" [label ="10"];
"Gowanus" -> "Prospect Park South" [label ="4"];
"Gowanus" -> "Morris Park" [label ="1"];
"Gowanus" -> "Farragut" [label ="1"];
"Gowanus" -> "Fort Greene" [label ="12"];
"Gowanus" -> "South Williamsburg" [label ="1"];
"Gowanus" -> "Flatbush" [label ="5"];
"Gowanus" -> "Sheepshead Bay" [label ="1"];
"Gowanus" -> "Bath Beach" [label ="1"];
"Gowanus" -> "Washington Heights" [label ="3"];
"Gowanus" -> "Weeksville" [label ="1"];
"Gowanus" -> "Borough Park" [label ="1"];
"Gowanus" -> "Park Slope" [label ="43"];
"Gowanus" -> "Bedford-Stuyvesant" [label ="21"];
"Gowanus" -> "Southside (Williamsburg)" [label ="17"];
"Gowanus" -> "Crown Heights" [label ="12"];
"Gowanus" -> "Plumb Beach" [label ="1"];
"Gowanus" -> "East Flatbush" [label ="1"];
"Gowanus" -> "South Park Slope" [label ="5"];
"Gowanus" -> "Williamsburg" [label ="7"];
"Gowanus" -> "Gowanus" [label ="24"];
"Gowanus" -> "Windsor Terrace" [label ="3"];
"Gowanus" -> "Ridgewood" [label ="1"];
"Gowanus" -> "Prospect Heights" [label ="11"];
"Gowanus" -> "Melrose" [label ="1"];
"Gowanus" -> "Midwood" [label ="2"];
"Gowanus" -> "Kew Gardens" [label ="1"];
"Gowanus" -> "East Williamsburg" [label ="15"];
"Gowanus" -> "Gravesend" [label ="1"];
"Gowanus" -> "Bushwick" [label ="11"];
"Gowanus" -> "others" [label ="233"];
"Gowanus" -> "Boerum Hill" [label ="14"];
"Woodhaven" -> "Forest Hills" [label ="2"];
"Woodhaven" -> "Glendale" [label ="1"];
"Woodhaven" -> "Jamaica Center" [label ="1"];
"Woodhaven" -> "South Ozone Park" [label ="1"];
"Woodhaven" -> "Flushing" [label ="1"];
"Woodhaven" -> "Ridgewood" [label ="1"];
"Woodhaven" -> "East New York" [label ="1"];
"Woodhaven" -> "Cypress Hills" [label ="2"];
"Woodhaven" -> "others" [label ="8"];
"Woodhaven" -> "Midwood" [label ="1"];
"Woodhaven" -> "Ozone Park" [label ="1"];
"Woodhaven" -> "Elmhurst" [label ="1"];
"Fordham" -> "Morrisania" [label ="1"];
"Fordham" -> "Kingsbridge Heights" [label ="1"];
"Fordham" -> "Fordham" [label ="6"];
"Fordham" -> "Washington Heights" [label ="2"];
"Fordham" -> "Belmont" [label ="1"];
"Fordham" -> "Van Nest" [label ="1"];
"Fordham" -> "Mount Hope" [label ="1"];
"Fordham" -> "others" [label ="6"];
"Fordham" -> "Morris Heights" [label ="1"];
"Melrose" -> "Soundview" [label ="1"];
"Melrose" -> "Morrisania" [label ="3"];
"Melrose" -> "Morris Park" [label ="1"];
"Melrose" -> "Washington Heights" [label ="2"];
"Melrose" -> "Concourse & Concourse Village" [label ="2"];
"Melrose" -> "Crotona" [label ="3"];
"Melrose" -> "Highbridge" [label ="2"];
"Melrose" -> "Castle Hill" [label ="1"];
"Melrose" -> "Melrose" [label ="1"];
"Melrose" -> "Mount Hope" [label ="1"];
"Melrose" -> "Foxhurst (East Morrisania)" [label ="1"];
"Melrose" -> "University Heights" [label ="1"];
"Melrose" -> "others" [label ="20"];
"Marine Park" -> "Marine Park" [label ="1"];
"Marine Park" -> "Rockaway Park" [label ="1"];
"Marine Park" -> "Flatbush" [label ="1"];
"others" -> "North Bellerose" [label ="4"];
"others" -> "Pomonock" [label ="2"];
"others" -> "Forest Hills" [label ="537"];
"others" -> "Kingsbridge Heights" [label ="117"];
"others" -> "Westmoreland" [label ="4"];
"others" -> "Jamaica Center" [label ="155"];
"others" -> "Saint Albans" [label ="16"];
"others" -> "Auburndale" [label ="56"];
"others" -> "Middle Village" [label ="177"];
"others" -> "Jamaica Hills" [label ="25"];
"others" -> "Greenwood Heights" [label ="204"];
"others" -> "New Lots" [label ="26"];
"others" -> "Clinton Hill" [label ="639"];
"others" -> "Van Nest" [label ="27"];
"others" -> "Flushing (Downtown)" [label ="167"];
"others" -> "Rosedale" [label ="25"];
"others" -> "Kew Gardens Hills" [label ="83"];
"others" -> "Prospect Park South" [label ="115"];
"others" -> "College Point" [label ="66"];
"others" -> "Willets Point" [label ="5"];
"others" -> "South Jamaica" [label ="92"];
"others" -> "Flatlands" [label ="46"];
"others" -> "Washington Heights" [label ="3017"];
"others" -> "Glen Oaks" [label ="19"];
"others" -> "Clearview" [label ="25"];
"others" -> "Gerritsen Beach" [label ="4"];
"others" -> "Cambria Heights" [label ="18"];
"others" -> "Manhattan Beach" [label ="9"];
"others" -> "Ozone Park" [label ="99"];
"others" -> "Williamsburg" [label ="1212"];
"others" -> "Belmont" [label ="50"];
"others" -> "Schuylerville" [label ="15"];
"others" -> "Hollis Park Gardens" [label ="3"];
"others" -> "Fresh Meadows" [label ="32"];
"others" -> "Sea Gate" [label ="4"];
"others" -> "Southside (Williamsburg)" [label ="1677"];
"others" -> "Cypress Hills" [label ="16"];
"others" -> "East New York" [label ="72"];
"others" -> "Plumb Beach" [label ="8"];
"others" -> "Kingsbridge" [label ="66"];
"others" -> "Mount Hope" [label ="70"];
"others" -> "South Park Slope" [label ="170"];
"others" -> "Longwood" [label ="40"];
"others" -> "Morris Park" [label ="74"];
"others" -> "Coney Island" [label ="38"];
"others" -> "Little Neck Hills" [label ="5"];
"others" -> "Beechhurst" [label ="18"];
"others" -> "Canarsie" [label ="45"];
"others" -> "City Island (Bronx, NYC)" [label ="2"];
"others" -> "Flushing" [label ="204"];
"others" -> "Douglaston" [label ="24"];
"others" -> "Oakland Gardens" [label ="22"];
"others" -> "Prospect Heights" [label ="381"];
"others" -> "Bushwick" [label ="858"];
"others" -> "Morris Heights" [label ="86"];
"others" -> "Soundview" [label ="127"];
"others" -> "Bergen Beach" [label ="18"];
"others" -> "Pelham Bay" [label ="66"];
"others" -> "Brownsville" [label ="25"];
"others" -> "Bay Terrace" [label ="39"];
"others" -> "Bellerose Manor" [label ="14"];
"others" -> "Williamsbridge" [label ="19"];
"others" -> "Carroll Gardens" [label ="354"];
"others" -> "Laurel Hill" [label ="12"];
"others" -> "Elmhurst" [label ="726"];
"others" -> "Whitestone" [label ="48"];
"others" -> "Cobble Hill" [label ="426"];
"others" -> "Hollis" [label ="20"];
"others" -> "Howard Beach" [label ="25"];
"others" -> "Locust Point" [label ="2"];
"others" -> "Inwood" [label ="405"];
"others" -> "Homecrest" [label ="46"];
"others" -> "Gowanus" [label ="345"];
"others" -> "Olinville" [label ="14"];
"others" -> "South Williamsburg" [label ="159"];
"others" -> "Crotona" [label ="25"];
"others" -> "Castle Hill" [label ="48"];
"others" -> "Bath Beach" [label ="68"];
"others" -> "Clason Point" [label ="4"];
"others" -> "Bedford-Stuyvesant" [label ="1285"];
"others" -> "Broad Channel Island" [label ="5"];
"others" -> "Hunts Point" [label ="25"];
"others" -> "Spuyten Duyvil" [label ="109"];
"others" -> "Ocean Hill" [label ="17"];
"others" -> "South Ozone Park" [label ="80"];
"others" -> "White Sands" [label ="1"];
"others" -> "West Farms" [label ="40"];
"others" -> "Morrisania" [label ="66"];
"others" -> "Kensington & Parkville" [label ="232"];
"others" -> "Unionport" [label ="2"];
"others" -> "Holliswood" [label ="17"];
"others" -> "Fieldston" [label ="36"];
"others" -> "Vinegar Hill" [label ="54"];
"others" -> "Rockaway Park" [label ="5"];
"others" -> "Silver Beach" [label ="4"];
"others" -> "Little Neck" [label ="13"];
"others" -> "Bronxdale" [label ="45"];
"others" -> "Marble Hill (Manhattan, NYC)" [label ="23"];
"others" -> "Mount Eden" [label ="107"];
"others" -> "Eastchester" [label ="15"];
"others" -> "Corona" [label ="192"];
"others" -> "East Williamsburg" [label ="1725"];
"others" -> "Parkchester" [label ="102"];
"others" -> "Foxhurst (East Morrisania)" [label ="31"];
"others" -> "Riverdale" [label ="238"];
"others" -> "Fresh Pond" [label ="72"];
"others" -> "Linden Hill" [label ="22"];
"others" -> "Edgewater Park" [label ="5"];
"others" -> "Stuyvesant Heights" [label ="4"];
"others" -> "Brighton Beach" [label ="32"];
"others" -> "Westchester Heights" [label ="18"];
"others" -> "Ditmas Park West" [label ="31"];
"others" -> "Wakefield" [label ="41"];
"others" -> "Madison" [label ="21"];
"others" -> "Morris Park" [label ="21"];
"others" -> "Throggs Neck" [label ="21"];
"others" -> "Locust Manor" [label ="6"];
"others" -> "Rego Park Crescents" [label ="15"];
"others" -> "Flatbush" [label ="493"];
"others" -> "Bayswater" [label ="7"];
"others" -> "North Woodmere (Woodmere, NY)" [label ="2"];
"others" -> "South Richmond Hill" [label ="26"];
"others" -> "Woodlawn" [label ="77"];
"others" -> "Far Rockaway" [label ="14"];
"others" -> "Park Slope" [label ="1520"];
"others" -> "Laconia" [label ="8"];
"others" -> "RAMBO" [label ="74"];
"others" -> "Rego Park" [label ="361"];
"others" -> "Bayside" [label ="92"];
"others" -> "Bellerose (NYC)" [label ="10"];
"others" -> "Rockaway Beach" [label ="8"];
"others" -> "Norwood" [label ="67"];
"others" -> "Hollis Hills" [label ="13"];
"others" -> "Brookville" [label ="9"];
"others" -> "Utopia" [label ="14"];
"others" -> "Arverne" [label ="1"];
"others" -> "Ridgewood" [label ="166"];
"others" -> "Borough Park" [label ="116"];
"others" -> "Bowne Park" [label ="13"];
"others" -> "Boerum Hill" [label ="251"];
"others" -> "Hillcrest" [label ="55"];
"others" -> "Queens Village" [label ="37"];
"others" -> "Baisley Park" [label ="1"];
"others" -> "Northside (Williamsburg)" [label ="3"];
"others" -> "Baychester" [label ="13"];
"others" -> "Bedford Park" [label ="92"];
"others" -> "Bensonhurst" [label ="150"];
"others" -> "Bronxwood" [label ="42"];
"others" -> "Remsen Village" [label ="30"];
"others" -> "Lindenwood" [label ="21"];
"others" -> "Downtown Brooklyn" [label ="850"];
"others" -> "Springfield Gardens" [label ="41"];
"others" -> "North Corona" [label ="169"];
"others" -> "Farragut" [label ="13"];
"others" -> "Jamaica Estates" [label ="31"];
"others" -> "Fort Greene" [label ="704"];
"others" -> "Concourse & Concourse Village" [label ="174"];
"others" -> "Spring Creek" [label ="14"];
"others" -> "Weeksville" [label ="64"];
"others" -> "Mill Basin" [label ="14"];
"others" -> "Neponsit" [label ="1"];
"others" -> "Co-Op City" [label ="42"];
"others" -> "Pelham Gardens" [label ="21"];
"others" -> "Highbridge" [label ="97"];
"others" -> "Mapleton" [label ="37"];
"others" -> "Crown Heights" [label ="856"];
"others" -> "Sheepshead Bay" [label ="75"];
"others" -> "East Flatbush" [label ="100"];
"others" -> "University Heights" [label ="71"];
"others" -> "Belle Harbor" [label ="9"];
"others" -> "Gravesend" [label ="116"];
"others" -> "Glendale" [label ="64"];
"others" -> "Rochdale" [label ="22"];
"others" -> "Laurelton" [label ="17"];
"others" -> "Woodhaven" [label ="74"];
"others" -> "Fordham" [label ="87"];
"others" -> "City Line" [label ="21"];
"others" -> "Windsor Terrace" [label ="150"];
"others" -> "Malba" [label ="3"];
"others" -> "Melrose" [label ="128"];
"others" -> "Marine Park" [label ="31"];
"others" -> "Dyker Heights" [label ="44"];
"others" -> "Midwood" [label ="196"];
"others" -> "Kew Gardens" [label ="135"];
"others" -> "Richmond Hill" [label ="57"];
"others" -> "East Tremont" [label ="28"];
"others" -> "Briarwood" [label ="81"];
"others" -> "others" [label ="357825"];
"others" -> "Maspeth" [label ="299"];
"Midwood" -> "Park Slope" [label ="1"];
"Midwood" -> "Flatlands" [label ="1"];
"Midwood" -> "Greenwood Heights" [label ="1"];
"Midwood" -> "Bensonhurst" [label ="1"];
"Midwood" -> "Bath Beach" [label ="2"];
"Midwood" -> "Marine Park" [label ="1"];
"Midwood" -> "Boerum Hill" [label ="1"];
"Midwood" -> "Midwood" [label ="11"];
"Midwood" -> "Kensington & Parkville" [label ="1"];
"Midwood" -> "Gravesend" [label ="1"];
"Midwood" -> "Cambria Heights" [label ="1"];
"Midwood" -> "Madison" [label ="1"];
"Midwood" -> "others" [label ="5"];
"Kew Gardens" -> "Hillcrest" [label ="1"];
"Kew Gardens" -> "Forest Hills" [label ="3"];
"Kew Gardens" -> "Briarwood" [label ="2"];
"Kew Gardens" -> "South Ozone Park" [label ="1"];
"Kew Gardens" -> "Fresh Meadows" [label ="1"];
"Kew Gardens" -> "Elmhurst" [label ="1"];
"Kew Gardens" -> "Kew Gardens" [label ="6"];
"Kew Gardens" -> "Richmond Hill" [label ="3"];
"Kew Gardens" -> "Jamaica Estates" [label ="1"];
"Kew Gardens" -> "others" [label ="9"];
"Richmond Hill" -> "Forest Hills" [label ="2"];
"Richmond Hill" -> "South Jamaica" [label ="1"];
"Richmond Hill" -> "South Ozone Park" [label ="1"];
"Richmond Hill" -> "Ozone Park" [label ="2"];
"Richmond Hill" -> "Elmhurst" [label ="1"];
"Richmond Hill" -> "Richmond Hill" [label ="19"];
"Richmond Hill" -> "Hollis" [label ="1"];
"Richmond Hill" -> "others" [label ="2"];
"East Tremont" -> "Olinville" [label ="1"];
"East Tremont" -> "East Tremont" [label ="2"];
"East Tremont" -> "Wakefield" [label ="1"];
"East Tremont" -> "others" [label ="3"];
"Briarwood" -> "South Ozone Park" [label ="1"];
"Briarwood" -> "Briarwood" [label ="1"];
"Briarwood" -> "others" [label ="3"];
"Dyker Heights" -> "Crown Heights" [label ="1"];
"Dyker Heights" -> "Bath Beach" [label ="2"];
"Dyker Heights" -> "others" [label ="1"];
"Dyker Heights" -> "Bensonhurst" [label ="1"];
"Maspeth" -> "Williamsburg" [label ="3"];
"Maspeth" -> "Fresh Pond" [label ="1"];
"Maspeth" -> "Vinegar Hill" [label ="1"];
"Maspeth" -> "Bedford-Stuyvesant" [label ="1"];
"Maspeth" -> "Jamaica Center" [label ="1"];
"Maspeth" -> "Middle Village" [label ="3"];
"Maspeth" -> "Crown Heights" [label ="1"];
"Maspeth" -> "Flushing" [label ="1"];
"Maspeth" -> "Elmhurst" [label ="4"];
"Maspeth" -> "Flushing (Downtown)" [label ="1"];
"Maspeth" -> "Corona" [label ="1"];
"Maspeth" -> "East Williamsburg" [label ="8"];
"Maspeth" -> "Bushwick" [label ="5"];
"Maspeth" -> "others" [label ="33"];
"Maspeth" -> "Maspeth" [label ="15"];
}