digraph G {
"Turtle Bay" -> "Midtown (North Central)" [label ="1609"];
"Turtle Bay" -> "Yorkville" [label ="1751"];
"Turtle Bay" -> "others" [label ="2129"];
"Chelsea" -> "Theatre District" [label ="1977"];
"Chelsea" -> "Chelsea" [label ="4248"];
"Chelsea" -> "Greenwich Village" [label ="2545"];
"Chelsea" -> "Hell's Kitchen (Clinton)" [label ="3335"];
"Chelsea" -> "Flatiron District" [label ="1960"];
"Chelsea" -> "Midtown (North Central)" [label ="3629"];
"Chelsea" -> "Midtown (South Central)" [label ="2199"];
"Chelsea" -> "others" [label ="3500"];
"Lincoln Square" -> "Midtown (North Central)" [label ="2089"];
"Lincoln Square" -> "Upper West Side" [label ="2529"];
"Greenwich Village" -> "Chelsea" [label ="2775"];
"Greenwich Village" -> "Greenwich Village" [label ="2807"];
"Greenwich Village" -> "Midtown (North Central)" [label ="1736"];
"Greenwich Village" -> "others" [label ="2930"];
"SoHo" -> "others" [label ="1758"];
"Hell's Kitchen (Clinton)" -> "Theatre District" [label ="2325"];
"Hell's Kitchen (Clinton)" -> "Chelsea" [label ="2939"];
"Hell's Kitchen (Clinton)" -> "Hell's Kitchen (Clinton)" [label ="4298"];
"Hell's Kitchen (Clinton)" -> "Midtown (North Central)" [label ="3666"];
"Hell's Kitchen (Clinton)" -> "others" [label ="3564"];
"Lenox Hill" -> "Midtown (North Central)" [label ="3637"];
"Lenox Hill" -> "Yorkville" [label ="6231"];
"Lenox Hill" -> "Lenox Hill" [label ="3534"];
"Lenox Hill" -> "others" [label ="2916"];
"East Village" -> "others" [label ="1706"];
"Flatiron District" -> "Chelsea" [label ="2075"];
"Flatiron District" -> "Midtown (North Central)" [label ="1636"];
"Flatiron District" -> "others" [label ="2039"];
"Midtown (North Central)" -> "Theatre District" [label ="2322"];
"Midtown (North Central)" -> "Chelsea" [label ="2785"];
"Midtown (North Central)" -> "Lincoln Square" [label ="1584"];
"Midtown (North Central)" -> "Greenwich Village" [label ="1585"];
"Midtown (North Central)" -> "Hell's Kitchen (Clinton)" [label ="3598"];
"Midtown (North Central)" -> "Lenox Hill" [label ="2882"];
"Midtown (North Central)" -> "Flatiron District" [label ="1727"];
"Midtown (North Central)" -> "Midtown (North Central)" [label ="5699"];
"Midtown (North Central)" -> "Yorkville" [label ="3915"];
"Midtown (North Central)" -> "Midtown (South Central)" [label ="2782"];
"Midtown (North Central)" -> "Upper West Side" [label ="1921"];
"Midtown (North Central)" -> "others" [label ="5879"];
"Yorkville" -> "Midtown (North Central)" [label ="4105"];
"Yorkville" -> "East (Spanish) Harlem" [label ="1797"];
"Yorkville" -> "Yorkville" [label ="6710"];
"Yorkville" -> "Carnegie Hill" [label ="2185"];
"Yorkville" -> "Lenox Hill" [label ="4561"];
"Yorkville" -> "Upper West Side" [label ="2172"];
"Yorkville" -> "others" [label ="3496"];
"Carnegie Hill" -> "Yorkville" [label ="1944"];
"Theatre District" -> "Chelsea" [label ="1871"];
"Theatre District" -> "Hell's Kitchen (Clinton)" [label ="3645"];
"Theatre District" -> "Midtown (North Central)" [label ="2749"];
"Theatre District" -> "others" [label ="3269"];
"Midtown (South Central)" -> "Chelsea" [label ="1696"];
"Midtown (South Central)" -> "Hell's Kitchen (Clinton)" [label ="1577"];
"Midtown (South Central)" -> "Midtown (North Central)" [label ="2688"];
"Midtown (South Central)" -> "Midtown (South Central)" [label ="1546"];
"Midtown (South Central)" -> "others" [label ="2651"];
"Upper West Side" -> "Lincoln Square" [label ="2375"];
"Upper West Side" -> "Midtown (North Central)" [label ="1900"];
"Upper West Side" -> "Yorkville" [label ="2234"];
"Upper West Side" -> "Upper West Side" [label ="6187"];
"Upper West Side" -> "others" [label ="2055"];
"others" -> "Midtown (North Central)" [label ="4732"];
"others" -> "Theatre District" [label ="2316"];
"others" -> "Chelsea" [label ="2334"];
"others" -> "Greenwich Village" [label ="1565"];
"others" -> "Hell's Kitchen (Clinton)" [label ="2227"];
"others" -> "Turtle Bay" [label ="1597"];
"others" -> "Lenox Hill" [label ="1820"];
"others" -> "Midtown (South Central)" [label ="1909"];
"others" -> "Yorkville" [label ="2279"];
"others" -> "Upper West Side" [label ="1897"];
"others" -> "others" [label ="17819"];
}