digraph G {
"Turtle Bay" -> "others" [label ="1774"];
"Chelsea" -> "Chelsea" [label ="3640"];
"Chelsea" -> "Greenwich Village" [label ="2307"];
"Chelsea" -> "Hell's Kitchen (Clinton)" [label ="3201"];
"Chelsea" -> "Flatiron District" [label ="1774"];
"Chelsea" -> "Midtown (North Central)" [label ="3248"];
"Chelsea" -> "Theatre District" [label ="1785"];
"Chelsea" -> "Midtown (South Central)" [label ="2063"];
"Chelsea" -> "others" [label ="3172"];
"Lincoln Square" -> "Midtown (North Central)" [label ="1783"];
"Lincoln Square" -> "Upper West Side" [label ="2180"];
"Greenwich Village" -> "Chelsea" [label ="2364"];
"Greenwich Village" -> "Greenwich Village" [label ="2261"];
"Greenwich Village" -> "Midtown (North Central)" [label ="1571"];
"Greenwich Village" -> "others" [label ="2624"];
"SoHo" -> "others" [label ="1667"];
"Hell's Kitchen (Clinton)" -> "Chelsea" [label ="2476"];
"Hell's Kitchen (Clinton)" -> "Hell's Kitchen (Clinton)" [label ="4035"];
"Hell's Kitchen (Clinton)" -> "Midtown (North Central)" [label ="3623"];
"Hell's Kitchen (Clinton)" -> "Theatre District" [label ="2244"];
"Hell's Kitchen (Clinton)" -> "others" [label ="2875"];
"Lenox Hill" -> "Midtown (North Central)" [label ="3281"];
"Lenox Hill" -> "Yorkville" [label ="4439"];
"Lenox Hill" -> "Lenox Hill" [label ="3086"];
"Lenox Hill" -> "others" [label ="2463"];
"East Village" -> "others" [label ="1545"];
"Flatiron District" -> "Chelsea" [label ="1717"];
"Flatiron District" -> "others" [label ="1850"];
"Midtown (North Central)" -> "Theatre District" [label ="2185"];
"Midtown (North Central)" -> "Chelsea" [label ="2619"];
"Midtown (North Central)" -> "Lincoln Square" [label ="1571"];
"Midtown (North Central)" -> "Hell's Kitchen (Clinton)" [label ="3579"];
"Midtown (North Central)" -> "Flatiron District" [label ="1721"];
"Midtown (North Central)" -> "Midtown (North Central)" [label ="5112"];
"Midtown (North Central)" -> "Greenwich Village" [label ="1542"];
"Midtown (North Central)" -> "Yorkville" [label ="3749"];
"Midtown (North Central)" -> "Lenox Hill" [label ="2866"];
"Midtown (North Central)" -> "Midtown (South Central)" [label ="2716"];
"Midtown (North Central)" -> "Upper West Side" [label ="1978"];
"Midtown (North Central)" -> "others" [label ="5263"];
"Yorkville" -> "Lenox Hill" [label ="3925"];
"Yorkville" -> "Midtown (North Central)" [label ="3546"];
"Yorkville" -> "Yorkville" [label ="5717"];
"Yorkville" -> "Carnegie Hill" [label ="1977"];
"Yorkville" -> "Upper West Side" [label ="1911"];
"Yorkville" -> "others" [label ="3051"];
"Carnegie Hill" -> "Yorkville" [label ="1763"];
"Theatre District" -> "Chelsea" [label ="1617"];
"Theatre District" -> "Hell's Kitchen (Clinton)" [label ="3749"];
"Theatre District" -> "Midtown (North Central)" [label ="2595"];
"Theatre District" -> "others" [label ="2721"];
"Midtown (South Central)" -> "Midtown (North Central)" [label ="2457"];
"Midtown (South Central)" -> "others" [label ="2217"];
"Upper West Side" -> "Lincoln Square" [label ="1988"];
"Upper West Side" -> "Midtown (North Central)" [label ="1820"];
"Upper West Side" -> "Yorkville" [label ="1860"];
"Upper West Side" -> "Upper West Side" [label ="5415"];
"Upper West Side" -> "others" [label ="1910"];
"others" -> "Turtle Bay" [label ="1755"];
"others" -> "Chelsea" [label ="2400"];
"others" -> "Greenwich Village" [label ="1572"];
"others" -> "Hell's Kitchen (Clinton)" [label ="2303"];
"others" -> "Midtown (North Central)" [label ="4747"];
"others" -> "Theatre District" [label ="2281"];
"others" -> "Lenox Hill" [label ="1825"];
"others" -> "Midtown (South Central)" [label ="2231"];
"others" -> "Yorkville" [label ="2081"];
"others" -> "Upper West Side" [label ="1684"];
"others" -> "others" [label ="18341"];
}