digraph G {
"Turtle Bay" -> "others" [label ="1975"];
"Chelsea" -> "Theatre District" [label ="1244"];
"Chelsea" -> "Chelsea" [label ="3005"];
"Chelsea" -> "Greenwich Village" [label ="2001"];
"Chelsea" -> "Hell's Kitchen (Clinton)" [label ="2546"];
"Chelsea" -> "East Village" [label ="1072"];
"Chelsea" -> "Midtown (North Central)" [label ="1626"];
"Chelsea" -> "Yorkville" [label ="1429"];
"Chelsea" -> "Midtown (South Central)" [label ="1245"];
"Chelsea" -> "Upper West Side" [label ="1030"];
"Chelsea" -> "others" [label ="4163"];
"Lower East Side" -> "others" [label ="1509"];
"Murray Hill" -> "others" [label ="1479"];
"Lincoln Square" -> "Hell's Kitchen (Clinton)" [label ="1070"];
"Lincoln Square" -> "Yorkville" [label ="1043"];
"Lincoln Square" -> "Upper West Side" [label ="2112"];
"Lincoln Square" -> "others" [label ="1415"];
"Greenwich Village" -> "Chelsea" [label ="2302"];
"Greenwich Village" -> "Greenwich Village" [label ="2036"];
"Greenwich Village" -> "Hell's Kitchen (Clinton)" [label ="1092"];
"Greenwich Village" -> "East Village" [label ="1163"];
"Greenwich Village" -> "others" [label ="2764"];
"Kips Bay" -> "Chelsea" [label ="1162"];
"Kips Bay" -> "others" [label ="1651"];
"SoHo" -> "others" [label ="1226"];
"Hell's Kitchen (Clinton)" -> "Chelsea" [label ="2987"];
"Hell's Kitchen (Clinton)" -> "Lincoln Square" [label ="1015"];
"Hell's Kitchen (Clinton)" -> "Hell's Kitchen (Clinton)" [label ="2776"];
"Hell's Kitchen (Clinton)" -> "Midtown (North Central)" [label ="1747"];
"Hell's Kitchen (Clinton)" -> "Yorkville" [label ="1037"];
"Hell's Kitchen (Clinton)" -> "Midtown (South Central)" [label ="1015"];
"Hell's Kitchen (Clinton)" -> "Upper West Side" [label ="1405"];
"Hell's Kitchen (Clinton)" -> "others" [label ="4087"];
"Lenox Hill" -> "Midtown (North Central)" [label ="1138"];
"Lenox Hill" -> "Yorkville" [label ="2824"];
"Lenox Hill" -> "Lenox Hill" [label ="1566"];
"Lenox Hill" -> "others" [label ="2422"];
"East Village" -> "Chelsea" [label ="1458"];
"East Village" -> "Greenwich Village" [label ="1191"];
"East Village" -> "East Village" [label ="1087"];
"East Village" -> "others" [label ="2759"];
"Flatiron District" -> "Chelsea" [label ="1209"];
"Flatiron District" -> "others" [label ="1289"];
"Midtown (North Central)" -> "Chelsea" [label ="1678"];
"Midtown (North Central)" -> "Hell's Kitchen (Clinton)" [label ="1423"];
"Midtown (North Central)" -> "Midtown (North Central)" [label ="2486"];
"Midtown (North Central)" -> "Yorkville" [label ="1751"];
"Midtown (North Central)" -> "Theatre District" [label ="1622"];
"Midtown (North Central)" -> "Lenox Hill" [label ="1280"];
"Midtown (North Central)" -> "Midtown (South Central)" [label ="1672"];
"Midtown (North Central)" -> "others" [label ="4266"];
"Yorkville" -> "Chelsea" [label ="1349"];
"Yorkville" -> "Midtown (North Central)" [label ="1425"];
"Yorkville" -> "East (Spanish) Harlem" [label ="1157"];
"Yorkville" -> "Yorkville" [label ="4825"];
"Yorkville" -> "Lenox Hill" [label ="2415"];
"Yorkville" -> "Upper West Side" [label ="2074"];
"Yorkville" -> "others" [label ="4029"];
"Financial District" -> "others" [label ="1142"];
"Theatre District" -> "Chelsea" [label ="1344"];
"Theatre District" -> "Midtown (North Central)" [label ="1600"];
"Theatre District" -> "others" [label ="2694"];
"Midtown (South Central)" -> "Chelsea" [label ="1268"];
"Midtown (South Central)" -> "Hell's Kitchen (Clinton)" [label ="1076"];
"Midtown (South Central)" -> "Midtown (North Central)" [label ="1301"];
"Midtown (South Central)" -> "Midtown (South Central)" [label ="1019"];
"Midtown (South Central)" -> "others" [label ="2617"];
"Sutton Place" -> "others" [label ="1036"];
"Upper West Side" -> "Chelsea" [label ="1038"];
"Upper West Side" -> "Lincoln Square" [label ="2152"];
"Upper West Side" -> "Hell's Kitchen (Clinton)" [label ="1288"];
"Upper West Side" -> "Midtown (North Central)" [label ="1016"];
"Upper West Side" -> "Yorkville" [label ="2259"];
"Upper West Side" -> "Upper West Side" [label ="5293"];
"Upper West Side" -> "others" [label ="2830"];
"others" -> "Turtle Bay" [label ="1057"];
"others" -> "Chelsea" [label ="2535"];
"others" -> "Lincoln Square" [label ="1028"];
"others" -> "Greenwich Village" [label ="1942"];
"others" -> "Kips Bay" [label ="1085"];
"others" -> "Hell's Kitchen (Clinton)" [label ="1938"];
"others" -> "East Village" [label ="1731"];
"others" -> "Midtown (North Central)" [label ="2152"];
"others" -> "Theatre District" [label ="1525"];
"others" -> "Yorkville" [label ="2671"];
"others" -> "Lenox Hill" [label ="1549"];
"others" -> "Midtown (South Central)" [label ="1327"];
"others" -> "Upper West Side" [label ="2232"];
"others" -> "others" [label ="31545"];
}