digraph G {
"Turtle Bay" -> "others" [label ="1525"];
"Chelsea" -> "Theatre District" [label ="1754"];
"Chelsea" -> "Chelsea" [label ="3374"];
"Chelsea" -> "Greenwich Village" [label ="2034"];
"Chelsea" -> "Hell's Kitchen (Clinton)" [label ="2322"];
"Chelsea" -> "Flatiron District" [label ="1503"];
"Chelsea" -> "Midtown (North Central)" [label ="2670"];
"Chelsea" -> "Midtown (South Central)" [label ="1824"];
"Chelsea" -> "others" [label ="3050"];
"Lincoln Square" -> "Midtown (North Central)" [label ="1718"];
"Lincoln Square" -> "Upper West Side" [label ="2232"];
"Greenwich Village" -> "Chelsea" [label ="2024"];
"Greenwich Village" -> "Greenwich Village" [label ="2163"];
"Greenwich Village" -> "others" [label ="2132"];
"Hell's Kitchen (Clinton)" -> "Chelsea" [label ="1952"];
"Hell's Kitchen (Clinton)" -> "Hell's Kitchen (Clinton)" [label ="2681"];
"Hell's Kitchen (Clinton)" -> "Midtown (North Central)" [label ="2742"];
"Hell's Kitchen (Clinton)" -> "others" [label ="2751"];
"Lenox Hill" -> "Midtown (North Central)" [label ="2897"];
"Lenox Hill" -> "Yorkville" [label ="3842"];
"Lenox Hill" -> "Lenox Hill" [label ="2849"];
"Lenox Hill" -> "others" [label ="2185"];
"East Village" -> "others" [label ="1500"];
"Midtown (North Central)" -> "Theatre District" [label ="2379"];
"Midtown (North Central)" -> "Chelsea" [label ="2015"];
"Midtown (North Central)" -> "Hell's Kitchen (Clinton)" [label ="1966"];
"Midtown (North Central)" -> "Midtown (North Central)" [label ="4373"];
"Midtown (North Central)" -> "Yorkville" [label ="2931"];
"Midtown (North Central)" -> "Lenox Hill" [label ="2419"];
"Midtown (North Central)" -> "Midtown (South Central)" [label ="2224"];
"Midtown (North Central)" -> "others" [label ="4539"];
"Yorkville" -> "Midtown (North Central)" [label ="3424"];
"Yorkville" -> "Yorkville" [label ="5208"];
"Yorkville" -> "Lenox Hill" [label ="3549"];
"Yorkville" -> "Upper West Side" [label ="1697"];
"Yorkville" -> "others" [label ="2868"];
"Theatre District" -> "Chelsea" [label ="1506"];
"Theatre District" -> "Midtown (North Central)" [label ="2554"];
"Theatre District" -> "others" [label ="3110"];
"Midtown (South Central)" -> "Midtown (North Central)" [label ="2004"];
"Midtown (South Central)" -> "others" [label ="2071"];
"Upper West Side" -> "Lincoln Square" [label ="2096"];
"Upper West Side" -> "Midtown (North Central)" [label ="1652"];
"Upper West Side" -> "Yorkville" [label ="1676"];
"Upper West Side" -> "Upper West Side" [label ="5445"];
"Upper West Side" -> "others" [label ="1977"];
"others" -> "Chelsea" [label ="2095"];
"others" -> "Greenwich Village" [label ="1611"];
"others" -> "Hell's Kitchen (Clinton)" [label ="1853"];
"others" -> "Midtown (North Central)" [label ="3709"];
"others" -> "Theatre District" [label ="2382"];
"others" -> "Yorkville" [label ="2352"];
"others" -> "Lenox Hill" [label ="1817"];
"others" -> "Midtown (South Central)" [label ="1834"];
"others" -> "Upper West Side" [label ="1947"];
"others" -> "others" [label ="19119"];
}