digraph G {
"Turtle Bay" -> "others" [label ="1763"];
"Chelsea" -> "Theatre District" [label ="1973"];
"Chelsea" -> "Chelsea" [label ="4749"];
"Chelsea" -> "Greenwich Village" [label ="3080"];
"Chelsea" -> "Hell's Kitchen (Clinton)" [label ="3188"];
"Chelsea" -> "Flatiron District" [label ="2097"];
"Chelsea" -> "Midtown (North Central)" [label ="3095"];
"Chelsea" -> "Midtown (South Central)" [label ="2227"];
"Chelsea" -> "others" [label ="3707"];
"Lincoln Square" -> "Midtown (North Central)" [label ="2042"];
"Lincoln Square" -> "Upper West Side" [label ="2581"];
"Greenwich Village" -> "Chelsea" [label ="3079"];
"Greenwich Village" -> "Greenwich Village" [label ="3188"];
"Greenwich Village" -> "Midtown (North Central)" [label ="1617"];
"Greenwich Village" -> "others" [label ="3175"];
"Hell's Kitchen (Clinton)" -> "Theatre District" [label ="1641"];
"Hell's Kitchen (Clinton)" -> "Chelsea" [label ="2674"];
"Hell's Kitchen (Clinton)" -> "Hell's Kitchen (Clinton)" [label ="3228"];
"Hell's Kitchen (Clinton)" -> "Midtown (North Central)" [label ="3022"];
"Hell's Kitchen (Clinton)" -> "others" [label ="3066"];
"Lenox Hill" -> "Lenox Hill" [label ="3083"];
"Lenox Hill" -> "Midtown (North Central)" [label ="3206"];
"Lenox Hill" -> "Yorkville" [label ="4379"];
"Lenox Hill" -> "others" [label ="2484"];
"East Village" -> "others" [label ="2157"];
"Flatiron District" -> "Chelsea" [label ="2016"];
"Flatiron District" -> "Greenwich Village" [label ="1617"];
"Flatiron District" -> "others" [label ="2017"];
"Midtown (North Central)" -> "Theatre District" [label ="2276"];
"Midtown (North Central)" -> "Chelsea" [label ="2537"];
"Midtown (North Central)" -> "Hell's Kitchen (Clinton)" [label ="2326"];
"Midtown (North Central)" -> "Midtown (North Central)" [label ="4644"];
"Midtown (North Central)" -> "Yorkville" [label ="3311"];
"Midtown (North Central)" -> "Lenox Hill" [label ="2509"];
"Midtown (North Central)" -> "Midtown (South Central)" [label ="2680"];
"Midtown (North Central)" -> "Upper West Side" [label ="1561"];
"Midtown (North Central)" -> "others" [label ="4899"];
"Yorkville" -> "Midtown (North Central)" [label ="4027"];
"Yorkville" -> "Yorkville" [label ="6274"];
"Yorkville" -> "Carnegie Hill" [label ="1568"];
"Yorkville" -> "Lenox Hill" [label ="4335"];
"Yorkville" -> "Upper West Side" [label ="2077"];
"Yorkville" -> "others" [label ="3165"];
"Theatre District" -> "Chelsea" [label ="1698"];
"Theatre District" -> "Hell's Kitchen (Clinton)" [label ="1627"];
"Theatre District" -> "Midtown (North Central)" [label ="2481"];
"Theatre District" -> "others" [label ="3046"];
"Midtown (South Central)" -> "Chelsea" [label ="1675"];
"Midtown (South Central)" -> "Midtown (North Central)" [label ="2319"];
"Midtown (South Central)" -> "others" [label ="2576"];
"Upper West Side" -> "Lincoln Square" [label ="2505"];
"Upper West Side" -> "Midtown (North Central)" [label ="2030"];
"Upper West Side" -> "Yorkville" [label ="2075"];
"Upper West Side" -> "Upper West Side" [label ="6325"];
"Upper West Side" -> "others" [label ="2028"];
"others" -> "Theatre District" [label ="2121"];
"others" -> "Chelsea" [label ="2341"];
"others" -> "Greenwich Village" [label ="1800"];
"others" -> "Hell's Kitchen (Clinton)" [label ="1952"];
"others" -> "Lenox Hill" [label ="1797"];
"others" -> "Midtown (North Central)" [label ="3669"];
"others" -> "Yorkville" [label ="2232"];
"others" -> "Midtown (South Central)" [label ="1668"];
"others" -> "Upper West Side" [label ="1948"];
"others" -> "others" [label ="19765"];
}