digraph G {
"Turtle Bay" -> "others" [label ="1982"];
"Chelsea" -> "Theatre District" [label ="2026"];
"Chelsea" -> "Chelsea" [label ="5324"];
"Chelsea" -> "Greenwich Village" [label ="4214"];
"Chelsea" -> "Hell's Kitchen (Clinton)" [label ="3982"];
"Chelsea" -> "East Village" [label ="1568"];
"Chelsea" -> "Flatiron District" [label ="1730"];
"Chelsea" -> "Midtown (North Central)" [label ="2427"];
"Chelsea" -> "Midtown (South Central)" [label ="2024"];
"Chelsea" -> "others" [label ="4337"];
"Lower East Side" -> "others" [label ="2366"];
"Lincoln Square" -> "Lincoln Square" [label ="1525"];
"Lincoln Square" -> "Hell's Kitchen (Clinton)" [label ="1634"];
"Lincoln Square" -> "Midtown (North Central)" [label ="1641"];
"Lincoln Square" -> "Upper West Side" [label ="3209"];
"Lincoln Square" -> "others" [label ="1648"];
"Greenwich Village" -> "Chelsea" [label ="4326"];
"Greenwich Village" -> "Greenwich Village" [label ="5137"];
"Greenwich Village" -> "SoHo" [label ="2008"];
"Greenwich Village" -> "Hell's Kitchen (Clinton)" [label ="1830"];
"Greenwich Village" -> "East Village" [label ="2444"];
"Greenwich Village" -> "Flatiron District" [label ="1819"];
"Greenwich Village" -> "Midtown (South Central)" [label ="1544"];
"Greenwich Village" -> "others" [label ="4466"];
"SoHo" -> "Greenwich Village" [label ="1904"];
"SoHo" -> "others" [label ="1827"];
"Hell's Kitchen (Clinton)" -> "Chelsea" [label ="3582"];
"Hell's Kitchen (Clinton)" -> "Greenwich Village" [label ="1805"];
"Hell's Kitchen (Clinton)" -> "Hell's Kitchen (Clinton)" [label ="4510"];
"Hell's Kitchen (Clinton)" -> "Midtown (North Central)" [label ="2510"];
"Hell's Kitchen (Clinton)" -> "Upper West Side" [label ="1817"];
"Hell's Kitchen (Clinton)" -> "others" [label ="3838"];
"Lenox Hill" -> "Midtown (North Central)" [label ="2104"];
"Lenox Hill" -> "Yorkville" [label ="4629"];
"Lenox Hill" -> "Lenox Hill" [label ="2868"];
"Lenox Hill" -> "others" [label ="2662"];
"East Village" -> "Chelsea" [label ="1768"];
"East Village" -> "Greenwich Village" [label ="2420"];
"East Village" -> "East Village" [label ="2059"];
"East Village" -> "others" [label ="4044"];
"Flatiron District" -> "Chelsea" [label ="1973"];
"Flatiron District" -> "Greenwich Village" [label ="2137"];
"Flatiron District" -> "others" [label ="2357"];
"Midtown (North Central)" -> "Theatre District" [label ="2091"];
"Midtown (North Central)" -> "Chelsea" [label ="2071"];
"Midtown (North Central)" -> "Hell's Kitchen (Clinton)" [label ="2129"];
"Midtown (North Central)" -> "Midtown (North Central)" [label ="3199"];
"Midtown (North Central)" -> "Yorkville" [label ="2437"];
"Midtown (North Central)" -> "Lenox Hill" [label ="2093"];
"Midtown (North Central)" -> "Midtown (South Central)" [label ="1777"];
"Midtown (North Central)" -> "others" [label ="4148"];
"Yorkville" -> "Midtown (North Central)" [label ="2494"];
"Yorkville" -> "Yorkville" [label ="7775"];
"Yorkville" -> "Carnegie Hill" [label ="1895"];
"Yorkville" -> "Lenox Hill" [label ="4553"];
"Yorkville" -> "Upper West Side" [label ="2565"];
"Yorkville" -> "others" [label ="3980"];
"Carnegie Hill" -> "Yorkville" [label ="1720"];
"Theatre District" -> "Chelsea" [label ="1632"];
"Theatre District" -> "Hell's Kitchen (Clinton)" [label ="1713"];
"Theatre District" -> "Midtown (North Central)" [label ="1892"];
"Theatre District" -> "others" [label ="2947"];
"Midtown (South Central)" -> "Chelsea" [label ="1688"];
"Midtown (South Central)" -> "Hell's Kitchen (Clinton)" [label ="1564"];
"Midtown (South Central)" -> "Midtown (North Central)" [label ="1639"];
"Midtown (South Central)" -> "others" [label ="2754"];
"Upper West Side" -> "Lincoln Square" [label ="3351"];
"Upper West Side" -> "Hell's Kitchen (Clinton)" [label ="1805"];
"Upper West Side" -> "Midtown (North Central)" [label ="1587"];
"Upper West Side" -> "Yorkville" [label ="2689"];
"Upper West Side" -> "Upper West Side" [label ="8415"];
"Upper West Side" -> "others" [label ="2562"];
"others" -> "Midtown (North Central)" [label ="3009"];
"others" -> "Chelsea" [label ="2898"];
"others" -> "Greenwich Village" [label ="2780"];
"others" -> "Hell's Kitchen (Clinton)" [label ="2537"];
"others" -> "East Village" [label ="2036"];
"others" -> "Yorkville" [label ="2542"];
"others" -> "Theatre District" [label ="1910"];
"others" -> "Lenox Hill" [label ="1771"];
"others" -> "Midtown (South Central)" [label ="1711"];
"others" -> "Upper West Side" [label ="2178"];
"others" -> "others" [label ="25896"];
}