digraph G {
"Battery Park City" -> "Battery Park City" [label ="99"];
"Battery Park City" -> "Nolita" [label ="20"];
"Battery Park City" -> "Morningside Heights" [label ="6"];
"Battery Park City" -> "Turtle Bay" [label ="55"];
"Battery Park City" -> "Hamilton Heights" [label ="5"];
"Battery Park City" -> "Chelsea" [label ="228"];
"Battery Park City" -> "TriBeCa" [label ="107"];
"Battery Park City" -> "Lower East Side" [label ="31"];
"Battery Park City" -> "Chinatown" [label ="40"];
"Battery Park City" -> "Murray Hill" [label ="36"];
"Battery Park City" -> "Lincoln Square" [label ="39"];
"Battery Park City" -> "Greenwich Village" [label ="222"];
"Battery Park City" -> "Kips Bay" [label ="33"];
"Battery Park City" -> "Washington Heights" [label ="11"];
"Battery Park City" -> "SoHo" [label ="123"];
"Battery Park City" -> "Hell's Kitchen (Clinton)" [label ="128"];
"Battery Park City" -> "Central Harlem" [label ="9"];
"Battery Park City" -> "NoHo" [label ="9"];
"Battery Park City" -> "Little Italy" [label ="15"];
"Battery Park City" -> "East Village" [label ="77"];
"Battery Park City" -> "Flatiron District" [label ="65"];
"Battery Park City" -> "Midtown (North Central)" [label ="105"];
"Battery Park City" -> "East (Spanish) Harlem" [label ="10"];
"Battery Park City" -> "The Bowery" [label ="7"];
"Battery Park City" -> "Yorkville" [label ="52"];
"Battery Park City" -> "Financial District" [label ="133"];
"Battery Park City" -> "Gramercy" [label ="17"];
"Battery Park City" -> "Carnegie Hill" [label ="12"];
"Battery Park City" -> "Theatre District" [label ="94"];
"Battery Park City" -> "Lenox Hill" [label ="47"];
"Battery Park City" -> "Midtown (South Central)" [label ="64"];
"Battery Park City" -> "Civic Center" [label ="40"];
"Battery Park City" -> "Sutton Place" [label ="6"];
"Battery Park City" -> "Upper West Side" [label ="48"];
"Battery Park City" -> "others" [label ="365"];
"Nolita" -> "Battery Park City" [label ="17"];
"Nolita" -> "Nolita" [label ="58"];
"Nolita" -> "Morningside Heights" [label ="5"];
"Nolita" -> "Turtle Bay" [label ="51"];
"Nolita" -> "Chelsea" [label ="222"];
"Nolita" -> "TriBeCa" [label ="53"];
"Nolita" -> "Lower East Side" [label ="71"];
"Nolita" -> "Chinatown" [label ="30"];
"Nolita" -> "Murray Hill" [label ="60"];
"Nolita" -> "Lincoln Square" [label ="27"];
"Nolita" -> "Greenwich Village" [label ="235"];
"Nolita" -> "Kips Bay" [label ="99"];
"Nolita" -> "Washington Heights" [label ="6"];
"Nolita" -> "SoHo" [label ="79"];
"Nolita" -> "Hell's Kitchen (Clinton)" [label ="101"];
"Nolita" -> "Central Harlem" [label ="19"];
"Nolita" -> "NoHo" [label ="65"];
"Nolita" -> "The Bowery" [label ="14"];
"Nolita" -> "East Village" [label ="211"];
"Nolita" -> "Flatiron District" [label ="82"];
"Nolita" -> "Midtown (North Central)" [label ="94"];
"Nolita" -> "East (Spanish) Harlem" [label ="17"];
"Nolita" -> "Little Italy" [label ="8"];
"Nolita" -> "Stuyvesant Town" [label ="7"];
"Nolita" -> "Yorkville" [label ="88"];
"Nolita" -> "Financial District" [label ="74"];
"Nolita" -> "Gramercy" [label ="62"];
"Nolita" -> "Carnegie Hill" [label ="9"];
"Nolita" -> "Theatre District" [label ="63"];
"Nolita" -> "Lenox Hill" [label ="67"];
"Nolita" -> "Midtown (South Central)" [label ="111"];
"Nolita" -> "Civic Center" [label ="38"];
"Nolita" -> "Sutton Place" [label ="23"];
"Nolita" -> "Upper West Side" [label ="62"];
"Nolita" -> "others" [label ="543"];
"Morningside Heights" -> "Nolita" [label ="6"];
"Morningside Heights" -> "Morningside Heights" [label ="167"];
"Morningside Heights" -> "Turtle Bay" [label ="14"];
"Morningside Heights" -> "Hamilton Heights" [label ="83"];
"Morningside Heights" -> "Chelsea" [label ="102"];
"Morningside Heights" -> "Lower East Side" [label ="8"];
"Morningside Heights" -> "Chinatown" [label ="5"];
"Morningside Heights" -> "Murray Hill" [label ="20"];
"Morningside Heights" -> "Lincoln Square" [label ="118"];
"Morningside Heights" -> "Greenwich Village" [label ="33"];
"Morningside Heights" -> "Kips Bay" [label ="20"];
"Morningside Heights" -> "Washington Heights" [label ="98"];
"Morningside Heights" -> "SoHo" [label ="6"];
"Morningside Heights" -> "Hell's Kitchen (Clinton)" [label ="108"];
"Morningside Heights" -> "Central Harlem" [label ="252"];
"Morningside Heights" -> "East Village" [label ="30"];
"Morningside Heights" -> "Flatiron District" [label ="10"];
"Morningside Heights" -> "Midtown (North Central)" [label ="61"];
"Morningside Heights" -> "East (Spanish) Harlem" [label ="76"];
"Morningside Heights" -> "Yorkville" [label ="109"];
"Morningside Heights" -> "Financial District" [label ="9"];
"Morningside Heights" -> "Gramercy" [label ="12"];
"Morningside Heights" -> "Carnegie Hill" [label ="42"];
"Morningside Heights" -> "Inwood" [label ="16"];
"Morningside Heights" -> "Manhattanville" [label ="32"];
"Morningside Heights" -> "Theatre District" [label ="25"];
"Morningside Heights" -> "Lenox Hill" [label ="41"];
"Morningside Heights" -> "Midtown (South Central)" [label ="24"];
"Morningside Heights" -> "Sutton Place" [label ="18"];
"Morningside Heights" -> "Upper West Side" [label ="539"];
"Morningside Heights" -> "others" [label ="337"];
"Turtle Bay" -> "Battery Park City" [label ="47"];
"Turtle Bay" -> "Nolita" [label ="53"];
"Turtle Bay" -> "Morningside Heights" [label ="29"];
"Turtle Bay" -> "Turtle Bay" [label ="532"];
"Turtle Bay" -> "Hamilton Heights" [label ="14"];
"Turtle Bay" -> "Chelsea" [label ="800"];
"Turtle Bay" -> "TriBeCa" [label ="55"];
"Turtle Bay" -> "Lower East Side" [label ="106"];
"Turtle Bay" -> "Chinatown" [label ="48"];
"Turtle Bay" -> "Murray Hill" [label ="363"];
"Turtle Bay" -> "Lincoln Square" [label ="230"];
"Turtle Bay" -> "Greenwich Village" [label ="320"];
"Turtle Bay" -> "Kips Bay" [label ="585"];
"Turtle Bay" -> "Washington Heights" [label ="45"];
"Turtle Bay" -> "SoHo" [label ="108"];
"Turtle Bay" -> "Hell's Kitchen (Clinton)" [label ="469"];
"Turtle Bay" -> "Central Harlem" [label ="69"];
"Turtle Bay" -> "NoHo" [label ="37"];
"Turtle Bay" -> "The Bowery" [label ="54"];
"Turtle Bay" -> "East Village" [label ="369"];
"Turtle Bay" -> "Flatiron District" [label ="231"];
"Turtle Bay" -> "Midtown (North Central)" [label ="701"];
"Turtle Bay" -> "East (Spanish) Harlem" [label ="163"];
"Turtle Bay" -> "Little Italy" [label ="12"];
"Turtle Bay" -> "Stuyvesant Town" [label ="38"];
"Turtle Bay" -> "Yorkville" [label ="976"];
"Turtle Bay" -> "Financial District" [label ="201"];
"Turtle Bay" -> "Gramercy" [label ="257"];
"Turtle Bay" -> "Carnegie Hill" [label ="112"];
"Turtle Bay" -> "Inwood" [label ="6"];
"Turtle Bay" -> "Manhattanville" [label ="8"];
"Turtle Bay" -> "Theatre District" [label ="488"];
"Turtle Bay" -> "Lenox Hill" [label ="681"];
"Turtle Bay" -> "Midtown (South Central)" [label ="526"];
"Turtle Bay" -> "Civic Center" [label ="51"];
"Turtle Bay" -> "Sutton Place" [label ="275"];
"Turtle Bay" -> "Upper West Side" [label ="353"];
"Turtle Bay" -> "others" [label ="1975"];
"Hamilton Heights" -> "Morningside Heights" [label ="62"];
"Hamilton Heights" -> "Turtle Bay" [label ="8"];
"Hamilton Heights" -> "Hamilton Heights" [label ="106"];
"Hamilton Heights" -> "Chelsea" [label ="37"];
"Hamilton Heights" -> "Lower East Side" [label ="6"];
"Hamilton Heights" -> "Lincoln Square" [label ="31"];
"Hamilton Heights" -> "Greenwich Village" [label ="12"];
"Hamilton Heights" -> "Kips Bay" [label ="11"];
"Hamilton Heights" -> "Washington Heights" [label ="96"];
"Hamilton Heights" -> "SoHo" [label ="10"];
"Hamilton Heights" -> "Hell's Kitchen (Clinton)" [label ="41"];
"Hamilton Heights" -> "Central Harlem" [label ="175"];
"Hamilton Heights" -> "East Village" [label ="6"];
"Hamilton Heights" -> "Flatiron District" [label ="5"];
"Hamilton Heights" -> "Midtown (North Central)" [label ="15"];
"Hamilton Heights" -> "East (Spanish) Harlem" [label ="52"];
"Hamilton Heights" -> "Gramercy" [label ="5"];
"Hamilton Heights" -> "Inwood" [label ="10"];
"Hamilton Heights" -> "Manhattanville" [label ="52"];
"Hamilton Heights" -> "Theatre District" [label ="5"];
"Hamilton Heights" -> "Lenox Hill" [label ="17"];
"Hamilton Heights" -> "Midtown (South Central)" [label ="9"];
"Hamilton Heights" -> "Yorkville" [label ="29"];
"Hamilton Heights" -> "Upper West Side" [label ="123"];
"Hamilton Heights" -> "others" [label ="195"];
"Chelsea" -> "Battery Park City" [label ="284"];
"Chelsea" -> "Nolita" [label ="199"];
"Chelsea" -> "Morningside Heights" [label ="114"];
"Chelsea" -> "Theatre District" [label ="1244"];
"Chelsea" -> "Hamilton Heights" [label ="100"];
"Chelsea" -> "Chelsea" [label ="3005"];
"Chelsea" -> "TriBeCa" [label ="348"];
"Chelsea" -> "Lower East Side" [label ="310"];
"Chelsea" -> "Chinatown" [label ="129"];
"Chelsea" -> "Murray Hill" [label ="771"];
"Chelsea" -> "Lincoln Square" [label ="604"];
"Chelsea" -> "Greenwich Village" [label ="2001"];
"Chelsea" -> "Kips Bay" [label ="958"];
"Chelsea" -> "Washington Heights" [label ="173"];
"Chelsea" -> "SoHo" [label ="573"];
"Chelsea" -> "Hell's Kitchen (Clinton)" [label ="2546"];
"Chelsea" -> "Central Harlem" [label ="311"];
"Chelsea" -> "NoHo" [label ="184"];
"Chelsea" -> "The Bowery" [label ="161"];
"Chelsea" -> "East Village" [label ="1072"];
"Chelsea" -> "Flatiron District" [label ="857"];
"Chelsea" -> "Midtown (North Central)" [label ="1626"];
"Chelsea" -> "East (Spanish) Harlem" [label ="248"];
"Chelsea" -> "Little Italy" [label ="74"];
"Chelsea" -> "Stuyvesant Town" [label ="118"];
"Chelsea" -> "Yorkville" [label ="1429"];
"Chelsea" -> "Financial District" [label ="553"];
"Chelsea" -> "Gramercy" [label ="554"];
"Chelsea" -> "Carnegie Hill" [label ="216"];
"Chelsea" -> "Inwood" [label ="26"];
"Chelsea" -> "Manhattanville" [label ="26"];
"Chelsea" -> "Lenox Hill" [label ="766"];
"Chelsea" -> "Midtown (South Central)" [label ="1245"];
"Chelsea" -> "Turtle Bay" [label ="579"];
"Chelsea" -> "Civic Center" [label ="125"];
"Chelsea" -> "Sutton Place" [label ="283"];
"Chelsea" -> "Upper West Side" [label ="1030"];
"Chelsea" -> "others" [label ="4163"];
"TriBeCa" -> "Battery Park City" [label ="164"];
"TriBeCa" -> "Midtown (North Central)" [label ="177"];
"TriBeCa" -> "Morningside Heights" [label ="7"];
"TriBeCa" -> "Turtle Bay" [label ="69"];
"TriBeCa" -> "Hamilton Heights" [label ="11"];
"TriBeCa" -> "Chelsea" [label ="450"];
"TriBeCa" -> "TriBeCa" [label ="192"];
"TriBeCa" -> "Lower East Side" [label ="107"];
"TriBeCa" -> "Chinatown" [label ="53"];
"TriBeCa" -> "Murray Hill" [label ="85"];
"TriBeCa" -> "Lincoln Square" [label ="82"];
"TriBeCa" -> "Greenwich Village" [label ="568"];
"TriBeCa" -> "Kips Bay" [label ="121"];
"TriBeCa" -> "Washington Heights" [label ="28"];
"TriBeCa" -> "SoHo" [label ="250"];
"TriBeCa" -> "Hell's Kitchen (Clinton)" [label ="219"];
"TriBeCa" -> "Central Harlem" [label ="34"];
"TriBeCa" -> "NoHo" [label ="73"];
"TriBeCa" -> "The Bowery" [label ="43"];
"TriBeCa" -> "East Village" [label ="244"];
"TriBeCa" -> "Flatiron District" [label ="146"];
"TriBeCa" -> "East (Spanish) Harlem" [label ="28"];
"TriBeCa" -> "Nolita" [label ="76"];
"TriBeCa" -> "Theatre District" [label ="152"];
"TriBeCa" -> "Little Italy" [label ="30"];
"TriBeCa" -> "Stuyvesant Town" [label ="9"];
"TriBeCa" -> "Yorkville" [label ="160"];
"TriBeCa" -> "Financial District" [label ="286"];
"TriBeCa" -> "Gramercy" [label ="76"];
"TriBeCa" -> "Carnegie Hill" [label ="21"];
"TriBeCa" -> "Manhattanville" [label ="5"];
"TriBeCa" -> "Lenox Hill" [label ="113"];
"TriBeCa" -> "Midtown (South Central)" [label ="167"];
"TriBeCa" -> "Civic Center" [label ="63"];
"TriBeCa" -> "Sutton Place" [label ="44"];
"TriBeCa" -> "Upper West Side" [label ="144"];
"TriBeCa" -> "others" [label ="885"];
"Lower East Side" -> "Battery Park City" [label ="54"];
"Lower East Side" -> "Midtown (North Central)" [label ="169"];
"Lower East Side" -> "Morningside Heights" [label ="19"];
"Lower East Side" -> "Theatre District" [label ="102"];
"Lower East Side" -> "Hamilton Heights" [label ="15"];
"Lower East Side" -> "Chelsea" [label ="468"];
"Lower East Side" -> "TriBeCa" [label ="74"];
"Lower East Side" -> "Lower East Side" [label ="261"];
"Lower East Side" -> "Chinatown" [label ="70"];
"Lower East Side" -> "Murray Hill" [label ="149"];
"Lower East Side" -> "Lincoln Square" [label ="68"];
"Lower East Side" -> "Greenwich Village" [label ="364"];
"Lower East Side" -> "Kips Bay" [label ="255"];
"Lower East Side" -> "Washington Heights" [label ="34"];
"Lower East Side" -> "SoHo" [label ="157"];
"Lower East Side" -> "Hell's Kitchen (Clinton)" [label ="218"];
"Lower East Side" -> "Central Harlem" [label ="42"];
"Lower East Side" -> "NoHo" [label ="72"];
"Lower East Side" -> "The Bowery" [label ="41"];
"Lower East Side" -> "East Village" [label ="574"];
"Lower East Side" -> "Flatiron District" [label ="138"];
"Lower East Side" -> "East (Spanish) Harlem" [label ="62"];
"Lower East Side" -> "Nolita" [label ="61"];
"Lower East Side" -> "Turtle Bay" [label ="190"];
"Lower East Side" -> "Little Italy" [label ="18"];
"Lower East Side" -> "Stuyvesant Town" [label ="21"];
"Lower East Side" -> "Yorkville" [label ="268"];
"Lower East Side" -> "Financial District" [label ="183"];
"Lower East Side" -> "Gramercy" [label ="144"];
"Lower East Side" -> "Carnegie Hill" [label ="18"];
"Lower East Side" -> "Manhattanville" [label ="8"];
"Lower East Side" -> "Lenox Hill" [label ="119"];
"Lower East Side" -> "Midtown (South Central)" [label ="223"];
"Lower East Side" -> "Civic Center" [label ="57"];
"Lower East Side" -> "Sutton Place" [label ="43"];
"Lower East Side" -> "Upper West Side" [label ="134"];
"Lower East Side" -> "others" [label ="1509"];
"Chinatown" -> "Battery Park City" [label ="36"];
"Chinatown" -> "Nolita" [label ="27"];
"Chinatown" -> "Morningside Heights" [label ="7"];
"Chinatown" -> "Turtle Bay" [label ="43"];
"Chinatown" -> "Hamilton Heights" [label ="5"];
"Chinatown" -> "Chelsea" [label ="120"];
"Chinatown" -> "TriBeCa" [label ="54"];
"Chinatown" -> "Lower East Side" [label ="81"];
"Chinatown" -> "Chinatown" [label ="34"];
"Chinatown" -> "Murray Hill" [label ="35"];
"Chinatown" -> "Lincoln Square" [label ="19"];
"Chinatown" -> "Greenwich Village" [label ="118"];
"Chinatown" -> "Kips Bay" [label ="45"];
"Chinatown" -> "SoHo" [label ="60"];
"Chinatown" -> "Hell's Kitchen (Clinton)" [label ="78"];
"Chinatown" -> "Central Harlem" [label ="9"];
"Chinatown" -> "NoHo" [label ="25"];
"Chinatown" -> "The Bowery" [label ="15"];
"Chinatown" -> "East Village" [label ="135"];
"Chinatown" -> "Flatiron District" [label ="33"];
"Chinatown" -> "Midtown (North Central)" [label ="61"];
"Chinatown" -> "East (Spanish) Harlem" [label ="17"];
"Chinatown" -> "Stuyvesant Town" [label ="7"];
"Chinatown" -> "Civic Center" [label ="33"];
"Chinatown" -> "Financial District" [label ="121"];
"Chinatown" -> "Gramercy" [label ="46"];
"Chinatown" -> "Theatre District" [label ="88"];
"Chinatown" -> "Lenox Hill" [label ="26"];
"Chinatown" -> "Midtown (South Central)" [label ="63"];
"Chinatown" -> "Yorkville" [label ="46"];
"Chinatown" -> "Sutton Place" [label ="16"];
"Chinatown" -> "Upper West Side" [label ="33"];
"Chinatown" -> "others" [label ="398"];
"Murray Hill" -> "Battery Park City" [label ="38"];
"Murray Hill" -> "Little Italy" [label ="11"];
"Murray Hill" -> "Nolita" [label ="49"];
"Murray Hill" -> "Morningside Heights" [label ="29"];
"Murray Hill" -> "Turtle Bay" [label ="374"];
"Murray Hill" -> "Hamilton Heights" [label ="10"];
"Murray Hill" -> "Chelsea" [label ="760"];
"Murray Hill" -> "TriBeCa" [label ="46"];
"Murray Hill" -> "Lower East Side" [label ="93"];
"Murray Hill" -> "Chinatown" [label ="42"];
"Murray Hill" -> "Murray Hill" [label ="311"];
"Murray Hill" -> "Lincoln Square" [label ="145"];
"Murray Hill" -> "Greenwich Village" [label ="346"];
"Murray Hill" -> "Kips Bay" [label ="324"];
"Murray Hill" -> "Washington Heights" [label ="38"];
"Murray Hill" -> "SoHo" [label ="107"];
"Murray Hill" -> "Hell's Kitchen (Clinton)" [label ="384"];
"Murray Hill" -> "Central Harlem" [label ="49"];
"Murray Hill" -> "NoHo" [label ="52"];
"Murray Hill" -> "East (Spanish) Harlem" [label ="79"];
"Murray Hill" -> "East Village" [label ="331"];
"Murray Hill" -> "Flatiron District" [label ="305"];
"Murray Hill" -> "Midtown (North Central)" [label ="429"];
"Murray Hill" -> "Theatre District" [label ="233"];
"Murray Hill" -> "The Bowery" [label ="70"];
"Murray Hill" -> "Stuyvesant Town" [label ="29"];
"Murray Hill" -> "Yorkville" [label ="634"];
"Murray Hill" -> "Financial District" [label ="133"];
"Murray Hill" -> "Gramercy" [label ="225"];
"Murray Hill" -> "Carnegie Hill" [label ="82"];
"Murray Hill" -> "Inwood" [label ="5"];
"Murray Hill" -> "Manhattanville" [label ="6"];
"Murray Hill" -> "Lenox Hill" [label ="370"];
"Murray Hill" -> "Midtown (South Central)" [label ="432"];
"Murray Hill" -> "Civic Center" [label ="31"];
"Murray Hill" -> "Sutton Place" [label ="218"];
"Murray Hill" -> "Upper West Side" [label ="260"];
"Murray Hill" -> "others" [label ="1479"];
"Lincoln Square" -> "Battery Park City" [label ="48"];
"Lincoln Square" -> "Nolita" [label ="27"];
"Lincoln Square" -> "Morningside Heights" [label ="126"];
"Lincoln Square" -> "Turtle Bay" [label ="243"];
"Lincoln Square" -> "Hamilton Heights" [label ="47"];
"Lincoln Square" -> "Chelsea" [label ="692"];
"Lincoln Square" -> "TriBeCa" [label ="62"];
"Lincoln Square" -> "Lower East Side" [label ="36"];
"Lincoln Square" -> "Chinatown" [label ="22"];
"Lincoln Square" -> "Murray Hill" [label ="152"];
"Lincoln Square" -> "Lincoln Square" [label ="916"];
"Lincoln Square" -> "Greenwich Village" [label ="300"];
"Lincoln Square" -> "Kips Bay" [label ="131"];
"Lincoln Square" -> "Washington Heights" [label ="121"];
"Lincoln Square" -> "SoHo" [label ="95"];
"Lincoln Square" -> "Hell's Kitchen (Clinton)" [label ="1070"];
"Lincoln Square" -> "Central Harlem" [label ="200"];
"Lincoln Square" -> "NoHo" [label ="28"];
"Lincoln Square" -> "The Bowery" [label ="21"];
"Lincoln Square" -> "East Village" [label ="125"];
"Lincoln Square" -> "Flatiron District" [label ="152"];
"Lincoln Square" -> "Midtown (North Central)" [label ="964"];
"Lincoln Square" -> "East (Spanish) Harlem" [label ="134"];
"Lincoln Square" -> "Little Italy" [label ="12"];
"Lincoln Square" -> "Stuyvesant Town" [label ="11"];
"Lincoln Square" -> "Yorkville" [label ="1043"];
"Lincoln Square" -> "Financial District" [label ="81"];
"Lincoln Square" -> "Gramercy" [label ="79"];
"Lincoln Square" -> "Carnegie Hill" [label ="223"];
"Lincoln Square" -> "Inwood" [label ="23"];
"Lincoln Square" -> "Manhattanville" [label ="12"];
"Lincoln Square" -> "Theatre District" [label ="387"];
"Lincoln Square" -> "Lenox Hill" [label ="731"];
"Lincoln Square" -> "Midtown (South Central)" [label ="236"];
"Lincoln Square" -> "Civic Center" [label ="17"];
"Lincoln Square" -> "Sutton Place" [label ="169"];
"Lincoln Square" -> "Upper West Side" [label ="2112"];
"Lincoln Square" -> "others" [label ="1415"];
"Greenwich Village" -> "Battery Park City" [label ="314"];
"Greenwich Village" -> "Midtown (North Central)" [label ="791"];
"Greenwich Village" -> "Morningside Heights" [label ="55"];
"Greenwich Village" -> "Turtle Bay" [label ="345"];
"Greenwich Village" -> "Hamilton Heights" [label ="51"];
"Greenwich Village" -> "Chelsea" [label ="2302"];
"Greenwich Village" -> "TriBeCa" [label ="520"];
"Greenwich Village" -> "Lower East Side" [label ="298"];
"Greenwich Village" -> "Chinatown" [label ="157"];
"Greenwich Village" -> "Murray Hill" [label ="424"];
"Greenwich Village" -> "Lincoln Square" [label ="317"];
"Greenwich Village" -> "Greenwich Village" [label ="2036"];
"Greenwich Village" -> "Kips Bay" [label ="561"];
"Greenwich Village" -> "Washington Heights" [label ="78"];
"Greenwich Village" -> "SoHo" [label ="723"];
"Greenwich Village" -> "Hell's Kitchen (Clinton)" [label ="1092"];
"Greenwich Village" -> "Central Harlem" [label ="138"];
"Greenwich Village" -> "NoHo" [label ="285"];
"Greenwich Village" -> "The Bowery" [label ="145"];
"Greenwich Village" -> "East Village" [label ="1163"];
"Greenwich Village" -> "Flatiron District" [label ="725"];
"Greenwich Village" -> "Nolita" [label ="239"];
"Greenwich Village" -> "East (Spanish) Harlem" [label ="105"];
"Greenwich Village" -> "Little Italy" [label ="73"];
"Greenwich Village" -> "Stuyvesant Town" [label ="65"];
"Greenwich Village" -> "Civic Center" [label ="124"];
"Greenwich Village" -> "Financial District" [label ="501"];
"Greenwich Village" -> "Gramercy" [label ="359"];
"Greenwich Village" -> "Carnegie Hill" [label ="126"];
"Greenwich Village" -> "Inwood" [label ="10"];
"Greenwich Village" -> "Manhattanville" [label ="7"];
"Greenwich Village" -> "Theatre District" [label ="528"];
"Greenwich Village" -> "Lenox Hill" [label ="408"];
"Greenwich Village" -> "Midtown (South Central)" [label ="899"];
"Greenwich Village" -> "Yorkville" [label ="693"];
"Greenwich Village" -> "Sutton Place" [label ="147"];
"Greenwich Village" -> "Upper West Side" [label ="524"];
"Greenwich Village" -> "others" [label ="2764"];
"Kips Bay" -> "Battery Park City" [label ="44"];
"Kips Bay" -> "Little Italy" [label ="18"];
"Kips Bay" -> "Nolita" [label ="69"];
"Kips Bay" -> "Morningside Heights" [label ="37"];
"Kips Bay" -> "Turtle Bay" [label ="657"];
"Kips Bay" -> "Hamilton Heights" [label ="15"];
"Kips Bay" -> "Chelsea" [label ="1162"];
"Kips Bay" -> "TriBeCa" [label ="89"];
"Kips Bay" -> "Lower East Side" [label ="140"];
"Kips Bay" -> "Chinatown" [label ="48"];
"Kips Bay" -> "Murray Hill" [label ="372"];
"Kips Bay" -> "Lincoln Square" [label ="126"];
"Kips Bay" -> "Greenwich Village" [label ="462"];
"Kips Bay" -> "Kips Bay" [label ="431"];
"Kips Bay" -> "Washington Heights" [label ="31"];
"Kips Bay" -> "SoHo" [label ="124"];
"Kips Bay" -> "Hell's Kitchen (Clinton)" [label ="464"];
"Kips Bay" -> "Central Harlem" [label ="83"];
"Kips Bay" -> "NoHo" [label ="63"];
"Kips Bay" -> "East (Spanish) Harlem" [label ="119"];
"Kips Bay" -> "East Village" [label ="670"];
"Kips Bay" -> "Flatiron District" [label ="364"];
"Kips Bay" -> "Midtown (North Central)" [label ="388"];
"Kips Bay" -> "Theatre District" [label ="205"];
"Kips Bay" -> "The Bowery" [label ="103"];
"Kips Bay" -> "Stuyvesant Town" [label ="86"];
"Kips Bay" -> "Yorkville" [label ="814"];
"Kips Bay" -> "Financial District" [label ="185"];
"Kips Bay" -> "Gramercy" [label ="320"];
"Kips Bay" -> "Carnegie Hill" [label ="57"];
"Kips Bay" -> "Inwood" [label ="9"];
"Kips Bay" -> "Lenox Hill" [label ="492"];
"Kips Bay" -> "Midtown (South Central)" [label ="536"];
"Kips Bay" -> "Civic Center" [label ="49"];
"Kips Bay" -> "Sutton Place" [label ="247"];
"Kips Bay" -> "Upper West Side" [label ="258"];
"Kips Bay" -> "others" [label ="1651"];
"Washington Heights" -> "Morningside Heights" [label ="29"];
"Washington Heights" -> "Turtle Bay" [label ="10"];
"Washington Heights" -> "Hamilton Heights" [label ="127"];
"Washington Heights" -> "Chelsea" [label ="32"];
"Washington Heights" -> "Lincoln Square" [label ="15"];
"Washington Heights" -> "Greenwich Village" [label ="11"];
"Washington Heights" -> "Washington Heights" [label ="321"];
"Washington Heights" -> "Hell's Kitchen (Clinton)" [label ="47"];
"Washington Heights" -> "Central Harlem" [label ="117"];
"Washington Heights" -> "East Village" [label ="12"];
"Washington Heights" -> "Flatiron District" [label ="6"];
"Washington Heights" -> "Midtown (North Central)" [label ="12"];
"Washington Heights" -> "East (Spanish) Harlem" [label ="39"];
"Washington Heights" -> "Yorkville" [label ="21"];
"Washington Heights" -> "Inwood" [label ="40"];
"Washington Heights" -> "Manhattanville" [label ="23"];
"Washington Heights" -> "Theatre District" [label ="6"];
"Washington Heights" -> "Lenox Hill" [label ="13"];
"Washington Heights" -> "Midtown (South Central)" [label ="5"];
"Washington Heights" -> "Sutton Place" [label ="7"];
"Washington Heights" -> "Upper West Side" [label ="119"];
"Washington Heights" -> "others" [label ="224"];
"SoHo" -> "Battery Park City" [label ="134"];
"SoHo" -> "Nolita" [label ="110"];
"SoHo" -> "Morningside Heights" [label ="15"];
"SoHo" -> "Turtle Bay" [label ="119"];
"SoHo" -> "Hamilton Heights" [label ="11"];
"SoHo" -> "Chelsea" [label ="792"];
"SoHo" -> "TriBeCa" [label ="223"];
"SoHo" -> "Lower East Side" [label ="194"];
"SoHo" -> "Chinatown" [label ="76"];
"SoHo" -> "Murray Hill" [label ="139"];
"SoHo" -> "Lincoln Square" [label ="94"];
"SoHo" -> "Greenwich Village" [label ="758"];
"SoHo" -> "Kips Bay" [label ="139"];
"SoHo" -> "Washington Heights" [label ="20"];
"SoHo" -> "SoHo" [label ="330"];
"SoHo" -> "Hell's Kitchen (Clinton)" [label ="348"];
"SoHo" -> "Central Harlem" [label ="43"];
"SoHo" -> "NoHo" [label ="128"];
"SoHo" -> "The Bowery" [label ="64"];
"SoHo" -> "East Village" [label ="388"];
"SoHo" -> "Flatiron District" [label ="207"];
"SoHo" -> "Midtown (North Central)" [label ="462"];
"SoHo" -> "East (Spanish) Harlem" [label ="45"];
"SoHo" -> "Little Italy" [label ="33"];
"SoHo" -> "Stuyvesant Town" [label ="9"];
"SoHo" -> "Yorkville" [label ="198"];
"SoHo" -> "Financial District" [label ="322"];
"SoHo" -> "Gramercy" [label ="111"];
"SoHo" -> "Carnegie Hill" [label ="40"];
"SoHo" -> "Theatre District" [label ="303"];
"SoHo" -> "Lenox Hill" [label ="152"];
"SoHo" -> "Midtown (South Central)" [label ="336"];
"SoHo" -> "Civic Center" [label ="89"];
"SoHo" -> "Sutton Place" [label ="52"];
"SoHo" -> "Upper West Side" [label ="156"];
"SoHo" -> "others" [label ="1226"];
"Hell's Kitchen (Clinton)" -> "Battery Park City" [label ="243"];
"Hell's Kitchen (Clinton)" -> "Little Italy" [label ="52"];
"Hell's Kitchen (Clinton)" -> "Nolita" [label ="104"];
"Hell's Kitchen (Clinton)" -> "Morningside Heights" [label ="134"];
"Hell's Kitchen (Clinton)" -> "Turtle Bay" [label ="481"];
"Hell's Kitchen (Clinton)" -> "Hamilton Heights" [label ="123"];
"Hell's Kitchen (Clinton)" -> "Chelsea" [label ="2987"];
"Hell's Kitchen (Clinton)" -> "TriBeCa" [label ="200"];
"Hell's Kitchen (Clinton)" -> "Lower East Side" [label ="189"];
"Hell's Kitchen (Clinton)" -> "Chinatown" [label ="126"];
"Hell's Kitchen (Clinton)" -> "Murray Hill" [label ="416"];
"Hell's Kitchen (Clinton)" -> "Lincoln Square" [label ="1015"];
"Hell's Kitchen (Clinton)" -> "Greenwich Village" [label ="989"];
"Hell's Kitchen (Clinton)" -> "Kips Bay" [label ="436"];
"Hell's Kitchen (Clinton)" -> "Washington Heights" [label ="312"];
"Hell's Kitchen (Clinton)" -> "SoHo" [label ="326"];
"Hell's Kitchen (Clinton)" -> "Hell's Kitchen (Clinton)" [label ="2776"];
"Hell's Kitchen (Clinton)" -> "Central Harlem" [label ="392"];
"Hell's Kitchen (Clinton)" -> "NoHo" [label ="97"];
"Hell's Kitchen (Clinton)" -> "East (Spanish) Harlem" [label ="265"];
"Hell's Kitchen (Clinton)" -> "East Village" [label ="553"];
"Hell's Kitchen (Clinton)" -> "Flatiron District" [label ="394"];
"Hell's Kitchen (Clinton)" -> "Midtown (North Central)" [label ="1747"];
"Hell's Kitchen (Clinton)" -> "Theatre District" [label ="857"];
"Hell's Kitchen (Clinton)" -> "The Bowery" [label ="68"];
"Hell's Kitchen (Clinton)" -> "Stuyvesant Town" [label ="45"];
"Hell's Kitchen (Clinton)" -> "Yorkville" [label ="1037"];
"Hell's Kitchen (Clinton)" -> "Financial District" [label ="469"];
"Hell's Kitchen (Clinton)" -> "Gramercy" [label ="221"];
"Hell's Kitchen (Clinton)" -> "Carnegie Hill" [label ="164"];
"Hell's Kitchen (Clinton)" -> "Inwood" [label ="40"];
"Hell's Kitchen (Clinton)" -> "Manhattanville" [label ="43"];
"Hell's Kitchen (Clinton)" -> "Lenox Hill" [label ="605"];
"Hell's Kitchen (Clinton)" -> "Midtown (South Central)" [label ="1015"];
"Hell's Kitchen (Clinton)" -> "Civic Center" [label ="89"];
"Hell's Kitchen (Clinton)" -> "Sutton Place" [label ="225"];
"Hell's Kitchen (Clinton)" -> "Upper West Side" [label ="1405"];
"Hell's Kitchen (Clinton)" -> "others" [label ="4087"];
"Lenox Hill" -> "Battery Park City" [label ="49"];
"Lenox Hill" -> "Nolita" [label ="36"];
"Lenox Hill" -> "Morningside Heights" [label ="47"];
"Lenox Hill" -> "Turtle Bay" [label ="732"];
"Lenox Hill" -> "Hamilton Heights" [label ="41"];
"Lenox Hill" -> "Chelsea" [label ="734"];
"Lenox Hill" -> "TriBeCa" [label ="69"];
"Lenox Hill" -> "Lower East Side" [label ="81"];
"Lenox Hill" -> "Chinatown" [label ="38"];
"Lenox Hill" -> "Murray Hill" [label ="384"];
"Lenox Hill" -> "Lincoln Square" [label ="705"];
"Lenox Hill" -> "Greenwich Village" [label ="371"];
"Lenox Hill" -> "Kips Bay" [label ="417"];
"Lenox Hill" -> "Washington Heights" [label ="85"];
"Lenox Hill" -> "SoHo" [label ="118"];
"Lenox Hill" -> "Hell's Kitchen (Clinton)" [label ="478"];
"Lenox Hill" -> "Central Harlem" [label ="148"];
"Lenox Hill" -> "NoHo" [label ="35"];
"Lenox Hill" -> "The Bowery" [label ="31"];
"Lenox Hill" -> "East Village" [label ="321"];
"Lenox Hill" -> "Flatiron District" [label ="233"];
"Lenox Hill" -> "Midtown (North Central)" [label ="1138"];
"Lenox Hill" -> "East (Spanish) Harlem" [label ="308"];
"Lenox Hill" -> "Little Italy" [label ="13"];
"Lenox Hill" -> "Stuyvesant Town" [label ="26"];
"Lenox Hill" -> "Yorkville" [label ="2824"];
"Lenox Hill" -> "Financial District" [label ="129"];
"Lenox Hill" -> "Gramercy" [label ="175"];
"Lenox Hill" -> "Carnegie Hill" [label ="467"];
"Lenox Hill" -> "Inwood" [label ="8"];
"Lenox Hill" -> "Manhattanville" [label ="6"];
"Lenox Hill" -> "Theatre District" [label ="478"];
"Lenox Hill" -> "Lenox Hill" [label ="1566"];
"Lenox Hill" -> "Midtown (South Central)" [label ="467"];
"Lenox Hill" -> "Civic Center" [label ="33"];
"Lenox Hill" -> "Sutton Place" [label ="414"];
"Lenox Hill" -> "Upper West Side" [label ="835"];
"Lenox Hill" -> "others" [label ="2422"];
"NoHo" -> "Battery Park City" [label ="26"];
"NoHo" -> "Nolita" [label ="41"];
"NoHo" -> "Morningside Heights" [label ="7"];
"NoHo" -> "Turtle Bay" [label ="61"];
"NoHo" -> "Hamilton Heights" [label ="5"];
"NoHo" -> "Chelsea" [label ="310"];
"NoHo" -> "TriBeCa" [label ="33"];
"NoHo" -> "Lower East Side" [label ="57"];
"NoHo" -> "Chinatown" [label ="30"];
"NoHo" -> "Murray Hill" [label ="92"];
"NoHo" -> "Lincoln Square" [label ="43"];
"NoHo" -> "Greenwich Village" [label ="262"];
"NoHo" -> "Kips Bay" [label ="122"];
"NoHo" -> "Washington Heights" [label ="11"];
"NoHo" -> "SoHo" [label ="68"];
"NoHo" -> "Hell's Kitchen (Clinton)" [label ="115"];
"NoHo" -> "Central Harlem" [label ="23"];
"NoHo" -> "NoHo" [label ="67"];
"NoHo" -> "The Bowery" [label ="21"];
"NoHo" -> "East Village" [label ="168"];
"NoHo" -> "Flatiron District" [label ="87"];
"NoHo" -> "Midtown (North Central)" [label ="135"];
"NoHo" -> "East (Spanish) Harlem" [label ="26"];
"NoHo" -> "Stuyvesant Town" [label ="10"];
"NoHo" -> "Yorkville" [label ="120"];
"NoHo" -> "Financial District" [label ="60"];
"NoHo" -> "Gramercy" [label ="57"];
"NoHo" -> "Carnegie Hill" [label ="13"];
"NoHo" -> "Theatre District" [label ="98"];
"NoHo" -> "Lenox Hill" [label ="74"];
"NoHo" -> "Midtown (South Central)" [label ="156"];
"NoHo" -> "Civic Center" [label ="27"];
"NoHo" -> "Sutton Place" [label ="23"];
"NoHo" -> "Upper West Side" [label ="65"];
"NoHo" -> "others" [label ="342"];
"The Bowery" -> "Battery Park City" [label ="8"];
"The Bowery" -> "Nolita" [label ="12"];
"The Bowery" -> "Morningside Heights" [label ="6"];
"The Bowery" -> "Theatre District" [label ="23"];
"The Bowery" -> "Chelsea" [label ="137"];
"The Bowery" -> "TriBeCa" [label ="31"];
"The Bowery" -> "Lower East Side" [label ="34"];
"The Bowery" -> "Chinatown" [label ="20"];
"The Bowery" -> "Murray Hill" [label ="31"];
"The Bowery" -> "Lincoln Square" [label ="19"];
"The Bowery" -> "Greenwich Village" [label ="145"];
"The Bowery" -> "Kips Bay" [label ="51"];
"The Bowery" -> "SoHo" [label ="23"];
"The Bowery" -> "Hell's Kitchen (Clinton)" [label ="60"];
"The Bowery" -> "Central Harlem" [label ="14"];
"The Bowery" -> "NoHo" [label ="23"];
"The Bowery" -> "The Bowery" [label ="44"];
"The Bowery" -> "East Village" [label ="126"];
"The Bowery" -> "Flatiron District" [label ="34"];
"The Bowery" -> "East (Spanish) Harlem" [label ="19"];
"The Bowery" -> "Midtown (North Central)" [label ="37"];
"The Bowery" -> "Turtle Bay" [label ="45"];
"The Bowery" -> "Stuyvesant Town" [label ="5"];
"The Bowery" -> "Yorkville" [label ="56"];
"The Bowery" -> "Financial District" [label ="59"];
"The Bowery" -> "Gramercy" [label ="39"];
"The Bowery" -> "Lenox Hill" [label ="39"];
"The Bowery" -> "Midtown (South Central)" [label ="40"];
"The Bowery" -> "Civic Center" [label ="14"];
"The Bowery" -> "Sutton Place" [label ="20"];
"The Bowery" -> "Upper West Side" [label ="39"];
"The Bowery" -> "others" [label ="375"];
"East Village" -> "Battery Park City" [label ="84"];
"East Village" -> "Nolita" [label ="153"];
"East Village" -> "Morningside Heights" [label ="45"];
"East Village" -> "Turtle Bay" [label ="546"];
"East Village" -> "Hamilton Heights" [label ="35"];
"East Village" -> "Chelsea" [label ="1458"];
"East Village" -> "TriBeCa" [label ="169"];
"East Village" -> "Lower East Side" [label ="476"];
"East Village" -> "Chinatown" [label ="201"];
"East Village" -> "Murray Hill" [label ="421"];
"East Village" -> "Lincoln Square" [label ="158"];
"East Village" -> "Greenwich Village" [label ="1191"];
"East Village" -> "Kips Bay" [label ="839"];
"East Village" -> "Washington Heights" [label ="54"];
"East Village" -> "SoHo" [label ="315"];
"East Village" -> "Hell's Kitchen (Clinton)" [label ="545"];
"East Village" -> "Central Harlem" [label ="130"];
"East Village" -> "NoHo" [label ="164"];
"East Village" -> "The Bowery" [label ="157"];
"East Village" -> "East Village" [label ="1087"];
"East Village" -> "Flatiron District" [label ="482"];
"East Village" -> "Midtown (North Central)" [label ="435"];
"East Village" -> "East (Spanish) Harlem" [label ="166"];
"East Village" -> "Little Italy" [label ="52"];
"East Village" -> "Stuyvesant Town" [label ="63"];
"East Village" -> "Yorkville" [label ="780"];
"East Village" -> "Financial District" [label ="310"];
"East Village" -> "Gramercy" [label ="420"];
"East Village" -> "Carnegie Hill" [label ="72"];
"East Village" -> "Inwood" [label ="13"];
"East Village" -> "Manhattanville" [label ="12"];
"East Village" -> "Theatre District" [label ="251"];
"East Village" -> "Lenox Hill" [label ="395"];
"East Village" -> "Midtown (South Central)" [label ="547"];
"East Village" -> "Civic Center" [label ="116"];
"East Village" -> "Sutton Place" [label ="166"];
"East Village" -> "Upper West Side" [label ="375"];
"East Village" -> "others" [label ="2759"];
"Flatiron District" -> "Battery Park City" [label ="64"];
"Flatiron District" -> "Nolita" [label ="88"];
"Flatiron District" -> "Morningside Heights" [label ="33"];
"Flatiron District" -> "Turtle Bay" [label ="238"];
"Flatiron District" -> "Hamilton Heights" [label ="23"];
"Flatiron District" -> "Chelsea" [label ="1209"];
"Flatiron District" -> "TriBeCa" [label ="144"];
"Flatiron District" -> "Lower East Side" [label ="150"];
"Flatiron District" -> "Chinatown" [label ="59"];
"Flatiron District" -> "Murray Hill" [label ="370"];
"Flatiron District" -> "Lincoln Square" [label ="173"];
"Flatiron District" -> "Greenwich Village" [label ="772"];
"Flatiron District" -> "Kips Bay" [label ="416"];
"Flatiron District" -> "Washington Heights" [label ="30"];
"Flatiron District" -> "SoHo" [label ="250"];
"Flatiron District" -> "Hell's Kitchen (Clinton)" [label ="496"];
"Flatiron District" -> "Central Harlem" [label ="74"];
"Flatiron District" -> "NoHo" [label ="93"];
"Flatiron District" -> "The Bowery" [label ="74"];
"Flatiron District" -> "East Village" [label ="491"];
"Flatiron District" -> "Flatiron District" [label ="379"];
"Flatiron District" -> "East (Spanish) Harlem" [label ="62"];
"Flatiron District" -> "Midtown (North Central)" [label ="510"];
"Flatiron District" -> "Theatre District" [label ="308"];
"Flatiron District" -> "Little Italy" [label ="33"];
"Flatiron District" -> "Stuyvesant Town" [label ="58"];
"Flatiron District" -> "Civic Center" [label ="60"];
"Flatiron District" -> "Financial District" [label ="200"];
"Flatiron District" -> "Gramercy" [label ="194"];
"Flatiron District" -> "Carnegie Hill" [label ="73"];
"Flatiron District" -> "Inwood" [label ="6"];
"Flatiron District" -> "Manhattanville" [label ="5"];
"Flatiron District" -> "Lenox Hill" [label ="286"];
"Flatiron District" -> "Midtown (South Central)" [label ="555"];
"Flatiron District" -> "Yorkville" [label ="436"];
"Flatiron District" -> "Sutton Place" [label ="105"];
"Flatiron District" -> "Upper West Side" [label ="268"];
"Flatiron District" -> "others" [label ="1289"];
"Midtown (North Central)" -> "Battery Park City" [label ="162"];
"Midtown (North Central)" -> "Nolita" [label ="124"];
"Midtown (North Central)" -> "Morningside Heights" [label ="77"];
"Midtown (North Central)" -> "Turtle Bay" [label ="779"];
"Midtown (North Central)" -> "Hamilton Heights" [label ="41"];
"Midtown (North Central)" -> "Chelsea" [label ="1678"];
"Midtown (North Central)" -> "TriBeCa" [label ="158"];
"Midtown (North Central)" -> "Lower East Side" [label ="167"];
"Midtown (North Central)" -> "Chinatown" [label ="101"];
"Midtown (North Central)" -> "Murray Hill" [label ="600"];
"Midtown (North Central)" -> "Lincoln Square" [label ="795"];
"Midtown (North Central)" -> "Greenwich Village" [label ="850"];
"Midtown (North Central)" -> "Kips Bay" [label ="516"];
"Midtown (North Central)" -> "Washington Heights" [label ="76"];
"Midtown (North Central)" -> "SoHo" [label ="521"];
"Midtown (North Central)" -> "Hell's Kitchen (Clinton)" [label ="1423"];
"Midtown (North Central)" -> "Central Harlem" [label ="196"];
"Midtown (North Central)" -> "NoHo" [label ="82"];
"Midtown (North Central)" -> "Little Italy" [label ="70"];
"Midtown (North Central)" -> "East Village" [label ="495"];
"Midtown (North Central)" -> "Flatiron District" [label ="604"];
"Midtown (North Central)" -> "Midtown (North Central)" [label ="2486"];
"Midtown (North Central)" -> "East (Spanish) Harlem" [label ="276"];
"Midtown (North Central)" -> "The Bowery" [label ="64"];
"Midtown (North Central)" -> "Stuyvesant Town" [label ="40"];
"Midtown (North Central)" -> "Yorkville" [label ="1751"];
"Midtown (North Central)" -> "Financial District" [label ="486"];
"Midtown (North Central)" -> "Gramercy" [label ="265"];
"Midtown (North Central)" -> "Carnegie Hill" [label ="368"];
"Midtown (North Central)" -> "Inwood" [label ="15"];
"Midtown (North Central)" -> "Manhattanville" [label ="16"];
"Midtown (North Central)" -> "Theatre District" [label ="1622"];
"Midtown (North Central)" -> "Lenox Hill" [label ="1280"];
"Midtown (North Central)" -> "Midtown (South Central)" [label ="1672"];
"Midtown (North Central)" -> "Civic Center" [label ="101"];
"Midtown (North Central)" -> "Sutton Place" [label ="431"];
"Midtown (North Central)" -> "Upper West Side" [label ="919"];
"Midtown (North Central)" -> "others" [label ="4266"];
"East (Spanish) Harlem" -> "Battery Park City" [label ="6"];
"East (Spanish) Harlem" -> "Nolita" [label ="7"];
"East (Spanish) Harlem" -> "Morningside Heights" [label ="67"];
"East (Spanish) Harlem" -> "Turtle Bay" [label ="56"];
"East (Spanish) Harlem" -> "Hamilton Heights" [label ="57"];
"East (Spanish) Harlem" -> "Chelsea" [label ="157"];
"East (Spanish) Harlem" -> "TriBeCa" [label ="8"];
"East (Spanish) Harlem" -> "Lower East Side" [label ="28"];
"East (Spanish) Harlem" -> "Chinatown" [label ="12"];
"East (Spanish) Harlem" -> "Murray Hill" [label ="43"];
"East (Spanish) Harlem" -> "Lincoln Square" [label ="76"];
"East (Spanish) Harlem" -> "Greenwich Village" [label ="46"];
"East (Spanish) Harlem" -> "Kips Bay" [label ="52"];
"East (Spanish) Harlem" -> "Washington Heights" [label ="87"];
"East (Spanish) Harlem" -> "SoHo" [label ="9"];
"East (Spanish) Harlem" -> "Hell's Kitchen (Clinton)" [label ="130"];
"East (Spanish) Harlem" -> "Lenox Hill" [label ="187"];
"East (Spanish) Harlem" -> "NoHo" [label ="6"];
"East (Spanish) Harlem" -> "The Bowery" [label ="12"];
"East (Spanish) Harlem" -> "East Village" [label ="83"];
"East (Spanish) Harlem" -> "Flatiron District" [label ="36"];
"East (Spanish) Harlem" -> "Midtown (North Central)" [label ="120"];
"East (Spanish) Harlem" -> "East (Spanish) Harlem" [label ="796"];
"East (Spanish) Harlem" -> "Yorkville" [label ="646"];
"East (Spanish) Harlem" -> "Financial District" [label ="21"];
"East (Spanish) Harlem" -> "Gramercy" [label ="25"];
"East (Spanish) Harlem" -> "Carnegie Hill" [label ="128"];
"East (Spanish) Harlem" -> "Inwood" [label ="8"];
"East (Spanish) Harlem" -> "Manhattanville" [label ="30"];
"East (Spanish) Harlem" -> "Theatre District" [label ="61"];
"East (Spanish) Harlem" -> "Central Harlem" [label ="395"];
"East (Spanish) Harlem" -> "Midtown (South Central)" [label ="73"];
"East (Spanish) Harlem" -> "Civic Center" [label ="6"];
"East (Spanish) Harlem" -> "Sutton Place" [label ="42"];
"East (Spanish) Harlem" -> "Upper West Side" [label ="469"];
"East (Spanish) Harlem" -> "others" [label ="885"];
"Little Italy" -> "Battery Park City" [label ="15"];
"Little Italy" -> "Midtown (North Central)" [label ="81"];
"Little Italy" -> "Turtle Bay" [label ="27"];
"Little Italy" -> "Chelsea" [label ="111"];
"Little Italy" -> "TriBeCa" [label ="23"];
"Little Italy" -> "Lower East Side" [label ="24"];
"Little Italy" -> "Chinatown" [label ="7"];
"Little Italy" -> "Murray Hill" [label ="29"];
"Little Italy" -> "Lincoln Square" [label ="16"];
"Little Italy" -> "Greenwich Village" [label ="92"];
"Little Italy" -> "Kips Bay" [label ="35"];
"Little Italy" -> "SoHo" [label ="24"];
"Little Italy" -> "Hell's Kitchen (Clinton)" [label ="51"];
"Little Italy" -> "Central Harlem" [label ="6"];
"Little Italy" -> "NoHo" [label ="24"];
"Little Italy" -> "The Bowery" [label ="11"];
"Little Italy" -> "East Village" [label ="54"];
"Little Italy" -> "Flatiron District" [label ="36"];
"Little Italy" -> "Nolita" [label ="14"];
"Little Italy" -> "East (Spanish) Harlem" [label ="8"];
"Little Italy" -> "Little Italy" [label ="13"];
"Little Italy" -> "Yorkville" [label ="29"];
"Little Italy" -> "Financial District" [label ="48"];
"Little Italy" -> "Gramercy" [label ="17"];
"Little Italy" -> "Theatre District" [label ="88"];
"Little Italy" -> "Lenox Hill" [label ="19"];
"Little Italy" -> "Midtown (South Central)" [label ="55"];
"Little Italy" -> "Civic Center" [label ="13"];
"Little Italy" -> "Sutton Place" [label ="10"];
"Little Italy" -> "Upper West Side" [label ="17"];
"Little Italy" -> "others" [label ="138"];
"Stuyvesant Town" -> "Turtle Bay" [label ="27"];
"Stuyvesant Town" -> "Chelsea" [label ="103"];
"Stuyvesant Town" -> "Lower East Side" [label ="9"];
"Stuyvesant Town" -> "Murray Hill" [label ="14"];
"Stuyvesant Town" -> "Lincoln Square" [label ="7"];
"Stuyvesant Town" -> "Greenwich Village" [label ="27"];
"Stuyvesant Town" -> "Kips Bay" [label ="46"];
"Stuyvesant Town" -> "SoHo" [label ="6"];
"Stuyvesant Town" -> "Hell's Kitchen (Clinton)" [label ="28"];
"Stuyvesant Town" -> "The Bowery" [label ="6"];
"Stuyvesant Town" -> "East Village" [label ="35"];
"Stuyvesant Town" -> "Flatiron District" [label ="35"];
"Stuyvesant Town" -> "Midtown (North Central)" [label ="22"];
"Stuyvesant Town" -> "Theatre District" [label ="5"];
"Stuyvesant Town" -> "Stuyvesant Town" [label ="7"];
"Stuyvesant Town" -> "Yorkville" [label ="29"];
"Stuyvesant Town" -> "Financial District" [label ="11"];
"Stuyvesant Town" -> "Gramercy" [label ="15"];
"Stuyvesant Town" -> "Lenox Hill" [label ="19"];
"Stuyvesant Town" -> "Midtown (South Central)" [label ="29"];
"Stuyvesant Town" -> "Sutton Place" [label ="9"];
"Stuyvesant Town" -> "Upper West Side" [label ="16"];
"Stuyvesant Town" -> "others" [label ="99"];
"Yorkville" -> "Battery Park City" [label ="61"];
"Yorkville" -> "Nolita" [label ="82"];
"Yorkville" -> "Morningside Heights" [label ="153"];
"Yorkville" -> "Turtle Bay" [label ="981"];
"Yorkville" -> "Hamilton Heights" [label ="102"];
"Yorkville" -> "Chelsea" [label ="1349"];
"Yorkville" -> "TriBeCa" [label ="114"];
"Yorkville" -> "Lower East Side" [label ="168"];
"Yorkville" -> "Chinatown" [label ="46"];
"Yorkville" -> "Murray Hill" [label ="574"];
"Yorkville" -> "Lincoln Square" [label ="977"];
"Yorkville" -> "Greenwich Village" [label ="546"];
"Yorkville" -> "Kips Bay" [label ="600"];
"Yorkville" -> "Washington Heights" [label ="192"];
"Yorkville" -> "SoHo" [label ="156"];
"Yorkville" -> "Hell's Kitchen (Clinton)" [label ="779"];
"Yorkville" -> "Central Harlem" [label ="412"];
"Yorkville" -> "NoHo" [label ="55"];
"Yorkville" -> "The Bowery" [label ="46"];
"Yorkville" -> "East Village" [label ="559"];
"Yorkville" -> "Flatiron District" [label ="377"];
"Yorkville" -> "Midtown (North Central)" [label ="1425"];
"Yorkville" -> "East (Spanish) Harlem" [label ="1157"];
"Yorkville" -> "Little Italy" [label ="9"];
"Yorkville" -> "Stuyvesant Town" [label ="50"];
"Yorkville" -> "Yorkville" [label ="4825"];
"Yorkville" -> "Financial District" [label ="196"];
"Yorkville" -> "Gramercy" [label ="277"];
"Yorkville" -> "Carnegie Hill" [label ="865"];
"Yorkville" -> "Inwood" [label ="19"];
"Yorkville" -> "Manhattanville" [label ="24"];
"Yorkville" -> "Theatre District" [label ="456"];
"Yorkville" -> "Lenox Hill" [label ="2415"];
"Yorkville" -> "Midtown (South Central)" [label ="674"];
"Yorkville" -> "Civic Center" [label ="48"];
"Yorkville" -> "Sutton Place" [label ="621"];
"Yorkville" -> "Upper West Side" [label ="2074"];
"Yorkville" -> "others" [label ="4029"];
"Financial District" -> "Battery Park City" [label ="119"];
"Financial District" -> "Nolita" [label ="65"];
"Financial District" -> "Morningside Heights" [label ="12"];
"Financial District" -> "Turtle Bay" [label ="183"];
"Financial District" -> "Hamilton Heights" [label ="11"];
"Financial District" -> "Chelsea" [label ="541"];
"Financial District" -> "TriBeCa" [label ="213"];
"Financial District" -> "Lower East Side" [label ="166"];
"Financial District" -> "Chinatown" [label ="169"];
"Financial District" -> "Murray Hill" [label ="111"];
"Financial District" -> "Lincoln Square" [label ="62"];
"Financial District" -> "Greenwich Village" [label ="387"];
"Financial District" -> "Kips Bay" [label ="135"];
"Financial District" -> "Washington Heights" [label ="17"];
"Financial District" -> "SoHo" [label ="277"];
"Financial District" -> "Hell's Kitchen (Clinton)" [label ="339"];
"Financial District" -> "Lenox Hill" [label ="146"];
"Financial District" -> "NoHo" [label ="45"];
"Financial District" -> "The Bowery" [label ="29"];
"Financial District" -> "East Village" [label ="290"];
"Financial District" -> "Flatiron District" [label ="133"];
"Financial District" -> "Midtown (North Central)" [label ="384"];
"Financial District" -> "East (Spanish) Harlem" [label ="36"];
"Financial District" -> "Little Italy" [label ="54"];
"Financial District" -> "Stuyvesant Town" [label ="9"];
"Financial District" -> "Yorkville" [label ="186"];
"Financial District" -> "Financial District" [label ="441"];
"Financial District" -> "Gramercy" [label ="57"];
"Financial District" -> "Carnegie Hill" [label ="21"];
"Financial District" -> "Theatre District" [label ="347"];
"Financial District" -> "Central Harlem" [label ="42"];
"Financial District" -> "Midtown (South Central)" [label ="300"];
"Financial District" -> "Civic Center" [label ="117"];
"Financial District" -> "Sutton Place" [label ="46"];
"Financial District" -> "Upper West Side" [label ="118"];
"Financial District" -> "others" [label ="1142"];
"Gramercy" -> "Battery Park City" [label ="37"];
"Gramercy" -> "Nolita" [label ="48"];
"Gramercy" -> "Morningside Heights" [label ="9"];
"Gramercy" -> "Turtle Bay" [label ="312"];
"Gramercy" -> "Hamilton Heights" [label ="13"];
"Gramercy" -> "Chelsea" [label ="703"];
"Gramercy" -> "TriBeCa" [label ="67"];
"Gramercy" -> "Lower East Side" [label ="113"];
"Gramercy" -> "Chinatown" [label ="62"];
"Gramercy" -> "Murray Hill" [label ="252"];
"Gramercy" -> "Lincoln Square" [label ="76"];
"Gramercy" -> "Greenwich Village" [label ="342"];
"Gramercy" -> "Kips Bay" [label ="419"];
"Gramercy" -> "Washington Heights" [label ="24"];
"Gramercy" -> "SoHo" [label ="93"];
"Gramercy" -> "Hell's Kitchen (Clinton)" [label ="225"];
"Gramercy" -> "Central Harlem" [label ="31"];
"Gramercy" -> "NoHo" [label ="47"];
"Gramercy" -> "The Bowery" [label ="89"];
"Gramercy" -> "East Village" [label ="390"];
"Gramercy" -> "Flatiron District" [label ="231"];
"Gramercy" -> "Midtown (North Central)" [label ="226"];
"Gramercy" -> "East (Spanish) Harlem" [label ="62"];
"Gramercy" -> "Little Italy" [label ="10"];
"Gramercy" -> "Stuyvesant Town" [label ="22"];
"Gramercy" -> "Yorkville" [label ="451"];
"Gramercy" -> "Financial District" [label ="82"];
"Gramercy" -> "Gramercy" [label ="167"];
"Gramercy" -> "Carnegie Hill" [label ="38"];
"Gramercy" -> "Inwood" [label ="5"];
"Gramercy" -> "Theatre District" [label ="96"];
"Gramercy" -> "Lenox Hill" [label ="233"];
"Gramercy" -> "Midtown (South Central)" [label ="244"];
"Gramercy" -> "Civic Center" [label ="25"];
"Gramercy" -> "Sutton Place" [label ="108"];
"Gramercy" -> "Upper West Side" [label ="167"];
"Gramercy" -> "others" [label ="953"];
"Carnegie Hill" -> "Battery Park City" [label ="9"];
"Carnegie Hill" -> "Nolita" [label ="5"];
"Carnegie Hill" -> "Morningside Heights" [label ="38"];
"Carnegie Hill" -> "Turtle Bay" [label ="90"];
"Carnegie Hill" -> "Hamilton Heights" [label ="18"];
"Carnegie Hill" -> "Chelsea" [label ="198"];
"Carnegie Hill" -> "TriBeCa" [label ="10"];
"Carnegie Hill" -> "Lower East Side" [label ="15"];
"Carnegie Hill" -> "Chinatown" [label ="9"];
"Carnegie Hill" -> "Murray Hill" [label ="79"];
"Carnegie Hill" -> "Lincoln Square" [label ="188"];
"Carnegie Hill" -> "Greenwich Village" [label ="83"];
"Carnegie Hill" -> "Kips Bay" [label ="59"];
"Carnegie Hill" -> "Washington Heights" [label ="30"];
"Carnegie Hill" -> "SoHo" [label ="20"];
"Carnegie Hill" -> "Hell's Kitchen (Clinton)" [label ="107"];
"Carnegie Hill" -> "Central Harlem" [label ="111"];
"Carnegie Hill" -> "NoHo" [label ="5"];
"Carnegie Hill" -> "East Village" [label ="57"];
"Carnegie Hill" -> "Flatiron District" [label ="51"];
"Carnegie Hill" -> "Midtown (North Central)" [label ="274"];
"Carnegie Hill" -> "East (Spanish) Harlem" [label ="234"];
"Carnegie Hill" -> "Stuyvesant Town" [label ="7"];
"Carnegie Hill" -> "Yorkville" [label ="746"];
"Carnegie Hill" -> "Financial District" [label ="19"];
"Carnegie Hill" -> "Gramercy" [label ="28"];
"Carnegie Hill" -> "Carnegie Hill" [label ="191"];
"Carnegie Hill" -> "Inwood" [label ="6"];
"Carnegie Hill" -> "Theatre District" [label ="65"];
"Carnegie Hill" -> "Lenox Hill" [label ="397"];
"Carnegie Hill" -> "Midtown (South Central)" [label ="92"];
"Carnegie Hill" -> "Civic Center" [label ="7"];
"Carnegie Hill" -> "Sutton Place" [label ="58"];
"Carnegie Hill" -> "Upper West Side" [label ="530"];
"Carnegie Hill" -> "others" [label ="537"];
"Inwood" -> "Washington Heights" [label ="45"];
"Inwood" -> "Hamilton Heights" [label ="5"];
"Inwood" -> "Chelsea" [label ="5"];
"Inwood" -> "Inwood" [label ="15"];
"Inwood" -> "Central Harlem" [label ="7"];
"Inwood" -> "others" [label ="38"];
"Manhattanville" -> "Morningside Heights" [label ="35"];
"Manhattanville" -> "Hamilton Heights" [label ="34"];
"Manhattanville" -> "Chelsea" [label ="7"];
"Manhattanville" -> "Lincoln Square" [label ="10"];
"Manhattanville" -> "Washington Heights" [label ="42"];
"Manhattanville" -> "Hell's Kitchen (Clinton)" [label ="13"];
"Manhattanville" -> "Central Harlem" [label ="63"];
"Manhattanville" -> "Midtown (North Central)" [label ="7"];
"Manhattanville" -> "East (Spanish) Harlem" [label ="32"];
"Manhattanville" -> "Yorkville" [label ="13"];
"Manhattanville" -> "Financial District" [label ="5"];
"Manhattanville" -> "Inwood" [label ="10"];
"Manhattanville" -> "Manhattanville" [label ="21"];
"Manhattanville" -> "Upper West Side" [label ="46"];
"Manhattanville" -> "others" [label ="89"];
"Theatre District" -> "Battery Park City" [label ="136"];
"Theatre District" -> "Nolita" [label ="47"];
"Theatre District" -> "Morningside Heights" [label ="48"];
"Theatre District" -> "Theatre District" [label ="891"];
"Theatre District" -> "Hamilton Heights" [label ="41"];
"Theatre District" -> "Chelsea" [label ="1344"];
"Theatre District" -> "TriBeCa" [label ="132"];
"Theatre District" -> "Lower East Side" [label ="91"];
"Theatre District" -> "Chinatown" [label ="73"];
"Theatre District" -> "Murray Hill" [label ="254"];
"Theatre District" -> "Lincoln Square" [label ="480"];
"Theatre District" -> "Greenwich Village" [label ="418"];
"Theatre District" -> "Kips Bay" [label ="185"];
"Theatre District" -> "Washington Heights" [label ="62"];
"Theatre District" -> "SoHo" [label ="282"];
"Theatre District" -> "Hell's Kitchen (Clinton)" [label ="990"];
"Theatre District" -> "Lenox Hill" [label ="408"];
"Theatre District" -> "NoHo" [label ="50"];
"Theatre District" -> "The Bowery" [label ="30"];
"Theatre District" -> "East Village" [label ="207"];
"Theatre District" -> "Flatiron District" [label ="202"];
"Theatre District" -> "Midtown (North Central)" [label ="1600"];
"Theatre District" -> "East (Spanish) Harlem" [label ="126"];
"Theatre District" -> "Little Italy" [label ="45"];
"Theatre District" -> "Stuyvesant Town" [label ="11"];
"Theatre District" -> "Yorkville" [label ="518"];
"Theatre District" -> "Financial District" [label ="349"];
"Theatre District" -> "Gramercy" [label ="83"];
"Theatre District" -> "Carnegie Hill" [label ="100"];
"Theatre District" -> "Inwood" [label ="9"];
"Theatre District" -> "Manhattanville" [label ="9"];
"Theatre District" -> "Central Harlem" [label ="124"];
"Theatre District" -> "Midtown (South Central)" [label ="767"];
"Theatre District" -> "Turtle Bay" [label ="459"];
"Theatre District" -> "Civic Center" [label ="70"];
"Theatre District" -> "Sutton Place" [label ="145"];
"Theatre District" -> "Upper West Side" [label ="575"];
"Theatre District" -> "others" [label ="2694"];
"Central Harlem" -> "Morningside Heights" [label ="147"];
"Central Harlem" -> "Theatre District" [label ="29"];
"Central Harlem" -> "Hamilton Heights" [label ="139"];
"Central Harlem" -> "Chelsea" [label ="79"];
"Central Harlem" -> "TriBeCa" [label ="13"];
"Central Harlem" -> "Lower East Side" [label ="18"];
"Central Harlem" -> "Chinatown" [label ="8"];
"Central Harlem" -> "Murray Hill" [label ="14"];
"Central Harlem" -> "Lincoln Square" [label ="75"];
"Central Harlem" -> "Greenwich Village" [label ="35"];
"Central Harlem" -> "Kips Bay" [label ="19"];
"Central Harlem" -> "Washington Heights" [label ="116"];
"Central Harlem" -> "SoHo" [label ="15"];
"Central Harlem" -> "Hell's Kitchen (Clinton)" [label ="135"];
"Central Harlem" -> "Lenox Hill" [label ="62"];
"Central Harlem" -> "The Bowery" [label ="6"];
"Central Harlem" -> "East Village" [label ="46"];
"Central Harlem" -> "Flatiron District" [label ="25"];
"Central Harlem" -> "Midtown (North Central)" [label ="75"];
"Central Harlem" -> "East (Spanish) Harlem" [label ="359"];
"Central Harlem" -> "Yorkville" [label ="151"];
"Central Harlem" -> "Financial District" [label ="19"];
"Central Harlem" -> "Gramercy" [label ="10"];
"Central Harlem" -> "Carnegie Hill" [label ="49"];
"Central Harlem" -> "Inwood" [label ="10"];
"Central Harlem" -> "Manhattanville" [label ="50"];
"Central Harlem" -> "Central Harlem" [label ="743"];
"Central Harlem" -> "Midtown (South Central)" [label ="35"];
"Central Harlem" -> "Turtle Bay" [label ="21"];
"Central Harlem" -> "Civic Center" [label ="6"];
"Central Harlem" -> "Sutton Place" [label ="25"];
"Central Harlem" -> "Upper West Side" [label ="434"];
"Central Harlem" -> "others" [label ="589"];
"Midtown (South Central)" -> "Battery Park City" [label ="132"];
"Midtown (South Central)" -> "Nolita" [label ="110"];
"Midtown (South Central)" -> "Morningside Heights" [label ="48"];
"Midtown (South Central)" -> "Turtle Bay" [label ="477"];
"Midtown (South Central)" -> "Hamilton Heights" [label ="26"];
"Midtown (South Central)" -> "Chelsea" [label ="1268"];
"Midtown (South Central)" -> "TriBeCa" [label ="165"];
"Midtown (South Central)" -> "Lower East Side" [label ="169"];
"Midtown (South Central)" -> "Chinatown" [label ="99"];
"Midtown (South Central)" -> "Murray Hill" [label ="463"];
"Midtown (South Central)" -> "Lincoln Square" [label ="273"];
"Midtown (South Central)" -> "Greenwich Village" [label ="833"];
"Midtown (South Central)" -> "Kips Bay" [label ="520"];
"Midtown (South Central)" -> "Washington Heights" [label ="70"];
"Midtown (South Central)" -> "SoHo" [label ="314"];
"Midtown (South Central)" -> "Hell's Kitchen (Clinton)" [label ="1076"];
"Midtown (South Central)" -> "Central Harlem" [label ="99"];
"Midtown (South Central)" -> "NoHo" [label ="104"];
"Midtown (South Central)" -> "The Bowery" [label ="76"];
"Midtown (South Central)" -> "East Village" [label ="613"];
"Midtown (South Central)" -> "Flatiron District" [label ="564"];
"Midtown (South Central)" -> "Midtown (North Central)" [label ="1301"];
"Midtown (South Central)" -> "East (Spanish) Harlem" [label ="140"];
"Midtown (South Central)" -> "Little Italy" [label ="46"];
"Midtown (South Central)" -> "Stuyvesant Town" [label ="62"];
"Midtown (South Central)" -> "Civic Center" [label ="113"];
"Midtown (South Central)" -> "Financial District" [label ="419"];
"Midtown (South Central)" -> "Gramercy" [label ="301"];
"Midtown (South Central)" -> "Carnegie Hill" [label ="129"];
"Midtown (South Central)" -> "Inwood" [label ="7"];
"Midtown (South Central)" -> "Manhattanville" [label ="7"];
"Midtown (South Central)" -> "Theatre District" [label ="866"];
"Midtown (South Central)" -> "Lenox Hill" [label ="514"];
"Midtown (South Central)" -> "Midtown (South Central)" [label ="1019"];
"Midtown (South Central)" -> "Yorkville" [label ="804"];
"Midtown (South Central)" -> "Sutton Place" [label ="199"];
"Midtown (South Central)" -> "Upper West Side" [label ="409"];
"Midtown (South Central)" -> "others" [label ="2617"];
"Civic Center" -> "Battery Park City" [label ="39"];
"Civic Center" -> "Nolita" [label ="29"];
"Civic Center" -> "Morningside Heights" [label ="5"];
"Civic Center" -> "Turtle Bay" [label ="55"];
"Civic Center" -> "Chelsea" [label ="148"];
"Civic Center" -> "TriBeCa" [label ="63"];
"Civic Center" -> "Lower East Side" [label ="75"];
"Civic Center" -> "Chinatown" [label ="61"];
"Civic Center" -> "Murray Hill" [label ="32"];
"Civic Center" -> "Lincoln Square" [label ="14"];
"Civic Center" -> "Greenwich Village" [label ="129"];
"Civic Center" -> "Kips Bay" [label ="49"];
"Civic Center" -> "SoHo" [label ="85"];
"Civic Center" -> "Hell's Kitchen (Clinton)" [label ="72"];
"Civic Center" -> "Central Harlem" [label ="20"];
"Civic Center" -> "NoHo" [label ="26"];
"Civic Center" -> "Little Italy" [label ="17"];
"Civic Center" -> "East Village" [label ="130"];
"Civic Center" -> "Flatiron District" [label ="52"];
"Civic Center" -> "East (Spanish) Harlem" [label ="12"];
"Civic Center" -> "Midtown (North Central)" [label ="100"];
"Civic Center" -> "Theatre District" [label ="71"];
"Civic Center" -> "The Bowery" [label ="10"];
"Civic Center" -> "Stuyvesant Town" [label ="10"];
"Civic Center" -> "Yorkville" [label ="69"];
"Civic Center" -> "Financial District" [label ="144"];
"Civic Center" -> "Gramercy" [label ="22"];
"Civic Center" -> "Carnegie Hill" [label ="5"];
"Civic Center" -> "Lenox Hill" [label ="35"];
"Civic Center" -> "Midtown (South Central)" [label ="92"];
"Civic Center" -> "Civic Center" [label ="74"];
"Civic Center" -> "Sutton Place" [label ="10"];
"Civic Center" -> "Upper West Side" [label ="32"];
"Civic Center" -> "others" [label ="414"];
"Sutton Place" -> "Battery Park City" [label ="19"];
"Sutton Place" -> "Nolita" [label ="27"];
"Sutton Place" -> "Morningside Heights" [label ="16"];
"Sutton Place" -> "Turtle Bay" [label ="304"];
"Sutton Place" -> "Hamilton Heights" [label ="12"];
"Sutton Place" -> "Chelsea" [label ="354"];
"Sutton Place" -> "TriBeCa" [label ="28"];
"Sutton Place" -> "Lower East Side" [label ="46"];
"Sutton Place" -> "Chinatown" [label ="15"];
"Sutton Place" -> "Murray Hill" [label ="231"];
"Sutton Place" -> "Lincoln Square" [label ="191"];
"Sutton Place" -> "Greenwich Village" [label ="129"];
"Sutton Place" -> "Kips Bay" [label ="262"];
"Sutton Place" -> "Washington Heights" [label ="38"];
"Sutton Place" -> "SoHo" [label ="35"];
"Sutton Place" -> "Hell's Kitchen (Clinton)" [label ="264"];
"Sutton Place" -> "Central Harlem" [label ="52"];
"Sutton Place" -> "NoHo" [label ="20"];
"Sutton Place" -> "The Bowery" [label ="36"];
"Sutton Place" -> "East Village" [label ="152"];
"Sutton Place" -> "Flatiron District" [label ="112"];
"Sutton Place" -> "East (Spanish) Harlem" [label ="90"];
"Sutton Place" -> "Midtown (North Central)" [label ="404"];
"Sutton Place" -> "Theatre District" [label ="124"];
"Sutton Place" -> "Stuyvesant Town" [label ="22"];
"Sutton Place" -> "Yorkville" [label ="787"];
"Sutton Place" -> "Financial District" [label ="59"];
"Sutton Place" -> "Gramercy" [label ="126"];
"Sutton Place" -> "Carnegie Hill" [label ="89"];
"Sutton Place" -> "Inwood" [label ="7"];
"Sutton Place" -> "Lenox Hill" [label ="458"];
"Sutton Place" -> "Midtown (South Central)" [label ="216"];
"Sutton Place" -> "Civic Center" [label ="16"];
"Sutton Place" -> "Sutton Place" [label ="283"];
"Sutton Place" -> "Upper West Side" [label ="244"];
"Sutton Place" -> "others" [label ="1036"];
"Upper West Side" -> "Battery Park City" [label ="69"];
"Upper West Side" -> "Nolita" [label ="36"];
"Upper West Side" -> "Morningside Heights" [label ="593"];
"Upper West Side" -> "Turtle Bay" [label ="336"];
"Upper West Side" -> "Hamilton Heights" [label ="337"];
"Upper West Side" -> "Chelsea" [label ="1038"];
"Upper West Side" -> "TriBeCa" [label ="84"];
"Upper West Side" -> "Lower East Side" [label ="86"];
"Upper West Side" -> "Chinatown" [label ="33"];
"Upper West Side" -> "Murray Hill" [label ="235"];
"Upper West Side" -> "Lincoln Square" [label ="2152"];
"Upper West Side" -> "Greenwich Village" [label ="434"];
"Upper West Side" -> "Kips Bay" [label ="227"];
"Upper West Side" -> "Washington Heights" [label ="573"];
"Upper West Side" -> "SoHo" [label ="107"];
"Upper West Side" -> "Hell's Kitchen (Clinton)" [label ="1288"];
"Upper West Side" -> "Central Harlem" [label ="906"];
"Upper West Side" -> "NoHo" [label ="38"];
"Upper West Side" -> "The Bowery" [label ="34"];
"Upper West Side" -> "East Village" [label ="245"];
"Upper West Side" -> "Flatiron District" [label ="202"];
"Upper West Side" -> "Midtown (North Central)" [label ="1016"];
"Upper West Side" -> "East (Spanish) Harlem" [label ="550"];
"Upper West Side" -> "Little Italy" [label ="11"];
"Upper West Side" -> "Stuyvesant Town" [label ="31"];
"Upper West Side" -> "Yorkville" [label ="2259"];
"Upper West Side" -> "Financial District" [label ="98"];
"Upper West Side" -> "Gramercy" [label ="146"];
"Upper West Side" -> "Carnegie Hill" [label ="572"];
"Upper West Side" -> "Inwood" [label ="68"];
"Upper West Side" -> "Manhattanville" [label ="83"];
"Upper West Side" -> "Theatre District" [label ="422"];
"Upper West Side" -> "Lenox Hill" [label ="874"];
"Upper West Side" -> "Midtown (South Central)" [label ="283"];
"Upper West Side" -> "Civic Center" [label ="30"];
"Upper West Side" -> "Sutton Place" [label ="192"];
"Upper West Side" -> "Upper West Side" [label ="5293"];
"Upper West Side" -> "others" [label ="2830"];
"others" -> "Battery Park City" [label ="320"];
"others" -> "Nolita" [label ="347"];
"others" -> "Morningside Heights" [label ="255"];
"others" -> "Turtle Bay" [label ="1057"];
"others" -> "Hamilton Heights" [label ="215"];
"others" -> "Chelsea" [label ="2535"];
"others" -> "TriBeCa" [label ="460"];
"others" -> "Lower East Side" [label ="910"];
"others" -> "Chinatown" [label ="307"];
"others" -> "Murray Hill" [label ="983"];
"others" -> "Lincoln Square" [label ="1028"];
"others" -> "Greenwich Village" [label ="1942"];
"others" -> "Kips Bay" [label ="1085"];
"others" -> "Washington Heights" [label ="476"];
"others" -> "SoHo" [label ="745"];
"others" -> "Hell's Kitchen (Clinton)" [label ="1938"];
"others" -> "Central Harlem" [label ="790"];
"others" -> "NoHo" [label ="229"];
"others" -> "The Bowery" [label ="201"];
"others" -> "East Village" [label ="1731"];
"others" -> "Flatiron District" [label ="827"];
"others" -> "East (Spanish) Harlem" [label ="722"];
"others" -> "Midtown (North Central)" [label ="2152"];
"others" -> "Theatre District" [label ="1525"];
"others" -> "Little Italy" [label ="92"];
"others" -> "Stuyvesant Town" [label ="126"];
"others" -> "Yorkville" [label ="2671"];
"others" -> "Financial District" [label ="825"];
"others" -> "Gramercy" [label ="604"];
"others" -> "Carnegie Hill" [label ="436"];
"others" -> "Inwood" [label ="85"];
"others" -> "Manhattanville" [label ="51"];
"others" -> "Lenox Hill" [label ="1549"];
"others" -> "Midtown (South Central)" [label ="1327"];
"others" -> "Civic Center" [label ="285"];
"others" -> "Sutton Place" [label ="489"];
"others" -> "Upper West Side" [label ="2232"];
"others" -> "others" [label ="31545"];
}